Name,OutCode,Time,Mem
glucose.sh+001-80-12.cnf+c989af,0,807.11,177776,81227,11358337,184730200,1395009940,SATISFIABLE,
glucose.sh+002-23-96.cnf+61964c03,0,3606.55,159632
glucose.sh+002-80-12.cnf+95ae3c70,0,1074.1,197908,86376,11719357,189074372,1540838934,SATISFIABLE,
glucose.sh+002-80-4.cnf+891e57ff,0,197.42,137752,30081,4158456,78865428,482818029,SATISFIABLE,
glucose.sh+002-80-8.cnf+8956b603,0,749.26,174352,74456,10903959,171440945,1304012737,SATISFIABLE,
glucose.sh+003-23-80.cnf+f471991f,0,3597.45,164180
glucose.sh+003-80-8.cnf+7da02722,0,608.85,165360,68030,9408184,154588313,1122148172,SATISFIABLE,
glucose.sh+004-22-144.cnf+a1f2d242,0,3597.68,161160
glucose.sh+004-22-160.cnf+a524257c,0,3597.47,164100
glucose.sh+004-80-8.cnf+71e99841,0,661.9,170844,71878,10279010,162772059,1207572723,SATISFIABLE,
glucose.sh+005-22-160.cnf+acd5cadb,0,3600.9,160108
glucose.sh+005-80-12.cnf+545c54b3,0,1861.69,258976,114319,14902530,233192777,2055801950,SATISFIABLE,
glucose.sh+006-22-144.cnf+b1561d00,0,3597.03,162148
glucose.sh+006-22-160.cnf+b487703a,0,3598.09,159404
glucose.sh+006-23-80.cnf+b31fb162,0,3598.29,158516
glucose.sh+006-23-96.cnf+b5291707,0,3598.3,159108
glucose.sh+006-80-4.cnf+5a441c7b,0,215.37,138552,28917,4363801,79128235,499133721,SATISFIABLE,
glucose.sh+007-80-12.cnf+7e25ba35,0,1014.99,203312,82039,10799464,181540717,1480967251,SATISFIABLE,
glucose.sh+007-80-8.cnf+4ec5eb9e,0,584.81,169612,67422,9731531,157078824,1170629695,SATISFIABLE,
glucose.sh+008-80-12.cnf+130a6cf6,0,720.16,175060,78407,11176774,179677274,1320138342,SATISFIABLE,
glucose.sh+008-80-4.cnf+42d6feb9,0,275.06,144136,37001,5444918,95427472,621545789,SATISFIABLE,
glucose.sh+008-80-8.cnf+430f5cbd,0,506.24,161940,59536,8717603,147843524,1037891881,SATISFIABLE,
glucose.sh+009-23-64.cnf+6e9c766b,0,3600.82,157512
glucose.sh+009-80-4.cnf+37206fd8,0,241.17,141908,31986,4612469,87390692,562966566,SATISFIABLE,
glucose.sh+009-80-8.cnf+3758cddc,0,739.65,172420,81574,11711355,189837650,1408180142,SATISFIABLE,
glucose.sh+010-22-144.cnf+71af4347,0,3598.57,159388
glucose.sh+010-22-160.cnf+74e09681,0,3596.45,159768
glucose.sh+010-23-80.cnf+3d75263b,0,3597.53,164684
glucose.sh+010-80-12.cnf+73967c4d,0,887.8,193000,85327,11642438,187193770,1458175436,SATISFIABLE,
glucose.sh+10pipe_q0_k.cnf+cb53b272,0,220.85,271512,5907,2122093,17938449,2068202748,UNSATISFIABLE,
glucose.sh+11pipe_11_ooo.cnf+ebbad536,0,3595.88,621944
glucose.sh+11pipe_k.cnf+14cd8adf,0,953.13,9252484,7517,3838795,35747306,5909022694,UNSATISFIABLE,
glucose.sh+11pipe_q0_k.cnf+ad317c11,0,339.68,355148,7500,2523507,23134728,3237017169,UNSATISFIABLE,
glucose.sh+12pipe_q0_k.cnf+8f0f45b0,0,458.53,484348,9396,3139950,37763742,4507775168,UNSATISFIABLE,
glucose.sh+13pipe_q0_k.cnf+70ed0f4f,0,1649.56,655660,8888,7407341,62141176,16890605479,UNSATISFIABLE,
glucose.sh+14pipe_q0_k.cnf+52cad8ee,0,1256.01,828148,14769,3338540,60543280,11001181716,UNSATISFIABLE,
glucose.sh+15pipe_q0_k.cnf+34a8a28d,0,1942.86,1092648,19051,5027542,93493933,18808026602,UNSATISFIABLE,
glucose.sh+289-unsat-6x30.cnf+a74b8a20,0,8.0,49844,3425,627584,2142036,10174732,SATISFIABLE,
glucose.sh+5-SATISFIABLE.cnf+1ddade48,0,232.07,214440,6034,1231223,2610021,912677621,SATISFIABLE,
glucose.sh+6s10.cnf+672bbf81,0,230.04,89864,10071,2387325,6048938,536768318,UNSATISFIABLE,
glucose.sh+6s11-opt.cnf+fc184e8,0,286.55,89764,10807,2879868,7242832,602332385,UNSATISFIABLE,
glucose.sh+6s12.cnf+6747ee83,0,280.38,90700,10991,2748106,6342495,618732728,UNSATISFIABLE,
glucose.sh+6s123.cnf+81e417ca,0,3168.22,487968,23704,3991600,1308640888,12484149753,UNSATISFIABLE,
glucose.sh+6s126-opt.cnf+131b6eb3,0,3596.85,361356
glucose.sh+6s13-opt.cnf+384a62ea,0,316.09,101644,11532,3090804,9276683,671704821,UNSATISFIABLE,
glucose.sh+6s130-opt.cnf+8dca45cc,0,267.16,106412,10517,3730005,14000230,645171430,UNSATISFIABLE,
glucose.sh+6s131-opt.cnf+220eb4cd,0,278.82,107028,11500,3661737,14276905,645621162,UNSATISFIABLE,
glucose.sh+6s133.cnf+8398f069,0,223.72,111580,9489,3152388,11788355,543807847,UNSATISFIABLE,
glucose.sh+6s137.cnf+83d14e6d,0,3602.47,449440
glucose.sh+6s151.cnf+86e672a5,0,3597.99,195892
glucose.sh+6s153.cnf+8702a1a7,0,45.11,75304,4818,1120906,2783594,166463068,UNSATISFIABLE,
glucose.sh+6s16-opt.cnf+f517afed,0,308.35,90612,11662,3020197,6971252,582558715,UNSATISFIABLE,
glucose.sh+6s16.cnf+67804c87,0,311.45,89668,11104,2964853,7604600,609692137,UNSATISFIABLE,
glucose.sh+6s165-nonopt.cnf+c4bd5ce5,0,13.25,20856,938,436189,560866,27809772,UNSATISFIABLE,
glucose.sh+6s167-opt.cnf+7885a230,0,77.36,35668,2877,1306662,1581271,93900918,UNSATISFIABLE,
glucose.sh+6s168-opt.cnf+cca1131,0,51.67,39160,2031,1130852,1376315,81897508,UNSATISFIABLE,
glucose.sh+6s169-opt.cnf+a10e8032,0,161.96,56652,3742,2440444,2953480,234108545,UNSATISFIABLE,
glucose.sh+6s17-opt.cnf+895c1eee,0,370.11,100152,13383,3433125,9683031,736845522,UNSATISFIABLE,
glucose.sh+6s184.cnf+8c2f4305,0,305.33,86108,10768,2963913,6695681,587641222,UNSATISFIABLE,
glucose.sh+6s9.cnf+3d930d11,0,229.2,76592,9788,2468344,5765428,540480970,UNSATISFIABLE,
glucose.sh+7pipe_k.cnf+91af82c6,0,605.93,589612,5727,5281985,16664835,3263173787,UNSATISFIABLE,
glucose.sh+8pipe_k.cnf+26943587,0,130.09,223268,5179,1715443,10697194,1170152695,UNSATISFIABLE,
glucose.sh+9dlx_vliw_at_b_iq3.cnf+425df21a,0,97.96,158572,3788,891102,16973861,665903666,UNSATISFIABLE,
glucose.sh+9dlx_vliw_at_b_iq4.cnf+426c099b,0,194.37,197992,5851,1272915,33215148,1307191947,UNSATISFIABLE,
glucose.sh+9dlx_vliw_at_b_iq6.used-as.sat04-347.cnf+aff51d16,0,413.8,422572,9607,1521900,60983647,2962692586,UNSATISFIABLE,
glucose.sh+9dlx_vliw_at_b_iq7.cnf+4296501e,0,571.2,619560,9861,1366626,70640655,4454566153,UNSATISFIABLE,
glucose.sh+9dlx_vliw_at_b_iq8.used-as.sat04-718.cnf+12e0ca40,0,1017.23,736164,16711,2257678,125402140,8401440355,UNSATISFIABLE,
glucose.sh+9dlx_vliw_at_b_iq9.cnf+42b27f20,0,1762.13,987328,22428,2871678,190568810,13960098069,UNSATISFIABLE,
glucose.sh+9vliw_m_9stages_iq3_C1_bug1.cnf+2785898a,0,11.52,1281884,35,4566,1285032,76276260,SATISFIABLE,
glucose.sh+9vliw_m_9stages_iq3_C1_bug10.cnf+c92f9720,0,16.47,1278184,24,6496,2482265,175861733,SATISFIABLE,
glucose.sh+9vliw_m_9stages_iq3_C1_bug3.cnf+27a1b88c,0,16.51,1278132,49,9071,2193796,127397994,SATISFIABLE,
glucose.sh+9vliw_m_9stages_iq3_C1_bug4.cnf+27afd00d,0,21.6,1278504,95,14798,2413030,196474669,SATISFIABLE,
glucose.sh+9vliw_m_9stages_iq3_C1_bug7.cnf+27da1690,0,28.8,1276148,102,21224,3357686,243467421,SATISFIABLE,
glucose.sh+9vliw_m_9stages_iq3_C1_bug8.cnf+27e82e11,0,48.35,1277744,275,39695,3747467,483590701,SATISFIABLE,
glucose.sh+9vliw_m_9stages_iq3_C1_bug9.cnf+27f64592,0,66.47,1276968,315,58727,4376867,710031182,SATISFIABLE,
glucose.sh+ACG-15-10p0.cnf+e5ee5ef5,0,507.87,204816,293,306608,596562,2799527132,UNSATISFIABLE,
glucose.sh+ACG-15-10p1.cnf+e5fc7676,0,896.08,193556,393,497350,895302,4366674292,SATISFIABLE,
glucose.sh+ACG-20-10p1.cnf+b571f39c,0,1631.93,278576,1119,631364,1772224,7089977453,SATISFIABLE,
glucose.sh+ACG-20-5p0.cnf+f8d06db3,0,230.51,214908,346,109010,494083,921421650,UNSATISFIABLE,
glucose.sh+ACG-20-5p1.cnf+f8de8534,0,673.37,230800,561,355030,939578,3134808715,SATISFIABLE,
glucose.sh+AProVE07-01.cnf+53ded641,0,3599.3,144632
glucose.sh+AProVE07-03.cnf+53fb0543,0,163.37,49704,2522,1532340,1970666,225176946,UNSATISFIABLE,
glucose.sh+AProVE07-08.cnf+54417ac8,0,135.28,44696,2159,1268716,1745496,321656754,UNSATISFIABLE,
glucose.sh+AProVE07-27.cnf+579d1485,0,500.07,83572,9546,2777072,3531432,1057715857,UNSATISFIABLE,
glucose.sh+AProVE09-06.cnf+23e7a584,0,546.28,130844,2583,1146245,1743095,2719435239,SATISFIABLE,
glucose.sh+Chvatal-k5.cnf+1ebd204f,0,0.02,4728,1,44,966,8384,SATISFIABLE,
glucose.sh+Composite-024BitPrimes-1.used-as.sat04-861.cnf+6fcc94f6,0,214.68,47692,1273,1613603,1719642,371081817,SATISFIABLE,
glucose.sh+Composite-024BitPrimes-1.used-as.sat04-861.cnf+aa39a976,0,229.29,46468,1273,1613603,1719642,371081817,SATISFIABLE,
glucose.sh+E02F20.cnf+c53059c2,0,79.98,150488,3571,783164,1903980,230628195,SATISFIABLE,
glucose.sh+E02F22.cnf+c54c88c4,0,383.87,256156,6386,1382612,3540976,504093915,SATISFIABLE,
glucose.sh+EDP3-10000.cnf+c659ba2d,0,3597.4,190224
glucose.sh+EDP3-11000.cnf+2e3ae70c,0,3597.62,207636
glucose.sh+EDP3-12000.cnf+961c13eb,0,3596.59,215344
glucose.sh+EDP3-13000.cnf+fdfd40ca,0,3597.71,220516
glucose.sh+EDP3-14000.cnf+65de6da9,0,3597.92,264932
glucose.sh+EDP3-15000.cnf+cdbf9a88,0,3597.92,244540
glucose.sh+EDP3-16000.cnf+35a0c767,0,3595.15,255648
glucose.sh+EDP3-17000.cnf+9d81f446,0,3597.33,228564
glucose.sh+EDP3-18000.cnf+5632125,0,3597.1,233776
glucose.sh+EDP3-19000.cnf+6d444e04,0,3596.78,248012
glucose.sh+EDP3-20000.cnf+5a9e292e,0,3597.06,249992
glucose.sh+EDP3-30000.cnf+eee2982f,0,3596.52,334004
glucose.sh+EDP3-40000.cnf+83270730,0,3597.19,418956
glucose.sh+EDP3-50000.cnf+176b7631,0,3597.82,510212
glucose.sh+EDP3-60000.cnf+abafe532,0,3597.17,591736
glucose.sh+EDP3-70000.cnf+3ff45433,0,3597.67,700700
glucose.sh+EDP3-8000.cnf+175c8af6,0,43.78,88108,974,161208,2365091,188171216,SATISFIABLE,
glucose.sh+EDP3-80000.cnf+d438c334,0,3597.94,807160
glucose.sh+EDP3-9000.cnf+7f3db7d5,0,353.57,139752,9257,1594733,20595661,1955867251,SATISFIABLE,
glucose.sh+EDP3-90000.cnf+687d3235,0,3596.96,927472
glucose.sh+FlowerSnark-k6.cnf+60091c7b,0,325.6,89916,7549,2131898,4924916,821914380,UNSATISFIABLE,
glucose.sh+GreenTao_2-3-6_2071.cnf+8f9af369,0,3597.55,248404
glucose.sh+GreenTao_2-4-4_511.cnf+adf75ddd,0,3598.45,178924
glucose.sh+Hidoku_enu_6.cnf+75527cc1,0,3.81,18832,768,93986,351353,11653757,SATISFIABLE,
glucose.sh+Hidoku_enu_7.cnf+75609442,0,8.89,35032,1579,173063,916079,33649330,SATISFIABLE,
glucose.sh+IBM_FV_2004_rule_batch_1_31_1_SAT_dat.k40.debugged.cnf+6f7c1021,0,3597.93,168608
glucose.sh+LABS_n038_goal002.cnf+ab3d6fd3,0,1969.14,97464,3691,5190447,5705680,6395505195,UNSATISFIABLE,
glucose.sh+LABS_n044_goal003.cnf+d31d36ef,0,3597.14,140804
glucose.sh+LABS_n045_goal003.cnf+c1a03d70,0,3273.08,150352,187,6142507,6623890,11057428372,SATISFIABLE,
glucose.sh+LABS_n051_goal004.cnf+e980048c,0,3598.3,149444
glucose.sh+LABS_n052_goal004.cnf+d8030b0d,0,3597.82,151844
glucose.sh+LABS_n066_goal005.cnf+73fb0631,0,3597.83,180404
glucose.sh+LABS_n078_goal006.cnf+32ecf453,0,3597.5,218048
glucose.sh+LABS_n081_goal007.cnf+8f43a7ec,0,3598.68,242896
glucose.sh+LABS_n082_goal007.cnf+7dc6ae6d,0,3598.34,247676
glucose.sh+LABS_n088_goal008.cnf+14e6ecf4,0,1899.87,265316,2424,1685847,2130206,8245885663,SATISFIABLE,
glucose.sh+MD5-27-4.cnf+e9fcefc0,0,50.27,52792,5984,794741,9219477,136201128,SATISFIABLE,
glucose.sh+MD5-28-1.cnf+1eb8e47e,0,3596.87,160576
glucose.sh+MD5-28-2.cnf+1ec6fbff,0,3598.53,149128
glucose.sh+MD5-28-3.cnf+1ed51380,0,3599.62,147296
glucose.sh+MD5-28-4.cnf+1ee32b01,0,3603.97,157524
glucose.sh+MD5-28-5.cnf+1ef14282,0,3597.8,159112
glucose.sh+MD5-29-2.cnf+53ad3740,0,3598.16,159108
glucose.sh+MD5-29-3.cnf+53bb4ec1,0,3597.98,159604
glucose.sh+MD5-29-4.cnf+53c96642,0,3600.47,152048
glucose.sh+MD5-29-5.cnf+53d77dc3,0,3596.82,159920
glucose.sh+MD5-30-1.cnf+df683755,0,3597.77,163216
glucose.sh+MD5-30-2.cnf+df764ed6,0,3596.94,157564
glucose.sh+MD5-30-4.cnf+df927dd8,0,3597.74,158800
glucose.sh+MD5-30-5.cnf+dfa09559,0,3596.78,159176
glucose.sh+MD5-31-4.cnf+1478b919,0,3597.92,173116
glucose.sh+MD5-31-5.cnf+1486d09a,0,3598.26,172952
glucose.sh+MD5-32-1.cnf+4934add7,0,3598.43,179100
glucose.sh+MD5-32-2.cnf+4942c558,0,3598.29,172792
glucose.sh+MD5-32-3.cnf+4950dcd9,0,3598.1,181880
glucose.sh+MD5-32-4.cnf+495ef45a,0,3599.26,179136
glucose.sh+MD5-32-5.cnf+496d0bdb,0,3604.05,170440
glucose.sh+Q32inK09.cnf+498c6b9f,0,15.88,19864,272,376574,400244,2578207,UNSATISFIABLE,
glucose.sh+Q32inK10.cnf+4ac270b5,0,15.84,23368,155,366767,388248,2506438,UNSATISFIABLE,
glucose.sh+Q32inK11.cnf+4ad08836,0,34.12,44180,39,336758,354707,2273051,UNSATISFIABLE,
glucose.sh+Q3inK10.cnf+324a315d,0,5.19,17312,1,0,31,45,SATISFIABLE,
glucose.sh+Q3inK11.cnf+1eb9bc77,0,130.26,57096,1,24,61,193,SATISFIABLE,
glucose.sh+Robertson-k8.cnf+857c31,0,524.12,120436,10031,3015221,6212645,998746136,UNSATISFIABLE,
glucose.sh+SAT_dat.k100-24_1_rule_1.cnf+8e28ca27,0,3599.41,923152
glucose.sh+SAT_dat.k100-24_1_rule_2.cnf+8e36e1a8,0,3599.31,917284
glucose.sh+SAT_dat.k100-24_1_rule_3.cnf+8e44f929,0,3597.07,921504
glucose.sh+SAT_dat.k30-30_rule.cnf+8d588e3e,0,3002.02,232296,38911,5763588,11061035,7319015400,SATISFIABLE,
glucose.sh+SAT_dat.k35-31_2_rule_2.cnf+26df88c2,0,3513.19,179216,36715,9354671,13761269,6055583176,UNSATISFIABLE,
glucose.sh+SAT_dat.k70-24_1_rule_1.cnf+e9d3f0f5,0,2810.38,739512,17170,2327497,7970686,12768749221,UNSATISFIABLE,
glucose.sh+SAT_dat.k70-24_1_rule_3.cnf+e9f01ff7,0,3065.39,742088,20292,2787938,9382253,14435235134,UNSATISFIABLE,
glucose.sh+SAT_dat.k75-24_1_rule_3.cnf+7d4175fc,0,3597.4,782600
glucose.sh+SAT_dat.k80-24_1_rule_1.cnf+ae65d314,0,3599.92,710888
glucose.sh+SAT_dat.k80-24_1_rule_2.cnf+ae73ea95,0,3605.6,714372
glucose.sh+SAT_dat.k85-24_1_rule_1.cnf+41b72919,0,3597.86,758464
glucose.sh+SAT_dat.k85-24_1_rule_2.cnf+41c5409a,0,3598.09,759336
glucose.sh+SAT_dat.k85-24_1_rule_3.cnf+41d3581b,0,3597.07,759756
glucose.sh+SAT_dat.k90.debugged.cnf+59752034,0,3597.6,830452
glucose.sh+SAT_dat.k95-24_1_rule_1.cnf+6490b38,0,3601.75,854956
glucose.sh+SAT_dat.k95-24_1_rule_2.cnf+65722b9,0,3600.65,866960
glucose.sh+SAT_dat.k95-24_1_rule_3.cnf+6653a3a,0,3598.64,874760
glucose.sh+SAT_instance_N=111.cnf+46a41538,0,3598.46,251468
glucose.sh+SAT_instance_N=31.cnf+dc662551,0,3597.93,144796
glucose.sh+SAT_instance_N=33.cnf+dc825453,0,3597.34,143952
glucose.sh+SAT_instance_N=43.cnf+de372cf2,0,3597.46,168340
glucose.sh+SAT_instance_N=49.cnf+de8bb9f8,0,3597.68,176488
glucose.sh+SAT_instance_N=55.cnf+e0083493,0,3596.04,183388
glucose.sh+SAT_instance_N=63.cnf+e1a0de30,0,3598.24,181580
glucose.sh+SAT_instance_N=69.cnf+e1f56b36,0,3597.82,179512
glucose.sh+SAT_instance_N=72.cnf+e3479f4e,0,3596.97,187392
glucose.sh+SAT_instance_N=75.cnf+e371e5d1,0,3598.61,199348
glucose.sh+SAT_instance_N=77.cnf+e38e14d3,0,3598.06,182264
glucose.sh+SAT_instance_N=85.cnf+e526be70,0,3597.92,201156
glucose.sh+SAT_instance_N=93.cnf+e6bf680d,0,3598.17,186564
glucose.sh+SAT_instance_N=99.cnf+e713f513,0,3598.26,228784
glucose.sh+UCG-15-10p0.cnf+eb12ac09,0,254.03,174064,258,214556,469547,1285287129,UNSATISFIABLE,
glucose.sh+UCG-15-10p1.cnf+eb20c38a,0,431.0,181700,346,321396,712917,1890674510,SATISFIABLE,
glucose.sh+UCG-20-10p0.cnf+ba88292f,0,1288.18,236080,687,920895,1693189,6221381786,UNSATISFIABLE,
glucose.sh+UCG-20-10p1.cnf+ba9640b0,0,1679.55,259332,1044,1076475,2041014,7351481284,SATISFIABLE,
glucose.sh+UCG-20-5p0.cnf+9e242e1f,0,328.03,188284,348,276036,642546,1346158723,UNSATISFIABLE,
glucose.sh+UCG-20-5p1.cnf+9e3245a0,0,158.95,162560,422,134830,606957,611431064,SATISFIABLE,
glucose.sh+UR-15-10p0.cnf+da6e209d,0,291.68,175056,582,176287,725285,1184827241,UNSATISFIABLE,
glucose.sh+UR-15-10p1.cnf+da7c381e,0,733.27,186500,889,417564,1246138,2988719861,SATISFIABLE,
glucose.sh+UR-20-10p0.cnf+a9e39dc3,0,2617.06,266732,2264,1171849,3157708,8903982874,UNSATISFIABLE,
glucose.sh+UR-20-10p1.cnf+a9f1b544,0,1643.96,284364,2625,806061,3031476,5319321820,SATISFIABLE,
glucose.sh+UR-20-5p0.cnf+29fdd70b,0,397.32,200152,1434,304622,1494043,1268791622,UNSATISFIABLE,
glucose.sh+UTI-20-10p0.cnf+974899c0,0,414.57,253388,3284,609815,3216920,1197364199,UNSATISFIABLE,
glucose.sh+UTI-20-10p1.cnf+9756b141,0,804.65,297704,4491,915808,4532218,1908019762,SATISFIABLE,
glucose.sh+UTI-20-5p1.cnf+8448feef,0,664.25,239448,4336,1033707,4206212,1762233272,SATISFIABLE,
glucose.sh+Urq3_5.cnf+3499d61b,0,8.7,22384,110,648953,827165,2552476,UNSATISFIABLE,
glucose.sh+Urq4_5.cnf+6980115c,0,384.82,146224,3908,11816647,13794070,40648315,UNSATISFIABLE,
glucose.sh+Urq5_5.cnf+9e664c9d,0,3597.84,239552
glucose.sh+Urq6_5.cnf+d34c87de,0,3597.0,261048
glucose.sh+Urq7_5.cnf+832c31f,0,3596.31,269352
glucose.sh+Urq8_5.cnf+3d18fe60,0,3597.32,277068
glucose.sh+VanDerWaerden_pd_2-3-20_388.cnf+6dd2aa4e,0,146.59,72488,3426,2617831,3162192,72081669,SATISFIABLE,
glucose.sh+aaai10-planning-ipc5-TPP-21-step11.cnf+55f6a2fc,0,769.24,239944,2737,887667,2378795,4886713934,UNSATISFIABLE,
glucose.sh+aaai10-planning-ipc5-TPP-30-step11.cnf+3cc8041e,0,31.33,302152,163,32798,929783,288120152,SATISFIABLE,
glucose.sh+aaai10-planning-ipc5-pathways-13-step17.cnf+d30631d8,0,324.31,117952,8931,1522150,2857520,976870808,UNSATISFIABLE,
glucose.sh+aaai10-planning-ipc5-pathways-17-step20.cnf+f31efb6c,0,336.12,139636,6256,1401972,2398497,1563826323,UNSATISFIABLE,
glucose.sh+aaai10-planning-ipc5-pathways-17-step21.cnf+f32d12ed,0,914.84,206772,16424,3155971,6750188,2961832947,SATISFIABLE,
glucose.sh+aes_24_4_keyfind_4.cnf+dee2121a,0,3598.35,133296
glucose.sh+aes_24_4_keyfind_5.cnf+def0299b,0,3597.55,106776
glucose.sh+aes_32_2_keyfind_1.cnf+4e3f1d32,0,3598.74,134092
glucose.sh+aes_32_2_keyfind_3.cnf+4e5b4c34,0,3599.14,146772
glucose.sh+aes_32_3_keyfind_1.cnf+a81a8773,0,1344.06,129176,1993,7116697,7472264,486553086,SATISFIABLE,
glucose.sh+aes_64_1_keyfind_1.cnf+329b6d72,0,3598.03,128596
glucose.sh+aes_64_1_keyfind_1.cnf+e36d1550,0,3604.54,125820
glucose.sh+anna.col.11.cnf+4fbdbd33,0,118.01,59316,6762,1969253,2425457,58595683,UNSATISFIABLE,
glucose.sh+atco_enc1_opt1_03_56.cnf+ffeb86a9,0,12.47,51456,795,109641,658990,58516850,SATISFIABLE,
glucose.sh+atco_enc1_opt1_04_32.cnf+642aa446,0,3279.31,177624,31055,8868874,13575850,8991937576,SATISFIABLE,
glucose.sh+atco_enc1_opt1_05_21.cnf+ca48e105,0,38.61,101548,2102,244016,2007153,195318254,SATISFIABLE,
glucose.sh+atco_enc1_opt1_10_15.cnf+55aaf510,0,287.91,110140,3227,1866281,2635894,1168784877,SATISFIABLE,
glucose.sh+atco_enc1_opt1_10_21.cnf+57276fab,0,58.17,76164,792,823235,1208808,271429733,SATISFIABLE,
glucose.sh+atco_enc1_opt1_15_240.cnf+783f2a01,0,92.31,91164,3322,224664,4128286,338746486,SATISFIABLE,
glucose.sh+atco_enc1_opt1_18_18.cnf+94dea28b,0,195.49,130836,5430,1046729,2276876,884717548,SATISFIABLE,
glucose.sh+atco_enc1_opt2_05_4.cnf+453e1ac7,0,115.71,95540,3102,873827,1499820,259166841,UNSATISFIABLE,
glucose.sh+atco_enc1_opt2_10_12.cnf+ea65614e,0,214.36,61900,2445,1854451,2349127,356145256,UNSATISFIABLE,
glucose.sh+atco_enc1_opt2_10_14.cnf+ea819050,0,231.93,93200,2474,1971367,2568552,434820023,UNSATISFIABLE,
glucose.sh+atco_enc1_opt2_10_15.cnf+ea8fa7d1,0,286.34,83372,2098,2464185,3051574,445743190,UNSATISFIABLE,
glucose.sh+atco_enc1_opt2_10_16.cnf+ea9dbf52,0,3599.44,155332
glucose.sh+atco_enc1_opt2_20_12.cnf+7ea9d04f,0,1149.65,689864,12286,4128681,5330670,2554920429,UNSATISFIABLE,
glucose.sh+atco_enc2_opt1_05_21.cnf+abdabee4,0,35.67,93124,2053,244836,1859985,153964755,SATISFIABLE,
glucose.sh+atco_enc2_opt1_10_21.cnf+38b94d8a,0,288.05,100808,6054,2895008,4345077,829178773,SATISFIABLE,
glucose.sh+atco_enc2_opt1_15_100.cnf+8d2f6a45,0,113.52,94712,4987,480052,5267689,431110954,SATISFIABLE,
glucose.sh+atco_enc2_opt1_20_11.cnf+cb48e3ec,0,421.23,1085648,4730,1314386,1718263,1794450872,UNSATISFIABLE,
glucose.sh+atco_enc2_opt2_05_4.cnf+9f198508,0,131.64,103256,2288,981174,1551457,318456751,UNSATISFIABLE,
glucose.sh+atco_enc2_opt2_05_9.cnf+9f5ffa8d,0,2031.47,210172,25857,7250836,12616514,2038294441,SATISFIABLE,
glucose.sh+atco_enc2_opt2_10_21.cnf+cd9e004b,0,1409.85,157744,37465,10176717,14805222,1816703269,SATISFIABLE,
glucose.sh+atco_enc2_opt2_20_11.cnf+602d96ad,0,282.5,664760,4219,1295664,1724004,817168016,UNSATISFIABLE,
glucose.sh+atco_enc3_opt1_03_53.cnf+c2e4fbe4,0,1022.55,650796,3401,489191,1776851,7562640109,SATISFIABLE,
glucose.sh+atco_enc3_opt1_04_50.cnf+2a9be240,0,852.32,853636,2408,264955,3088141,6786022062,SATISFIABLE,
glucose.sh+atco_enc3_opt1_13_48.cnf+55bb07cb,0,1098.69,914064,1722,221791,5744722,8157023827,SATISFIABLE,
glucose.sh+atco_enc3_opt2_05_21.cnf+22514f84,0,323.12,840476,759,116799,809383,2718692059,SATISFIABLE,
glucose.sh+atco_enc3_opt2_10_12.cnf+ad891d0c,0,850.0,640052,830,316090,442050,5004276981,UNSATISFIABLE,
glucose.sh+atco_enc3_opt2_10_14.cnf+ada54c0e,0,989.79,644380,627,444857,609310,6184920440,UNSATISFIABLE,
glucose.sh+atco_enc3_opt2_18_44.cnf+f1cd3ce3,0,612.06,695380,1737,197143,1424802,5184922183,SATISFIABLE,
glucose.sh+beempgsol2b1.cnf+80016438,0,105.59,59820,1588,968872,1636499,316558378,UNSATISFIABLE,
glucose.sh+beempgsol5b1.cnf+1eb415fb,0,73.82,48440,1158,721189,1293368,242317123,UNSATISFIABLE,
glucose.sh+bjrb07amba10andenv.cnf+604dd24,0,731.26,131504,4161,1497984,2930577,3404225682,UNSATISFIABLE,
glucose.sh+blocks-blocks-36-0.120-NOTKNOWN.cnf+e4761ceb,0,706.01,713432,580,346935,1357228,2527549686,UNSATISFIABLE,
glucose.sh+blocks-blocks-36-0.130-NOTKNOWN.cnf+3e51872c,0,154.73,777772,254,67013,912678,596691420,SATISFIABLE,
glucose.sh+blocks-blocks-37-1.130-NOTKNOWN.cnf+ea853faa,0,691.76,828756,263,172062,958525,1501048109,UNSATISFIABLE,
glucose.sh+bob12m02-opt.cnf+f919cfe4,0,672.58,154884,51382,8066520,17627605,1211512667,UNSATISFIABLE,
glucose.sh+bob12m02.cnf+fd86fffe,0,559.48,172484,38575,8637467,16228898,963726090,UNSATISFIABLE,
glucose.sh+bob12m04.cnf+fda32f00,0,82.43,350804,263,92514,35837249,215779276,UNSATISFIABLE,
glucose.sh+bob12m09-opt.cnf+6f8d8eb,0,177.74,74992,4125,1258708,1964902,679976734,UNSATISFIABLE,
glucose.sh+bob12s02.cnf+3aec6384,0,376.5,153364,29018,6303175,12335309,739766957,UNSATISFIABLE,
glucose.sh+bob12s09-opt.cnf+84550971,0,133.51,72236,3739,1074491,1726334,480658876,UNSATISFIABLE,
glucose.sh+bvadd_17322.cnf+8fbbf12e,0,53.8,333992,2411,756369,101635590,230786985,UNSATISFIABLE,
glucose.sh+bvadd_27079.cnf+8e388e0e,0,121.19,515456,3804,1185928,269085588,564875752,UNSATISFIABLE,
glucose.sh+bvadd_27966.cnf+68718435,0,171.59,553064,1478,1768985,328832507,734109801,UNSATISFIABLE,
glucose.sh+bvadd_29740.cnf+caa9292d,0,165.57,559912,5267,1407133,354670247,756608973,UNSATISFIABLE,
glucose.sh+bvashr_0710.cnf+17166f88,0,793.85,248740,1550,1233580,99524404,2869265431,UNSATISFIABLE,
glucose.sh+bvslt_13916.cnf+7d2ef2b7,0,592.5,508464,2232,317931,303572677,2192096689,UNSATISFIABLE,
glucose.sh+bvslt_19860.cnf+bfc372c5,0,1738.15,991524,3370,470588,608130805,5533884855,UNSATISFIABLE,
glucose.sh+bvsub_06991.cnf+fb18988b,0,185.33,220920,4919,838114,51721842,1145373216,UNSATISFIABLE,
glucose.sh+bvult_16967.cnf+9a6ed8f2,0,1114.35,847512,2796,381454,459059031,3667395409,UNSATISFIABLE,
glucose.sh+c10bi_i.cnf+2cdaf7e8,0,67.01,94024,2096,606569,3763264,257896053,UNSATISFIABLE,
glucose.sh+ccp-s10-facto1.cnf+67f3f8d,0,3597.98,234280
glucose.sh+ccp-s10-facto2.cnf+68d570e,0,3597.06,351496
glucose.sh+ccp-s10-facto3.cnf+69b6e8f,0,3597.34,418856
glucose.sh+ccp-s10-facto4.cnf+6a98610,0,3597.29,408428
glucose.sh+ccp-s5-facto2.cnf+b2dd2170,0,45.18,36280,2148,2150957,3378905,34638190,UNSATISFIABLE,
glucose.sh+ccp-s5-facto3.cnf+b2eb38f1,0,830.23,159244,30617,22210405,58774744,442655293,UNSATISFIABLE,
glucose.sh+ccp-s5-facto4.cnf+b2f95072,0,3596.46,189692
glucose.sh+ccp-s6-facto2.cnf+ba8ec6cf,0,3598.1,194476
glucose.sh+ccp-s6-facto3.cnf+ba9cde50,0,3598.31,269268
glucose.sh+ccp-s6-facto4.cnf+baaaf5d1,0,3598.12,296692
glucose.sh+ccp-s7-facto2.cnf+c2406c2e,0,3597.78,231200
glucose.sh+ccp-s7-facto3.cnf+c24e83af,0,3597.13,266600
glucose.sh+ccp-s7-facto4.cnf+c25c9b30,0,3597.52,335760
glucose.sh+ccp-s8-facto1.cnf+c9e3fa0c,0,19.68,29680,1723,463446,637636,4951296,UNSATISFIABLE,
glucose.sh+ccp-s8-facto2.cnf+c9f2118d,0,3597.75,279572
glucose.sh+ccp-s8-facto3.cnf+ca00290e,0,3597.56,314072
glucose.sh+ccp-s8-facto4.cnf+ca0e408f,0,3596.83,356820
glucose.sh+ccp-s9-facto1.cnf+d1959f6b,0,198.83,80676,8485,2924777,3910766,35143510,UNSATISFIABLE,
glucose.sh+ccp-s9-facto2.cnf+d1a3b6ec,0,3596.95,318580
glucose.sh+ccp-s9-facto3.cnf+d1b1ce6d,0,3597.73,372312
glucose.sh+ccp-s9-facto4.cnf+d1bfe5ee,0,3597.25,390708
glucose.sh+chnl-005x006.shuffled.cnf+77401ffb,0,0.0,1456,1,159,202,953,UNSATISFIABLE,
glucose.sh+chnl-010x011.shuffled.cnf+5e979147,0,109.81,51676,4359,2225636,2680027,26227079,UNSATISFIABLE,
glucose.sh+chnl-015x017.shuffled.cnf+80a3b59c,0,3597.3,355072
glucose.sh+chnl-020x021.shuffled.cnf+861d5d49,0,3594.51,303508
glucose.sh+chnl-025x050.shuffled.cnf+88ab3d08,0,3597.52,704656
glucose.sh+chnl-030x031.shuffled.cnf+ada3294b,0,3595.85,345668
glucose.sh+chnl-040x041.shuffled.cnf+d528f54d,0,3595.48,519432
glucose.sh+chnl-045x050.shuffled.cnf+2400008a,0,3594.77,503416
glucose.sh+chnl-050x060.shuffled.cnf+74ac61f1,0,3595.44,546456
glucose.sh+chnl-050x070.shuffled.cnf+ce87cc32,0,3595.42,549292
glucose.sh+chnl10_11.cnf+b85f0558,0,182.7,77076,7559,3187932,3822376,37943312,UNSATISFIABLE,
glucose.sh+chnl10_12.cnf+b86d1cd9,0,281.37,82164,12030,4079483,5036866,50043221,UNSATISFIABLE,
glucose.sh+chnl10_13.cnf+b87b345a,0,207.32,71300,10019,3270485,4126274,42463393,UNSATISFIABLE,
glucose.sh+chnl11_12.cnf+204e49b8,0,3043.8,203164,63232,25040654,30723925,322648274,UNSATISFIABLE,
glucose.sh+chnl11_13.cnf+205c6139,0,3597.77,215372
glucose.sh+chnl11_20.cnf+21e6f355,0,3597.43,211428
glucose.sh+color-11-3.sat05-445.reshuffled-07.cnf+25aa580c,0,3597.6,219568
glucose.sh+color-18-4.sat05-443.reshuffled-07.cnf+4602f2d2,0,3596.18,281072
glucose.sh+complete-300-0.1-18-98765432130018.cnf+facd388,0,0.57,8448,1,0,9,600,SATISFIABLE,
glucose.sh+complete-300-0.1-4-9876543213004.cnf+efc9d15a,0,0.6,7044,1,0,10,600,SATISFIABLE,
glucose.sh+complete-300-0.1-7-9876543213007.cnf+58f33d20,0,0.61,7108,1,0,9,600,SATISFIABLE,
glucose.sh+complete-300-0.1-8-9876543213008.cnf+26abb662,0,0.56,7504,1,0,10,600,SATISFIABLE,
glucose.sh+complete-400-0.1-12-98765432140012.cnf+5f2193ca,0,2.67,14156,1,0,10,800,SATISFIABLE,
glucose.sh+complete-400-0.1-16-98765432140016.cnf+fde14b4a,0,2.29,13668,1,0,11,800,SATISFIABLE,
glucose.sh+complete-400-0.1-3-9876543214003.cnf+c34395b8,0,2.29,13840,1,0,12,800,SATISFIABLE,
glucose.sh+complete-400-0.1-7-9876543214007.cnf+fa257ac0,0,2.55,13312,1,0,11,800,SATISFIABLE,
glucose.sh+complete-500-0.1-1-9876543215001.cnf+c904e0d4,0,8.86,24016,1,0,11,1000,SATISFIABLE,
glucose.sh+complete-500-0.1-15-98765432150015.cnf+d3c5b0ec,0,9.83,24112,1,0,12,1000,SATISFIABLE,
glucose.sh+complete-500-0.1-17-98765432150017.cnf+a3258cac,0,10.48,24228,1,0,13,1000,SATISFIABLE,
glucose.sh+complete-500-0.1-7-9876543215007.cnf+9b57b860,0,9.04,22448,1,0,12,1000,SATISFIABLE,
glucose.sh+complete-500-0.1-8-9876543215008.cnf+691031a2,0,9.29,23600,1,0,12,1000,SATISFIABLE,
glucose.sh+connm-ue-csp-sat-n1200-d0.02-s1099787414.sat05-542.reshuffled-07.cnf+8ea2eff9,0,3597.97,191012
glucose.sh+contest02-ezfact64_10.sat05-449.reshuffled-07.cnf+28dc6e0c,0,1674.27,81632,6793,5043288,5700254,2055026149,SATISFIABLE,
glucose.sh+countbitssrl032.cnf+bf7e7f0c,0,331.37,68272,4101,1311040,1854414,603057062,UNSATISFIABLE,
glucose.sh+counting-clqcolor-unsat-set-b-clqcolor-08-06-07.sat05-1257.reshuffled-07.cnf+cf78dd5d,0,4.16,13792,673,247621,332983,3341376,UNSATISFIABLE,
glucose.sh+crafted_n10_d6_c2_num13.cnf+6593306,0,547.86,284740,711,1127833,1242883,1416541084,UNSATISFIABLE,
glucose.sh+crafted_n10_d6_c2_num16.cnf+6837989,0,529.46,302316,1397,1032978,1151343,1123235966,UNSATISFIABLE,
glucose.sh+crafted_n10_d6_c2_num17.cnf+691910a,0,903.6,321476,2266,1334761,1485214,1434498898,UNSATISFIABLE,
glucose.sh+crafted_n10_d6_c2_num2.cnf+c6729348,0,907.05,301340,1423,1350102,1483588,1599993706,UNSATISFIABLE,
glucose.sh+crafted_n10_d6_c2_num4.cnf+c68ec24a,0,1055.18,326408,2839,1788897,2025853,2099016358,UNSATISFIABLE,
glucose.sh+crafted_n10_d6_c2_num5.cnf+c69cd9cb,0,1759.64,372008,3582,2549044,2787530,2683982096,UNSATISFIABLE,
glucose.sh+crafted_n10_d6_c2_num6.cnf+c6aaf14c,0,624.72,281740,1887,1108766,1266420,1049880858,UNSATISFIABLE,
glucose.sh+crafted_n10_d6_c2_num9.cnf+c6d537cf,0,561.88,273296,1535,903924,1031427,1013425446,UNSATISFIABLE,
glucose.sh+crafted_n10_d6_c3_num1.cnf+baadece6,0,3595.37,763472
glucose.sh+crafted_n10_d6_c3_num18.cnf+9b845b4c,0,3596.73,787692
glucose.sh+crafted_n10_d6_c3_num5.cnf+bae64aea,0,1701.05,605184,2363,2122235,2334381,2983316064,UNSATISFIABLE,
glucose.sh+crafted_n10_d6_c4_num3.cnf+af138d07,0,3596.54,1069616
glucose.sh+crafted_n10_d6_c4_num8.cnf+af5a028c,0,1976.12,950772,1550,1832857,2147481,3354192972,UNSATISFIABLE,
glucose.sh+crafted_n10_d6_c4_num9.cnf+af681a0d,0,1357.45,905912,423,1393720,1701397,3262369128,UNSATISFIABLE,
glucose.sh+crafted_n11_d6_c3_num17.cnf+ec2021cc,0,1488.37,651124,1306,1951391,2245466,2933595985,UNSATISFIABLE,
glucose.sh+crafted_n11_d6_c4_num1.cnf+90893be4,0,3595.27,1158212
glucose.sh+crafted_n11_d6_c4_num18.cnf+8112ec0e,0,3595.88,1198464
glucose.sh+crafted_n11_d6_c4_num19.cnf+8121038f,0,2469.05,1104616,823,2345766,2755988,5122038550,UNSATISFIABLE,
glucose.sh+crafted_n11_d6_c4_num21.cnf+82652026,0,3586.47,1083348,2338,3218411,3798570,5838509451,UNSATISFIABLE,
glucose.sh+crafted_n12_d5_c4_num6.cnf+83de88c7,0,442.71,404228,1897,569013,1145260,581950520,UNSATISFIABLE,
glucose.sh+crafted_n12_d6_c3_num10.cnf+3c675b46,0,3596.33,1142568
glucose.sh+crafted_n12_d6_c3_num16.cnf+3cbbe84c,0,1449.27,792136,1953,1601433,1967521,2217721751,UNSATISFIABLE,
glucose.sh+crafted_n12_d6_c4_num11.cnf+d15a2588,0,3595.0,1507796
glucose.sh+crafted_n12_d6_c4_num18.cnf+d1bcca0f,0,3595.82,1667268
glucose.sh+crafted_n12_d6_c4_num20.cnf+d300e6a6,0,3596.22,1518008
glucose.sh+crafted_n12_d6_c4_num22.cnf+d31d15a8,0,3595.69,1547332
glucose.sh+crafted_n12_d6_c4_num23.cnf+d32b2d29,0,3594.52,1747116
glucose.sh+crafted_n12_d6_c4_num4.cnf+72456046,0,3595.45,1529336
glucose.sh+crafted_n12_d6_c4_num6.cnf+72618f48,0,3594.2,1417648
glucose.sh+crafted_n12_d6_c4_num9.cnf+728bd5cb,0,3595.7,1949876
glucose.sh+crn_20_361_s.cnf+c2477508,0,741.79,274984,12052,12051613,18406575,427231098,SATISFIABLE,
glucose.sh+ctl_3082_415_unsat_pre.cnf+1521de2d,0,495.35,100520,2562,4368831,4970751,1739657536,UNSATISFIABLE,
glucose.sh+ctl_3791_556_unsat_pre.cnf+d5f351ee,0,2058.62,251680,12671,25005050,29116529,2670652269,UNSATISFIABLE,
glucose.sh+ctl_4291_567_5_unsat_pre.cnf+fbd4b81e,0,3600.13,272288
glucose.sh+dated-10-11-u.cnf+5aeaaf54,0,430.15,166764,4595,1190594,1738316,878300558,UNSATISFIABLE,
glucose.sh+dated-10-13-u.cnf+c4b725d6,0,401.65,135128,2354,876704,1163143,910126907,UNSATISFIABLE,
glucose.sh+dated-10-17-u.cnf+985012da,0,2522.11,244940,28793,7816645,10538403,4362102732,UNSATISFIABLE,
glucose.sh+dated-5-13-u.cnf+155a187e,0,3357.15,200412,29059,10180845,12260930,5292773392,UNSATISFIABLE,
glucose.sh+david.col.11.cnf+def5b14b,0,108.98,55132,4657,2364107,2841062,64775446,UNSATISFIABLE,
glucose.sh+dimacs.cnf+39ccf82e,0,3600.58,137044
glucose.sh+edges-024-4-10183999-1-00.cnf+45983fe5,0,3598.02,129492
glucose.sh+edges-024-4-1208111-1-00.cnf+278bf193,0,3598.14,136840
glucose.sh+edges-024-4-5613555-1-00.cnf+920ee029,0,3598.3,137448
glucose.sh+edges-024-4-5667555-1-00.cnf+b56fea48,0,3598.12,143616
glucose.sh+edges-024-4-7787777-1-00.cnf+b7ea3603,0,3598.15,163724
glucose.sh+edges-024-4-7880777-1-00.cnf+8c3072bd,0,3598.42,141768
glucose.sh+edges-025-4-10062999-1-00.cnf+46173166,0,3597.86,130700
glucose.sh+edges-025-4-10106999-1-00.cnf+ecbfbf1,0,3598.05,165036
glucose.sh+edges-025-4-10169999-1-00.cnf+2587c92e,0,3597.95,135804
glucose.sh+edges-025-4-1237111-1-00.cnf+c6441e4e,0,3597.13,140956
glucose.sh+edges-025-4-3369333-1-00.cnf+87a240aa,0,3598.57,152436
glucose.sh+edges-025-4-5714555-1-00.cnf+c20f274a,0,3598.48,148896
glucose.sh+edges-025-4-7780777-1-00.cnf+19f6dedb,0,3597.79,121244
glucose.sh+edges-025-4-7932777-1-00.cnf+415ed044,0,3598.31,155044
glucose.sh+edges-025-4-7957777-1-00.cnf+ada98407,0,3597.33,136012
glucose.sh+edges-070-3-10037999-34.cnf+fda26228,0,1668.81,137072,4680,11903512,13039330,198687955,UNSATISFIABLE,
glucose.sh+edges-070-3-10062999-36.cnf+2c5c0382,0,3597.83,158508
glucose.sh+edges-070-3-10122999-15.cnf+f8a0abc8,0,3597.94,160152
glucose.sh+edges-070-3-1226111-26.cnf+11a110e1,0,2568.23,158176,5734,13959304,15537514,259037141,UNSATISFIABLE,
glucose.sh+edges-070-3-1250111-33.cnf+ace46294,0,1022.04,98332,4556,8777060,10155210,152844035,UNSATISFIABLE,
glucose.sh+edges-070-3-3470333-15.cnf+3a99e554,0,684.86,98504,1291,6819311,7617393,118422396,UNSATISFIABLE,
glucose.sh+edges-070-3-7857777-1.cnf+8e771d56,0,3598.04,162316
glucose.sh+edges-072-3-1124111-35.cnf+841f2a3a,0,2929.41,167924,6752,17522452,19365598,303141785,UNSATISFIABLE,
glucose.sh+edges-072-3-1131111-37.cnf+cd3ee658,0,3598.39,156960
glucose.sh+edges-072-3-1161111-15.cnf+e0cdf635,0,3313.36,165836,5649,17311812,19117330,304207382,UNSATISFIABLE,
glucose.sh+edges-072-3-5729555-15.cnf+4972783f,0,3597.88,176008
glucose.sh+edges-072-3-5749555-14.cnf+58c7ab7c,0,3597.66,172220
glucose.sh+edges-072-3-7902777-18.cnf+a9984afb,0,3597.84,160168
glucose.sh+edges-072-3-7923777-13.cnf+4d99d2f5,0,3598.39,163096
glucose.sh+edges-072-3-7925777-19.cnf+77b7c57d,0,3597.03,150704
glucose.sh+em_14_7_3_cmp.cnf+a08176e0,0,3595.68,955348
glucose.sh+em_7_3_6_cmp.cnf+29211499,0,3598.07,202684
glucose.sh+em_7_4_8_cmp.cnf+e68ea55c,0,1010.88,125512,6275,2903078,4173062,430610312,SATISFIABLE,
glucose.sh+em_7_4_8_fbc.cnf+71c4d6bd,0,403.28,107516,3245,1628072,2238992,266893126,SATISFIABLE,
glucose.sh+em_7_4_9_all.cnf+f196738,0,1.0,12272,130,33345,83918,3155255,SATISFIABLE,
glucose.sh+em_7_4_9_fbc.cnf+60945be,0,7.37,20568,387,105953,193658,14621018,SATISFIABLE,
glucose.sh+esawn_uw3.debugged.cnf+d3323d4a,0,197.22,7088364,21,4262,18869020,1050501580,SATISFIABLE,
glucose.sh+ezfact64_3.sat05-450.reshuffled-07.cnf+2f045f21,0,192.53,50520,1562,972054,1148784,398371867,SATISFIABLE,
glucose.sh+ezfact64_4.sat05-451.reshuffled-07.cnf+25fea563,0,797.68,75696,4258,2855595,3282896,1142011930,SATISFIABLE,
glucose.sh+ezfact64_5.sat05-452.reshuffled-07.cnf+1cf8eba5,0,1574.71,80172,6962,4964506,5619416,2115950451,SATISFIABLE,
glucose.sh+fpga10_11_uns_rcr.cnf+ddcfcd95,0,105.82,53564,4161,2223578,2661897,26292754,UNSATISFIABLE,
glucose.sh+fpga10_12_uns_rcr.cnf+cc52d416,0,194.6,76872,7250,3258654,3970833,40628887,UNSATISFIABLE,
glucose.sh+fpga10_13_uns_rcr.cnf+bad5da97,0,170.52,76796,4579,2891934,3491413,39051600,UNSATISFIABLE,
glucose.sh+fpga10_15_uns_rcr.cnf+97dbe799,0,291.7,86952,9410,3830128,4831216,56308043,UNSATISFIABLE,
glucose.sh+fpga10_20_uns_rcr.cnf+d12a90b3,0,101.54,58524,1354,2012017,2374406,40733364,UNSATISFIABLE,
glucose.sh+fpga10_8_sat.cnf+c8b02641,0,0.0,1460,2,1521,1874,12295,SATISFIABLE,
glucose.sh+fpga10_9_sat.cnf+5cf49542,0,0.01,1456,6,3230,4346,27849,SATISFIABLE,
glucose.sh+fpga11_12_uns_rcr.cnf+ade4b1f5,0,2892.68,155380,52766,24062379,29426605,312187731,UNSATISFIABLE,
glucose.sh+fpga11_13_uns_rcr.cnf+9c67b876,0,3598.55,217188
glucose.sh+fpga11_14_uns_rcr.cnf+8aeabef7,0,3598.02,216808
glucose.sh+fpga11_15_uns_rcr.cnf+796dc578,0,3596.8,212036
glucose.sh+fpga11_20_uns_rcr.cnf+b2bc6e92,0,3597.92,182408
glucose.sh+fpga12_11_sat.cnf+8858a59d,0,0.01,1536,3,2432,3076,26445,SATISFIABLE,
glucose.sh+fpga12_12_sat.cnf+1c9d149e,0,0.0,1456,3,1014,1369,13031,SATISFIABLE,
glucose.sh+fpga12_8_sat.cnf+f2798bc3,0,0.03,1456,3,4473,5342,36841,SATISFIABLE,
glucose.sh+fpga12_9_sat.cnf+86bdfac4,0,0.01,1460,3,2138,2716,20046,SATISFIABLE,
glucose.sh+fpga13_10_sat.cnf+fbc5dbfb,0,0.02,1708,2,2976,3599,30625,SATISFIABLE,
glucose.sh+fpga13_12_sat.cnf+244eb9fd,0,0.01,1460,2,1845,2341,22950,SATISFIABLE,
glucose.sh+fpga13_9_sat.cnf+1ba2ad85,0,0.01,1460,2,1639,2051,14684,SATISFIABLE,
glucose.sh+fpsol2.i.1.col.65.cnf+ced4afc8,0,3594.94,897348
glucose.sh+fpsol2.i.2.col.30.cnf+d12155c5,0,3595.72,347176
glucose.sh+fpsol2.i.3.col.30.cnf+d8d2fb24,0,3594.83,343396
glucose.sh+frb45-21-1.used-as.sat04-883.cnf+e08d8c56,0,3598.09,178280
glucose.sh+frb80-14-2.used-as.sat04-880.cnf+a676e021,0,3598.19,154092
glucose.sh+fsf-300-354-2-2-3-2.58.opt.cnf+7c55e944,0,3597.36,183412
glucose.sh+fsf-300-354-2-2-3-2.89.opt.cnf+ed76aba2,0,3596.86,161480
glucose.sh+fsf-300-354-2-2-3-2.94.opt.cnf+fc69f1bc,0,3596.68,196416
glucose.sh+fsf-300-354-2-2-3-2.95.opt.cnf+90ae60bd,0,3596.79,176260
glucose.sh+games120.col.9.cnf+ba42256e,0,1.21,6848,172,60993,72795,745895,UNSATISFIABLE,
glucose.sh+grid-strips-grid-y-3.035-NOTKNOWN.cnf+560b30eb,0,182.24,329328,158,47826,425469,841737643,UNSATISFIABLE,
glucose.sh+grid-strips-grid-y-3.055-NOTKNOWN.cnf+9c2056d,0,315.07,548692,236,79033,935839,1301442756,SATISFIABLE,
glucose.sh+grid-strips-grid-y-3.065-SAT.cnf+801faba2,0,200.43,514760,143,46338,732662,769408979,SATISFIABLE,
glucose.sh+grieu-vmpc-31.cnf+e3cbbe97,0,2111.27,151108,63523,12177828,24959350,1747117826,SATISFIABLE,
glucose.sh+gripper02t6.cnf+6bff473c,0,0.0,1456,1,79,131,2431,UNSATISFIABLE,
glucose.sh+gripper02t7.cnf+7966de76,0,0.0,1460,1,82,205,3785,SATISFIABLE,
glucose.sh+gripper04t14.cnf+db600c55,0,1.01,8484,153,41360,80608,4454630,UNSATISFIABLE,
glucose.sh+gripper04t15.cnf+79449b3d,0,0.07,4632,13,3873,11077,424152,SATISFIABLE,
glucose.sh+gripper06t22.cnf+acbb0fb0,0,545.32,87436,8131,4733909,6915093,856525254,UNSATISFIABLE,
glucose.sh+gripper06t23.cnf+4a9f9e98,0,1.39,21464,110,46824,128636,7951422,SATISFIABLE,
glucose.sh+gripper10t38.cnf+d3c1d71c,0,3597.94,309244
glucose.sh+gripper10t39.cnf+71a66604,0,544.11,170496,21203,3842378,13185983,1242732407,SATISFIABLE,
glucose.sh+gss-18-s100.cnf+13508f3,0,402.48,48944,129,444237,480686,1952836849,SATISFIABLE,
glucose.sh+gss-19-s100.cnf+f57e7a12,0,525.01,44568,240,455226,484973,2541159851,SATISFIABLE,
glucose.sh+gss-20-s100.cnf+f3ce32bc,0,1074.16,64316,332,914022,974532,4882069596,SATISFIABLE,
glucose.sh+gss-22-s100.cnf+dc6114fa,0,3598.63,91744
glucose.sh+gss-23-s100.cnf+d0aa8619,0,2971.59,91260,840,2351957,2495913,11497131187,SATISFIABLE,
glucose.sh+gss-24-s100.cnf+c4f3f738,0,3597.64,99624
glucose.sh+gss-25-s100.cnf+b93d6857,0,3604.12,126812
glucose.sh+gus-md5-04.cnf+2f7944bb,0,1.64,47820,3,522,2718,3806732,UNSATISFIABLE,
glucose.sh+gus-md5-05.cnf+2f875c3c,0,4.16,47776,2,1701,3717,11151443,UNSATISFIABLE,
glucose.sh+gus-md5-06.cnf+2f9573bd,0,15.13,48504,7,5856,9402,41979458,UNSATISFIABLE,
glucose.sh+gus-md5-07.cnf+2fa38b3e,0,54.3,48428,24,25211,32561,147821686,UNSATISFIABLE,
glucose.sh+gus-md5-09.cnf+2fbfba40,0,739.13,132144,704,369398,404433,2067513072,UNSATISFIABLE,
glucose.sh+gus-md5-10.cnf+30f5bf56,0,2065.13,143492,2421,1341260,1510337,5256268190,UNSATISFIABLE,
glucose.sh+gus-md5-11.cnf+3103d6d7,0,3597.24,196308
glucose.sh+gus-md5-12.cnf+3111ee58,0,3597.74,210188
glucose.sh+gus-md5-14.cnf+312e1d5a,0,3597.75,216888
glucose.sh+gus-md5-15.cnf+313c34db,0,3598.31,212044
glucose.sh+gus-md5-16.cnf+314a4c5c,0,3598.34,184736
glucose.sh+hid-uns-enc-6-1-0-0-0-0-19851.cnf+780244c8,0,632.67,112564,15810,3204312,5682958,480381721,UNSATISFIABLE,
glucose.sh+hid-uns-enc-6-1-0-0-0-0-26462.cnf+2cd3048,0,1103.59,124968,26266,4051404,8623393,549652795,UNSATISFIABLE,
glucose.sh+hid-uns-enc-6-1-0-0-0-0-26808.cnf+cc7d9698,0,358.99,77696,9549,2184649,3848968,326040202,UNSATISFIABLE,
glucose.sh+hid-uns-enc-6-1-0-0-0-0-2907.cnf+2ca8a96c,0,577.15,116952,14578,3328689,5891600,491527657,UNSATISFIABLE,
glucose.sh+hid-uns-enc-6-1-0-0-0-0-31380.cnf+5e1305e9,0,637.09,110556,12425,2602809,4663538,408732154,UNSATISFIABLE,
glucose.sh+hid-uns-enc-6-1-0-0-0-0-3191.cnf+fc5f0cd4,0,732.0,120108,15970,3778872,6738387,544459682,UNSATISFIABLE,
glucose.sh+hid-uns-enc-6-1-0-0-0-0-3251.cnf+2a71e599,0,463.11,95552,12717,2514104,4682382,367127321,UNSATISFIABLE,
glucose.sh+hid-uns-enc-7-1-0-0-0-0-11545.cnf+a562a6f3,0,3597.27,283084
glucose.sh+hid-uns-enc-7-1-0-0-0-0-3557.cnf+b11afac1,0,3598.05,268980
glucose.sh+hid-uns-enc-9-1-0-0-0-0-24642.cnf+bf387c51,0,3596.84,429056
glucose.sh+hitag2-10-60-0-0x0ffdbe60727f161-57.cnf+9de012b1,0,3377.78,152120,4039,10828217,11214805,2089569343,UNSATISFIABLE,
glucose.sh+hitag2-10-60-0-0x8edc44db7837bbf-65.cnf+5e34d1a8,0,3597.57,142832
glucose.sh+hitag2-10-60-0-0xe14721bd199894a-99.cnf+c2b65411,0,3597.49,153180
glucose.sh+hitag2-10-60-0-0xe6754daf48162bf-46.cnf+cf20d339,0,3598.11,140968
glucose.sh+hitag2-10-60-0-0xfee9637399d85a2-78.cnf+e9902f1b,0,3598.03,163948
glucose.sh+hitag2-7-60-0-0xe8fa35372ed37e2-80.cnf+1da1cb8a,0,3598.47,151252
glucose.sh+hitag2-8-60-0-0x1eb82244d7f1c3c-47.cnf+af2dabb9,0,3598.13,146044
glucose.sh+hitag2-8-60-0-0xdcdbc8bf368ee73-37.cnf+f919158a,0,3600.98,142704
glucose.sh+hitag2-8-60-0-0xfba1a41b5dfd7f7-52.cnf+e738bed3,0,3597.85,139752
glucose.sh+hole002.cnf+f58ff020,0,0.0,1452,0,0,0,0,UNSATISFIABLE,
glucose.sh+hole003.cnf+f59e07a1,0,0.0,1456,1,7,7,27,UNSATISFIABLE,
glucose.sh+hole004.cnf+f5ac1f22,0,0.0,1456,1,30,34,133,UNSATISFIABLE,
glucose.sh+hole005.cnf+f5ba36a3,0,0.0,1456,1,145,175,802,UNSATISFIABLE,
glucose.sh+hole006.cnf+f5c84e24,0,0.0,1456,2,939,1147,6670,UNSATISFIABLE,
glucose.sh+hole007.cnf+f5d665a5,0,0.06,1468,28,7516,9061,60318,UNSATISFIABLE,
glucose.sh+hole008.cnf+f5e47d26,0,1.29,6020,193,60153,71697,537866,UNSATISFIABLE,
glucose.sh+hole009.cnf+f5f294a7,0,8.72,16680,802,310577,369785,3222363,UNSATISFIABLE,
glucose.sh+hole010.cnf+f72899bd,0,161.11,55072,6767,2862545,3444113,34044727,UNSATISFIABLE,
glucose.sh+hole010_shuffled.cnf+9cc2f1fd,0,107.66,56156,3728,2347511,2785420,27666158,UNSATISFIABLE,
glucose.sh+hole011.cnf+f736b13e,0,3120.01,198004,57777,24606889,30037486,314836852,UNSATISFIABLE,
glucose.sh+hole011_shuffled.cnf+7ea0bb9c,0,3192.34,168520,64793,26551578,32587107,341834476,UNSATISFIABLE,
glucose.sh+hole012.cnf+f744c8bf,0,3597.01,238688
glucose.sh+hole012_shuffled.cnf+607e853b,0,3598.07,239856
glucose.sh+hole013.cnf+f752e040,0,3597.99,273200
glucose.sh+hole013_shuffled.cnf+425c4eda,0,3596.37,283068
glucose.sh+hole014.cnf+f760f7c1,0,3596.68,314012
glucose.sh+hole014_shuffled.cnf+243a1879,0,3597.19,327572
glucose.sh+hole015.cnf+f76f0f42,0,3597.51,340512
glucose.sh+hole015_shuffled.cnf+617e218,0,3596.87,362652
glucose.sh+hole016_shuffled.cnf+e7f5abb7,0,3596.23,375472
glucose.sh+hole017_shuffled.cnf+c9d37556,0,3596.41,392980
glucose.sh+hole018_shuffled.cnf+abb13ef5,0,3596.24,422376
glucose.sh+hole019_shuffled.cnf+8d8f0894,0,3595.02,268624
glucose.sh+hole020.cnf+f8dd725c,0,3594.37,292844
glucose.sh+hole020_shuffled.cnf+f69e5c3e,0,3596.09,283740
glucose.sh+hole030.cnf+fa924afb,0,3596.06,332800
glucose.sh+hole030_shuffled.cnf+5079c67f,0,3595.94,351260
glucose.sh+homer.col.13.cnf+103801ee,0,0.0,2948,0,0,0,20,UNSATISFIABLE,
glucose.sh+huck.col.11.cnf+ff1d567e,0,172.64,56440,7123,2927918,3540364,48998093,UNSATISFIABLE,
glucose.sh+hwmcc10-timeframe-expansion-k45-pdtpmsgoodbakery-tseitin.cnf+7da3f02d,0,171.4,109400,5061,816693,2224524,671182992,UNSATISFIABLE,
glucose.sh+hwmcc10-timeframe-expansion-k45-pdtvisns3p02-tseitin.cnf+728dddfe,0,3598.26,258532
glucose.sh+hwmcc10-timeframe-expansion-k50-pdtpmsns2-tseitin.cnf+ff7c583,0,365.17,154240,7581,1290329,3468215,1117823201,UNSATISFIABLE,
glucose.sh+hwmcc10-timeframe-expansion-k50-pdtvisns3p00-tseitin.cnf+c59a4222,0,3595.64,271908
glucose.sh+inithx.i.1.col.54.cnf+5d05bf74,0,3593.78,968836
glucose.sh+inithx.i.2.col.31.cnf+61236d12,0,3595.83,350212
glucose.sh+inithx.i.3.col.31.cnf+68d51271,0,3596.04,353440
glucose.sh+instance_n8_i8_pp_ci_ce.cnf+820cfd34,0,49.56,79340,2985,582245,1801406,206034137,SATISFIABLE,
glucose.sh+instance_n8_i9_pp.cnf+6fc11e77,0,212.45,123864,6832,1825111,4763822,615146571,SATISFIABLE,
glucose.sh+itox_vc1130.cnf+8c2ae6aa,0,1.09,83800,9,4678,66011,1412121,SATISFIABLE,
glucose.sh+jean.col.10.cnf+cef85caa,0,8.63,17700,579,327818,387709,4682513,UNSATISFIABLE,
glucose.sh+jkkk-one-one-10-34-sat.cnf+1bc7b9f5,0,44.67,124372,1051,308951,867746,107936385,SATISFIABLE,
glucose.sh+jkkk-random-132906006148277-10-10-34-SUM-sat.cnf+28c16186,0,1171.26,319428,4681,1623256,3365733,3206266454,SATISFIABLE,
glucose.sh+jkkk-random-132906006427000-10-10-35-OR-sat.cnf+f4b06d6d,0,1399.64,357156,7098,2012143,5603864,3177136321,SATISFIABLE,
glucose.sh+jkkk-random-132906006427000-10-10-36-SUM-sat.cnf+7cd144ae,0,517.34,273804,3473,825664,2938841,1704837414,SATISFIABLE,
glucose.sh+jkkk-random-132906006493326-10-10-35-OR-sat.cnf+d9324eff,0,730.12,317904,3494,1246234,3223403,1740762113,SATISFIABLE,
glucose.sh+k2fix_gr_rcs_w9.shuffled.cnf+d093b51c,0,16.17,55948,276,319517,379967,25394887,UNSATISFIABLE,
glucose.sh+korf-17.cnf+1fbdde30,0,394.19,72628,6181,2469662,3398630,589018579,UNSATISFIABLE,
glucose.sh+korf-18.cnf+1fcbf5b1,0,3597.63,201444
glucose.sh+le450_15a.col.15.cnf+d1421a0f,0,3597.21,310388
glucose.sh+le450_15b.col.15.cnf+d8f3bf6e,0,3596.33,315096
glucose.sh+le450_15c.col.15.cnf+e0a564cd,0,3597.32,304264
glucose.sh+le450_15d.col.15.cnf+e8570a2c,0,3597.48,345760
glucose.sh+le450_25a.col.25.cnf+b4d4bc4d,0,3595.44,326144
glucose.sh+le450_25b.col.25.cnf+bc8661ac,0,3595.96,311288
glucose.sh+le450_25c.col.25.cnf+c438070b,0,3594.27,372196
glucose.sh+le450_25d.col.25.cnf+cbe9ac6a,0,3592.42,314000
glucose.sh+le450_5a.col.5.cnf+1646e4d1,0,0.02,4096,1,55,73,1288,UNSATISFIABLE,
glucose.sh+le450_5b.col.5.cnf+ab2b9792,0,0.02,4092,1,59,74,2086,UNSATISFIABLE,
glucose.sh+le450_5c.col.5.cnf+40104a53,0,0.04,7268,1,49,65,1809,UNSATISFIABLE,
glucose.sh+le450_5d.col.5.cnf+d4f4fd14,0,0.05,7524,1,51,67,1867,UNSATISFIABLE,
glucose.sh+log-pairs-05t5.cnf+1ddee23,0,0.31,16020,1,83,3208,25246,SATISFIABLE,
glucose.sh+log-pairs-07t5.cnf+6baa64a5,0,2.56,61432,1,197,13624,120462,SATISFIABLE,
glucose.sh+log-pairs-09t5.cnf+d576db27,0,8.47,180436,2,183,24787,240920,SATISFIABLE,
glucose.sh+log-pairs-11t5.cnf+96262dfe,0,0.95,424264,11,729,24967,1292424,SATISFIABLE,
glucose.sh+log-rotate-06t6.cnf+f25219c,0,0.39,18824,12,2820,4857,240420,UNSATISFIABLE,
glucose.sh+log-rotate-06t6.cnf+fe2d455,0,0.38,17088,12,2820,4857,240420,UNSATISFIABLE,
glucose.sh+log-rotate-07t6.cnf+44c90f96,0,1.55,30848,108,26482,35367,2808229,UNSATISFIABLE,
glucose.sh+log-rotate-08t6.cnf+78f1981e,0,2.59,45392,160,30265,44155,3838621,UNSATISFIABLE,
glucose.sh+log-rotate-08t6.cnf+79af4ad7,0,2.56,44856,160,30265,44155,3838621,UNSATISFIABLE,
glucose.sh+log-rotate-09t6.cnf+add7d35f,0,12.11,80420,692,146623,205243,22510748,UNSATISFIABLE,
glucose.sh+log-rotate-09t6.cnf+ae958618,0,12.15,80924,692,146623,205243,22510748,UNSATISFIABLE,
glucose.sh+log-rotate-11t6.cnf+6e872636,0,3597.34,416000
glucose.sh+logistics.a.cnf+ba3490db,0,0.0,1456,1,62,494,2726,SATISFIABLE,
glucose.sh+logistics.b.cnf+ba42a85c,0,0.0,1456,1,227,1319,9547,SATISFIABLE,
glucose.sh+logistics.c.cnf+ba50bfdd,0,0.01,1820,1,152,1142,7982,SATISFIABLE,
glucose.sh+logistics.d.cnf+ba5ed75e,0,0.03,6476,1,33,457,12897,SATISFIABLE,
glucose.sh+manol-pipe-c10nid_i.cnf+daffcb0f,0,120.32,154744,3060,962568,7154187,448046243,UNSATISFIABLE,
glucose.sh+manol-pipe-c10nidw.cnf+a52fe6ac,0,181.82,262040,4058,1109062,9161485,662562363,UNSATISFIABLE,
glucose.sh+manol-pipe-c10nidw_s.cnf+6d32c4e0,0,8.1,244432,235,59879,533372,22479453,UNSATISFIABLE,
glucose.sh+manol-pipe-c8nidw.cnf+b8031461,0,61.14,159188,1745,524731,3901875,227533031,UNSATISFIABLE,
glucose.sh+manol-pipe-g10bid_i.cnf+6912c7f,0,118.51,166440,2907,945605,7250014,422750169,UNSATISFIABLE,
glucose.sh+maxxor032.cnf+70d242ed,0,104.34,74864,6090,1242169,2673805,210619955,UNSATISFIABLE,
glucose.sh+miles1000.col.42.cnf+f4973a20,0,3595.08,460696
glucose.sh+miles1500.col.73.cnf+6318cb99,0,3595.29,472576
glucose.sh+miles250.col.8.cnf+fef4636e,0,0.07,2068,9,7873,9425,118056,UNSATISFIABLE,
glucose.sh+miles500.col.20.cnf+d269225a,0,3596.28,452632
glucose.sh+miles750.col.31.cnf+4076c63d,0,3593.78,339148
glucose.sh+minandmaxor128.cnf+5a37d2fa,0,3598.21,385948
glucose.sh+minxor128.cnf+10f66203,0,137.74,146588,10230,1475479,9421453,255852907,UNSATISFIABLE,
glucose.sh+minxorminand064.cnf+e9444615,0,117.75,136540,4132,861200,3347072,162111034,UNSATISFIABLE,
glucose.sh+mod2-rand3bip-sat-230-2.sat05-2189.reshuffled-07.cnf+849beb52,0,401.74,73508,37,3133295,3253453,173434233,SATISFIABLE,
glucose.sh+mod2-rand3bip-sat-230-2.sat05-2189.reshuffled-07.cnf+892f6007,0,415.21,72496,37,3133295,3253453,173434233,SATISFIABLE,
glucose.sh+mod2-rand3bip-sat-270-1.sat05-2248.reshuffled-07.cnf+2048deb0,0,3597.99,183064
glucose.sh+mod2-rand3bip-sat-270-1.shuffled-as.sat05-2248.cnf+b4a385e2,0,3598.29,188032
glucose.sh+mod2-rand3bip-sat-270-2.sat05-2249.reshuffled-07.cnf+ee9fec10,0,3598.5,152564
glucose.sh+mod2-rand3bip-sat-280-1.sat05-2263.reshuffled-07.cnf+69105eaa,0,3597.28,191224
glucose.sh+mod2c-rand3bip-sat-240-3.shuffled-as.sat05-2520.cnf+51aa477e,0,402.21,78092,579,3365769,3495298,186273567,SATISFIABLE,
glucose.sh+mod2c-rand3bip-sat-240-3.shuffled-as.sat05-2520.cnf+bd2ae829,0,378.8,78276,579,3365769,3495298,186273567,SATISFIABLE,
glucose.sh+mod2c-rand3bip-sat-250-1.shuffled-as.sat05-2533.cnf+f250c0ce,0,1959.48,159840,1057,9712400,10055639,577314030,SATISFIABLE,
glucose.sh+mod2c-rand3bip-sat-250-3.shuffled-as.sat05-2535.cnf+d40efe8e,0,1943.34,160792,774,8967246,9286471,435966946,SATISFIABLE,
glucose.sh+mrpp_4x4#4_24.cnf+b30946cd,0,0.09,8168,14,4147,68023,332911,SATISFIABLE,
glucose.sh+mrpp_4x4#6_12.cnf+80fa98ea,0,0.04,3080,11,4012,30692,176838,SATISFIABLE,
glucose.sh+mrpp_4x4#6_20.cnf+82934287,0,0.18,5272,54,14538,146486,830517,SATISFIABLE,
glucose.sh+mrpp_4x4#6_6.cnf+9913b347,0,0.02,1748,8,2500,6763,65376,SATISFIABLE,
glucose.sh+mrpp_4x4#8_12.cnf+50bcf2a8,0,0.2,4704,90,18235,81519,813578,SATISFIABLE,
glucose.sh+mrpp_4x4#8_16.cnf+50f550ac,0,0.24,5976,68,20218,127450,1029691,SATISFIABLE,
glucose.sh+mrpp_4x4#8_24.cnf+528dfa49,0,0.54,7540,142,37750,329084,2393616,SATISFIABLE,
glucose.sh+mrpp_4x4#8_7.cnf+2ee414a,0,0.05,3868,25,5187,11782,204917,SATISFIABLE,
glucose.sh+mrpp_6x6#10_10.cnf+2d284b5d,0,0.2,6604,62,15898,123692,827185,SATISFIABLE,
glucose.sh+mrpp_6x6#10_12.cnf+2d447a5f,0,0.49,8260,101,33539,290592,1983717,SATISFIABLE,
glucose.sh+mrpp_6x6#10_20.cnf+2edd23fc,0,11.63,29392,2496,437890,5346443,42479810,SATISFIABLE,
glucose.sh+mrpp_6x6#12_20.cnf+fe9f7dba,0,14.63,30256,3154,535906,5683445,47725790,SATISFIABLE,
glucose.sh+mrpp_6x6#12_9.cnf+73f40c37,0,0.43,7584,168,30665,148340,1708168,SATISFIABLE,
glucose.sh+mrpp_6x6#14_12.cnf+ccc92ddb,0,1.18,11420,404,77964,444404,4121485,SATISFIABLE,
glucose.sh+mrpp_6x6#16_16.cnf+9cc3e59d,0,11.4,29420,2549,433009,2667460,32966260,SATISFIABLE,
glucose.sh+mrpp_6x6#18_12.cnf+6c4de157,0,10.87,29844,2560,360145,1453255,24352612,SATISFIABLE,
glucose.sh+mrpp_8x8#10_9.cnf+21dc2b1,0,0.41,11632,135,24676,224690,1650056,SATISFIABLE,
glucose.sh+mrpp_8x8#16_10.cnf+a33ecb1b,0,0.88,13780,269,46061,237215,2860685,SATISFIABLE,
glucose.sh+mrpp_8x8#16_11.cnf+a34ce29c,0,1.0,14752,282,50612,356064,3538740,SATISFIABLE,
glucose.sh+mrpp_8x8#16_12.cnf+a35afa1d,0,2.9,19040,774,138373,1009596,10524367,SATISFIABLE,
glucose.sh+mrpp_8x8#16_16.cnf+a3935821,0,45.59,62268,7445,1297814,8922129,110844707,SATISFIABLE,
glucose.sh+mrpp_8x8#18_14.cnf+733982dd,0,25.99,47644,4793,766537,4256300,62511009,SATISFIABLE,
glucose.sh+mrpp_8x8#20_24.cnf+ca296385,0,2449.39,262100,132623,22389430,146056384,2264045807,SATISFIABLE,
glucose.sh+mrpp_8x8#22_11.cnf+980c9e21,0,24.73,32432,3362,494755,1376898,46761525,SATISFIABLE,
glucose.sh+mrpp_8x8#22_20.cnf+99b35f3f,0,652.52,164744,51379,8915717,53037641,819666770,SATISFIABLE,
glucose.sh+mrpp_8x8#22_24.cnf+99ebbd43,0,3598.17,277628
glucose.sh+mrpp_8x8#24_11.cnf+67cef7df,0,25.43,45348,3630,491822,1382127,37852847,UNSATISFIABLE,
glucose.sh+mrpp_8x8#24_12.cnf+67dd0f60,0,69.5,67364,8814,1141509,3882263,103778403,SATISFIABLE,
glucose.sh+mrpp_8x8#24_14.cnf+67f93e62,0,194.86,124800,21295,2925715,12793780,256231501,SATISFIABLE,
glucose.sh+mrpp_8x8#24_20.cnf+6975b8fd,0,1640.01,221144,95006,14500278,82503834,1410879109,SATISFIABLE,
glucose.sh+mulsol.i.1.col.49.cnf+29a3fdae,0,3593.72,677816
glucose.sh+mulsol.i.2.col.31.cnf+2f300e66,0,3596.11,358268
glucose.sh+mulsol.i.3.col.31.cnf+36e1b3c5,0,3595.42,350248
glucose.sh+mulsol.i.4.col.31.cnf+3e935924,0,3595.05,344216
glucose.sh+mulsol.i.5.col.31.cnf+4644fe83,0,3595.75,346376
glucose.sh+myciel3.col.4.cnf+8010efc9,0,0.0,1456,1,28,32,194,UNSATISFIABLE,
glucose.sh+myciel4.col.5.cnf+1503ba0b,0,0.0,1456,1,1677,1953,22458,UNSATISFIABLE,
glucose.sh+myciel5.col.6.cnf+a9f6844d,0,18.45,19344,380,485545,616292,10572418,UNSATISFIABLE,
glucose.sh+myciel6.col.7.cnf+3ee94e8f,0,3598.13,159900
glucose.sh+myciel7.col.8.cnf+d3dc18d1,0,3597.85,218028
glucose.sh+ndist.b.20499.cnf+f5925843,0,1.13,124396,1,0,1,10,SATISFIABLE,
glucose.sh+ndist.b.20998.cnf+fe036907,0,1.14,125132,1,0,1,7,SATISFIABLE,
glucose.sh+ndist.b.22495.cnf+c51c53fd,0,1.19,129104,1,0,1,10,SATISFIABLE,
glucose.sh+ndist.b.22994.cnf+cd8d64c1,0,1.22,132232,1,0,1,10,SATISFIABLE,
glucose.sh+ndist.b.23992.cnf+3552629e,0,1.35,138072,1,0,1,7,SATISFIABLE,
glucose.sh+ndist.b.24491.cnf+94a64fb7,0,1.4,144236,1,0,1,10,SATISFIABLE,
glucose.sh+ndist.b.25489.cnf+fb435fff,0,1.38,148660,1,0,1,10,SATISFIABLE,
glucose.sh+ndist.b.26487.cnf+63085ddc,0,1.57,154240,1,0,1,10,SATISFIABLE,
glucose.sh+ndist.b.27485.cnf+cacd5bb9,0,1.61,160508,1,0,1,7,SATISFIABLE,
glucose.sh+ndist.b.29481.cnf+9a575773,0,1.62,170936,1,0,1,7,SATISFIABLE,
glucose.sh+openstacks-p30_3.085-SAT.cnf+481e1486,0,4.33,196916,6,3207,34541,1857333,SATISFIABLE,
glucose.sh+openstacks-sequencedstrips-nonadl-nonnegated-os-sequencedstrips-p30_1.025-NOTKNOWN.cnf+aeca3008,0,3597.68,788204
glucose.sh+openstacks-sequencedstrips-nonadl-nonnegated-os-sequencedstrips-p30_3.025-NOTKNOWN.cnf+37edf446,0,3597.03,726304
glucose.sh+openstacks-sequencedstrips-nonadl-nonnegated-os-sequencedstrips-p30_3.085-SAT.cnf+abd4ec4,0,4.44,196976,6,3207,34541,1857333,SATISFIABLE,
glucose.sh+partial-10-11-s.cnf+a848b8dd,0,729.15,301368,4649,597234,4489251,1317910080,SATISFIABLE,
glucose.sh+partial-10-17-s.cnf+e5ae1c63,0,3597.46,514568
glucose.sh+partial-5-15-s.cnf+1e716a13,0,126.55,187920,1345,147817,1347221,348295715,SATISFIABLE,
glucose.sh+partial-5-17-s.cnf+883de095,0,682.45,280032,7106,727150,6085929,1758481792,SATISFIABLE,
glucose.sh+pb_300_10_lb_07.cnf+15be737e,0,55.84,134044,2700,435478,1177810,255041318,UNSATISFIABLE,
glucose.sh+pb_300_10_lb_08.cnf+15cc8aff,0,93.67,121152,3577,614051,1722391,355554374,UNSATISFIABLE,
glucose.sh+post-c32s-ss-8.cnf+469bc95f,0,92.42,56824,3960,981354,5546062,448268954,UNSATISFIABLE,
glucose.sh+post-cbmc-aes-d-r2-noholes.cnf+8e18965c,0,76.36,183164,5101,1531400,3172374,77483249,UNSATISFIABLE,
glucose.sh+post-cbmc-aes-d-r2.cnf+1b676117,0,81.75,183156,5754,1636577,3406568,82325815,UNSATISFIABLE,
glucose.sh+post-cbmc-aes-ee-r2-noholes.cnf+724d427e,0,75.33,188880,5613,1608993,3304440,66123039,UNSATISFIABLE,
glucose.sh+post-cbmc-zfcp-2.8-u2.cnf+82c666ac,0,19.84,4859956,1,65,3422042,76275664,SATISFIABLE,
glucose.sh+prime2209-98.cnf+fcef538b,0,0.76,68448,7,7224,29653,850575,SATISFIABLE,
glucose.sh+q_query_3_L100_coli.sat.cnf+4dc039f,0,59.32,204356,2456,554314,975762,263544481,UNSATISFIABLE,
glucose.sh+q_query_3_L150_coli.sat.cnf+c62516e4,0,42.8,337124,1831,351270,716479,172004949,UNSATISFIABLE,
glucose.sh+q_query_3_L200_coli.sat.cnf+e66de17e,0,66.99,468640,2391,518260,990216,264513950,UNSATISFIABLE,
glucose.sh+q_query_3_L80_coli.sat.cnf+faabbc12,0,42.29,161812,1911,448734,770433,193843615,UNSATISFIABLE,
glucose.sh+q_query_3_L90_coli.sat.cnf+54872653,0,30.27,184760,1445,299320,542746,138829720,UNSATISFIABLE,
glucose.sh+q_query_3_l45_lambda.cnf+b639eb2f,0,120.98,50516,4315,1185625,1727767,233246172,UNSATISFIABLE,
glucose.sh+q_query_3_l46_lambda.cnf+bdeb908e,0,116.95,49460,4864,1215332,1781761,239882717,UNSATISFIABLE,
glucose.sh+q_query_3_l48_lambda.cnf+cd4edb4c,0,103.92,52728,3810,1162147,1680463,232062096,UNSATISFIABLE,
glucose.sh+queen10_10.col.10.cnf+4e63ce5d,0,10.3,22036,628,328833,387751,10723399,UNSATISFIABLE,
glucose.sh+queen11_11.col.11.cnf+affef57e,0,143.15,54008,5549,2589403,3106885,90922256,UNSATISFIABLE,
glucose.sh+queen12_12.col.12.cnf+119a1c9f,0,3063.17,178672,69217,23524008,29229436,967045725,UNSATISFIABLE,
glucose.sh+queen13_13.col.13.cnf+733543c0,0,3597.68,241336
glucose.sh+queen14_14.col.14.cnf+d4d06ae1,0,3596.88,272872
glucose.sh+queen15_15.col.15.cnf+366b9202,0,3596.11,318052
glucose.sh+queen16_16.col.16.cnf+9806b923,0,3597.84,370288
glucose.sh+queen5_5.col.5.cnf+3bdbbf1d,0,0.0,1456,1,26,31,299,UNSATISFIABLE,
glucose.sh+queen6_6.col.7.cnf+bf5fa761,0,0.75,4492,62,36305,43647,1094013,UNSATISFIABLE,
glucose.sh+queen7_7.col.7.cnf+42c760a3,0,0.01,1456,1,907,1114,18907,UNSATISFIABLE,
glucose.sh+queen8_12.col.12.cnf+54c457ce,0,2714.66,178148,63758,21472954,26429560,679853663,UNSATISFIABLE,
glucose.sh+queen8_8.col.9.cnf+c64b48e7,0,3597.82,156984
glucose.sh+queen9_9.col.10.cnf+df0a6d69,0,3596.19,178888
glucose.sh+ramsey_3_3_6.cnf+13cf9101,0,0.0,1416,1,24,26,132,UNSATISFIABLE,
glucose.sh+ramsey_3_4_9.cnf+48e012c5,0,0.07,1420,4,10411,11756,106223,UNSATISFIABLE,
glucose.sh+ramsey_4_4_17.cnf+ba2b85f3,0,0.01,1420,2,608,1030,6559,SATISFIABLE,
glucose.sh+ramsey_4_4_18.cnf+ba399d74,0,3598.41,178496
glucose.sh+ramsey_4_5_24.cnf+239744ee,0,1213.55,160944,49570,11134150,22127006,179063156,SATISFIABLE,
glucose.sh+ramsey_4_5_25.cnf+23a55c6f,0,3597.69,241960
glucose.sh+ramsey_5_5_42.cnf+1b2e3849,0,3595.22,502228
glucose.sh+ramsey_5_5_43.cnf+1b3c4fca,0,3595.53,521920
glucose.sh+rbcl_xits_08_UNSAT.cnf+fdf12ac4,0,1341.51,143196,25370,11853217,15198988,1044839435,UNSATISFIABLE,
glucose.sh+rbcl_xits_14_SAT.cnf+c8aee318,0,0.95,21928,36,20378,27810,1321956,SATISFIABLE,
glucose.sh+rbsat-v1150c84314gyes10.cnf+46c7fdc3,0,3596.86,232652
glucose.sh+rbsat-v1150c84314gyes4.cnf+f1ee890a,0,3598.06,235444
glucose.sh+rbsat-v1150c84314gyes5.cnf+f1fca08b,0,3596.92,251256
glucose.sh+rbsat-v1150c84314gyes7.cnf+f218cf8d,0,3597.77,231092
glucose.sh+rbsat-v945c61409g10.cnf+e993807f,0,3597.36,234912
glucose.sh+rbsat-v945c61409gyes5.cnf+70cd544e,0,3598.25,229712
glucose.sh+reg_s_2_unknown.cnf+4100a47b,0,1391.76,293728,6252,3506493,4755531,4769043830,UNSATISFIABLE,
glucose.sh+rnd-v25-e13-k3.cnf+3c2df38e,0,0.43,47400,4,683,7223,247029,SATISFIABLE,
glucose.sh+rnd-v25-e178-k13.cnf+84c6f62d,0,3105.22,282180,24826,6659933,21569865,3890041740,SATISFIABLE,
glucose.sh+rnd-v25-e212-k9.cnf+ad06bda7,0,652.13,221732,6746,2768555,7648184,1565889788,UNSATISFIABLE,
glucose.sh+rnd-v25-e81-k9.cnf+7a9f2fdd,0,122.5,102316,1807,574326,2812196,354717431,SATISFIABLE,
glucose.sh+rook-40-0-0.cnf+f1883f49,0,130.12,96868,2808,1065255,6389445,599165607,UNSATISFIABLE,
glucose.sh+rook-40-0-1.cnf+f19656ca,0,853.26,184352,447,2975700,7496548,2108293785,UNSATISFIABLE,
glucose.sh+rook-42-0-0.cnf+1a111d4b,0,447.27,166504,7008,2654639,12621381,1850945792,UNSATISFIABLE,
glucose.sh+rook-42-0-1.cnf+1a1f34cc,0,365.85,167012,4714,2575563,10361192,1749306220,UNSATISFIABLE,
glucose.sh+rook-42-1-1.cnf+4f05700d,0,190.4,107428,4946,2079105,6146868,794314910,UNSATISFIABLE,
glucose.sh+rook-44-0-1.cnf+42a812ce,0,391.4,177368,5453,2491208,12078348,1733971853,UNSATISFIABLE,
glucose.sh+rook-44-1-1.cnf+778e4e0f,0,160.5,107420,5177,1737871,5767396,620118915,UNSATISFIABLE,
glucose.sh+rook-46-1-1.cnf+a0172c11,0,397.18,181392,9513,3738827,11503197,1410099199,UNSATISFIABLE,
glucose.sh+rook-47-0-1.cnf+ff755fd1,0,1392.64,271564,3078,5786190,19119127,4738615470,UNSATISFIABLE,
glucose.sh+rook-47-1-1.cnf+345b9b12,0,257.15,160512,8290,2452333,8845067,918023437,UNSATISFIABLE,
glucose.sh+rook-48-0-1.cnf+93b9ced2,0,373.96,170196,5554,2345519,14201616,1593107480,UNSATISFIABLE,
glucose.sh+rook-49-1-1.cnf+5ce47914,0,662.66,181344,12378,5084013,14897834,1983840643,UNSATISFIABLE,
glucose.sh+rook-50-0-0.cnf+e5d1b068,0,1185.73,252992,17379,5439501,28926874,4615503984,UNSATISFIABLE,
glucose.sh+rook-51-0-0.cnf+7a161f69,0,852.04,222540,14528,4612361,25913699,3351899379,UNSATISFIABLE,
glucose.sh+rook-52-0-1.cnf+e68a5eb,0,1265.7,254688,13516,5465573,31106528,4710088541,UNSATISFIABLE,
glucose.sh+rook-54-0-0.cnf+36e36c6c,0,1138.39,255528,18347,5732262,33961699,4748063316,UNSATISFIABLE,
glucose.sh+rook-54-1-1.cnf+6bd7bf2e,0,715.46,242908,16604,5129304,18025667,2238525068,UNSATISFIABLE,
glucose.sh+rook-55-0-1.cnf+cb35f2ee,0,3597.05,349280
glucose.sh+rook-56-0-0.cnf+5f6c4a6e,0,2269.06,395568,27527,7516962,48813612,6844248385,UNSATISFIABLE,
glucose.sh+rook-56-1-1.cnf+94609d30,0,435.93,204364,13513,3847115,15038889,1597015335,UNSATISFIABLE,
glucose.sh+rook-57-1-1.cnf+28a50c31,0,1241.04,296756,21228,7391226,24755344,3106108088,UNSATISFIABLE,
glucose.sh+rook-58-1-1.cnf+bce97b32,0,1036.4,277588,21761,6252832,24442724,2818006548,UNSATISFIABLE,
glucose.sh+rook-59-1-1.cnf+512dea33,0,1763.91,318108,28179,8301808,29505159,3970779151,UNSATISFIABLE,
glucose.sh+rook-60-0-1.cnf+da293908,0,3389.29,374524,29326,11080480,72013681,11979191780,UNSATISFIABLE,
glucose.sh+rook-61-1-1.cnf+a353e34a,0,2113.38,328556,31955,9850387,36944530,5104603219,UNSATISFIABLE,
glucose.sh+rook-63-1-1.cnf+cbdcc14c,0,1615.77,315176,25432,7917776,29717724,3882547607,UNSATISFIABLE,
glucose.sh+rook-65-1-1.cnf+f4659f4e,0,1156.61,312952,21938,6760872,27095926,3407772072,UNSATISFIABLE,
glucose.sh+rook-68-1-1.cnf+b132ec51,0,2575.35,392284,36077,11204805,42968149,6568887964,UNSATISFIABLE,
glucose.sh+rook-72-1-1.cnf+2be1c36a,0,1677.74,395340,28111,8690517,37576091,4725065615,UNSATISFIABLE,
glucose.sh+rook-76-1-1.cnf+7cf37f6e,0,2828.83,489236,47457,12829559,59194298,7418035029,UNSATISFIABLE,
glucose.sh+rpoc_xits_15_SAT.cnf+96ec6eb4,0,1.13,26500,28,17134,23284,854973,SATISFIABLE,
glucose.sh+rpoc_xits_15_SAT.cnf+fd227612,0,1.11,25220,28,17134,23284,854973,SATISFIABLE,
glucose.sh+sat-grid-pbl-0200.sat05-1339.reshuffled-07.cnf+f2240092,0,0.19,18812,1,0,1,2,SATISFIABLE,
glucose.sh+school1.col.14.cnf+70416de5,0,3600.78,333704
glucose.sh+school1_nsh.col.14.cnf+a364f461,0,3600.33,295620
glucose.sh+sgen1-sat-230-100.cnf+bcb125a6,0,3597.24,146192
glucose.sh+sgen1-sat-240-100.cnf+b0fa96c5,0,3597.79,140284
glucose.sh+sgen1-sat-250-100.cnf+a54407e4,0,3597.88,143148
glucose.sh+sgen1-sat-270-100.cnf+8dd6ea22,0,3598.14,142296
glucose.sh+sgen3-n200-s39840374-sat.cnf+535ae123,0,3597.69,137780
glucose.sh+sgen3-n220-s24359701-sat.cnf+32f3e9a2,0,3597.95,144148
glucose.sh+sgen3-n240-s78945233-sat.cnf+2c556616,0,3598.29,147552
glucose.sh+sgen4-sat-160-8.cnf+39a614cc,0,3426.58,135544,12778,6410585,7528785,135508580,SATISFIABLE,
glucose.sh+sgen4-sat-200-8.cnf+5ea37693,0,3597.47,130668
glucose.sh+sgen4-sat-220-8.cnf+2e65d051,0,3598.63,129488
glucose.sh+sgen6-1080-5-1.cnf+471d6c5e,0,3596.81,134436
glucose.sh+sgen6-1200-5-1.cnf+ce9b48e8,0,3597.49,143596
glucose.sh+sgen6-1320-5-1.cnf+4c12dde7,0,3598.49,140080
glucose.sh+sgen6-1440-5-1.cnf+c98a72e6,0,3595.74,146300
glucose.sh+sgen6-840-5-1.cnf+9d6bbc5f,0,1074.05,85372,3899,3187320,3659198,60927343,UNSATISFIABLE,
glucose.sh+sgen6-960-5-1.cnf+1ae3515e,0,3597.45,120716
glucose.sh+shift1add.10000.cnf+bfe5b768,0,29.61,99444,470,60435,37963242,116548888,UNSATISFIABLE,
glucose.sh+shift1add.13988.cnf+e1b8d44e,0,94.42,135744,691,72547,210489288,416533995,UNSATISFIABLE,
glucose.sh+shift1add.15982.cnf+b126a106,0,139.29,155276,730,90912,330278593,596221449,UNSATISFIABLE,
glucose.sh+shift1add.18973.cnf+e7236685,0,93.06,193184,872,110240,128311949,394235850,UNSATISFIABLE,
glucose.sh+shift1add.21964.cnf+a298da4f,0,192.94,222332,1163,128737,396838151,882386155,UNSATISFIABLE,
glucose.sh+shift1add.24955.cnf+d8959fce,0,339.64,238172,921,134300,688327938,1311138223,UNSATISFIABLE,
glucose.sh+shift1add.25952.cnf+404c862a,0,235.77,248096,1183,139981,570198484,1007403777,UNSATISFIABLE,
glucose.sh+shift1add.29940.cnf+de003205,0,322.9,288860,1375,163475,602134096,1231025220,UNSATISFIABLE,
glucose.sh+slp-synthesis-aes-top28.cnf+fc1a3a83,0,3598.13,201020
glucose.sh+slp-synthesis-aes-top29.cnf+fc285204,0,3597.46,207012
glucose.sh+smtlib-qfbv-aigs-ext_con_032_008_0256-tseitin.cnf+c420074a,0,3596.46,453824
glucose.sh+smtlib-qfbv-aigs-lfsr_004_127_112-tseitin.cnf+a593be6d,0,3.82,177372,136,38761,224776,9820113,UNSATISFIABLE,
glucose.sh+stable-300-0.1-20-98765432130020.cnf+773e0b2a,0,431.36,132356,1105,1987350,2584178,47843055,SATISFIABLE,
glucose.sh+stable-400-0.1-11-98765432140011.cnf+e347e6c,0,3598.87,237000
glucose.sh+stable-400-0.1-12-98765432140012.cnf+f5e46c4c,0,3597.1,242904
glucose.sh+stable-400-0.1-2-9876543214002.cnf+50ce2d78,0,3598.8,237908
glucose.sh+stable-400-0.1-4-9876543214004.cnf+ec3f1ffc,0,3598.63,242532
glucose.sh+stable-400-0.1-5-9876543214005.cnf+b9f7993e,0,3602.39,260152
glucose.sh+stable-400-0.1-7-9876543214007.cnf+55688bc2,0,2594.28,219024,15954,5382993,8634198,138140400,SATISFIABLE,
glucose.sh+total-10-13-u.cnf+11f035a4,0,446.29,154056,3417,939598,1486231,950409092,UNSATISFIABLE,
glucose.sh+toughsat_factoring_155s.cnf+f87de2d5,0,34.36,30696,1158,340092,411680,77377543,SATISFIABLE,
glucose.sh+toughsat_factoring_426s.cnf+9323904e,0,189.95,56588,2286,1207586,1369841,330488330,SATISFIABLE,
glucose.sh+toughsat_factoring_958s.cnf+3ca5d3aa,0,299.54,59032,2935,1546254,1708875,409663272,SATISFIABLE,
glucose.sh+toughsat_factoring_inf.cnf+4049afa8,0,3598.35,143944
glucose.sh+tph17.cnf+166ee7e5,0,3595.69,347672
glucose.sh+transport-transport-city-sequential-25nodes-1000size-3degree-100mindistance-3trucks-10packages-2008seed.020-NOTKNOWN.cnf+c7742fbf,0,8.8,164864,26,9852,123384,28640248,SATISFIABLE,
glucose.sh+transport-transport-city-sequential-25nodes-1000size-3degree-100mindistance-3trucks-10packages-2008seed.030-NOTKNOWN.cnf+214f9a00,0,39.18,297632,147,37749,737325,105172098,SATISFIABLE,
glucose.sh+transport-transport-city-sequential-25nodes-1000size-3degree-100mindistance-3trucks-10packages-2008seed.040-NOTKNOWN.cnf+7b2b0441,0,58.49,381840,206,55167,1049829,133973893,SATISFIABLE,
glucose.sh+transport-transport-city-sequential-25nodes-1000size-3degree-100mindistance-3trucks-10packages-2008seed.050-NOTKNOWN.cnf+d5066e82,0,51.17,452436,83,40310,892795,89475995,SATISFIABLE,
glucose.sh+transport-transport-city-sequential-35nodes-1000size-4degree-100mindistance-4trucks-14packages-2008seed.040-NOTKNOWN.cnf+fd3b46c4,0,1191.1,1450024,1065,398464,11955478,1825420150,SATISFIABLE,
glucose.sh+unsat-set-a-clqcolor-10-06-07.sat05-1250.reshuffled-07.cnf+23adbac8,0,278.75,107716,13001,7244231,11262693,126549775,UNSATISFIABLE,
glucose.sh+unsat-set-a-clqcolor-12-07-08.sat05-1251.reshuffled-07.cnf+585af4e7,0,3597.9,234372
glucose.sh+unsat-set-a-clqcolor-16-10-11.sat05-1253.reshuffled-07.cnf+a11650e5,0,3596.34,379724
glucose.sh+unsat-set-a-clqcolor-30-19-20.sat05-1256.reshuffled-07.cnf+f8bb839b,0,3594.93,763376
glucose.sh+unsat-set-a-fclqcolor-10-06-07.sat05-1274.reshuffled-07.cnf+35da035e,0,211.93,78048,11900,5633688,8228621,68949843,UNSATISFIABLE,
glucose.sh+unsat-set-a-fclqcolor-20-13-14.sat05-1278.reshuffled-07.cnf+56a6b363,0,3596.32,496748
glucose.sh+unsat-set-b-clqcolor-16-11-14.sat05-1261.reshuffled-07.cnf+a70bc47f,0,3597.24,357216
glucose.sh+unsat-set-b-clqcolor-30-20-26.sat05-1264.reshuffled-07.cnf+53696627,0,3595.78,666692
glucose.sh+unsat-set-b-fclqcolor-10-07-09.sat05-1282.reshuffled-07.cnf+e1c37b,0,3597.04,219960
glucose.sh+unsat-set-b-fclqcolor-25-18-23.sat05-1287.reshuffled-07.cnf+3ed6a484,0,3595.22,693280
glucose.sh+vdw_2_3_8.cnf+a0703fb6,0,0.0,1420,1,0,1,0,SATISFIABLE,
glucose.sh+vdw_2_3_9.cnf+a07e5737,0,0.0,1420,0,0,0,0,UNSATISFIABLE,
glucose.sh+vdw_2_4_34.cnf+cd2cf63c,0,0.0,1416,1,28,43,253,SATISFIABLE,
glucose.sh+vdw_2_4_35.cnf+cd3b0dbd,0,0.0,1420,1,580,604,5190,UNSATISFIABLE,
glucose.sh+vdw_2_5_177.cnf+86ee791,0,7.01,15080,18,238567,257799,3333571,SATISFIABLE,
glucose.sh+vdw_2_5_178.cnf+87cff12,0,37.43,27588,181,734966,792722,10086988,UNSATISFIABLE,
glucose.sh+vdw_2_6_1131.cnf+b590bc97,0,3597.43,232800
glucose.sh+vdw_2_6_1132.cnf+b59ed418,0,3595.9,242976
glucose.sh+vdw_3_3_26.cnf+57fc90df,0,0.0,1420,1,428,501,5379,SATISFIABLE,
glucose.sh+vdw_3_3_27.cnf+580aa860,0,0.05,1420,1,7409,8199,100783,UNSATISFIABLE,
glucose.sh+vdw_3_4_292.cnf+4118a24b,0,3597.85,222780
glucose.sh+vdw_3_4_293.cnf+4126b9cc,0,3597.45,234096
glucose.sh+vdw_4_3_75.cnf+54c02598,0,3601.02,174900
glucose.sh+vdw_4_3_76.cnf+54ce3d19,0,3601.3,180332
glucose.sh+vdw_5_3_171.cnf+9e3f94cc,0,3600.76,245484
glucose.sh+velev-vliw-uns-2.0-uq5.cnf+1a5b3888,0,278.05,284424,7321,1378863,40558210,1921392157,UNSATISFIABLE,
glucose.sh+velev-vliw-uns-4.0-9-i1.cnf+334ee8e5,0,472.31,376164,11652,2263011,52329801,3455731327,UNSATISFIABLE,
glucose.sh+velev-vliw-uns-4.0-9.cnf+92e53a2a,0,86.57,202924,3099,556537,12141067,583937681,UNSATISFIABLE,
glucose.sh+vmpc_29.cnf+939adff1,0,79.99,64516,5972,1270701,2728971,170168672,SATISFIABLE,
glucose.sh+vmpc_32.renamed-as.sat05-1919.cnf+ad78b022,0,2632.65,161128,77649,14384875,30226108,2174644423,SATISFIABLE,
glucose.sh+vmpc_33.cnf+94fb2b8a,0,86.64,75552,6645,1332818,3132395,219097444,SATISFIABLE,
glucose.sh+x1_40.shuffled.cnf+ec2da073,0,26.98,41932,269,1746879,2149862,6828706,UNSATISFIABLE,
glucose.sh+x1_80.shuffled.cnf+539b4977,0,3597.56,239908
glucose.sh+zeroin.i.1.col.49.cnf+f22a590d,0,3597.58,591872
glucose.sh+zeroin.i.2.col.30.cnf+f7a85244,0,3598.36,344068
glucose.sh+zeroin.i.3.col.30.cnf+ff59f7a3,0,3598.66,344188
glucose.sh+zfcp-2.8-u2-nh.cnf+cf331a8a,0,21.28,4818292,1,58,509532,87662012,SATISFIABLE,
