Name,OutCode,Time,Mem
minisat_spfs.sh+001-80-12.cnf+8324be03,0,0.0,1440,nosym
minisat_spfs.sh+002-23-96.cnf+e3f18057,0,3595.9,550592
minisat_spfs.sh+002-80-12.cnf+180970c4,0,0.0,1440,nosym
minisat_spfs.sh+002-80-4.cnf+c721492b,0,0.0,1440,nosym
minisat_spfs.sh+002-80-8.cnf+c759a72f,0,0.0,1436,nosym
minisat_spfs.sh+003-23-80.cnf+76cccd73,0,1155.9,294996,2016,8191,5000953,0,37530614,560344370,0,SATISFIABLE,
minisat_spfs.sh+003-80-8.cnf+bba3184e,0,0.0,1436,nosym
minisat_spfs.sh+004-22-144.cnf+6afe286e,0,3597.27,472976
minisat_spfs.sh+004-22-160.cnf+6e2f7ba8,0,1648.53,305160,2016,16381,10199044,0,56579877,1115468226,0,SATISFIABLE,
minisat_spfs.sh+004-80-8.cnf+afec896d,0,0.0,1436,nosym
minisat_spfs.sh+005-22-160.cnf+75e12107,0,1354.2,296468,2016,12286,7736547,0,43101476,854343466,0,SATISFIABLE,
minisat_spfs.sh+005-80-12.cnf+d6b78907,0,0.0,1440,nosym
minisat_spfs.sh+006-22-144.cnf+7a61732c,0,3597.85,444660
minisat_spfs.sh+006-22-160.cnf+7d92c666,0,3596.99,395180
minisat_spfs.sh+006-23-80.cnf+357ae5b6,0,3597.09,596560
minisat_spfs.sh+006-23-96.cnf+37844b5b,0,3597.85,556864
minisat_spfs.sh+006-80-4.cnf+98470da7,0,0.0,1440,nosym
minisat_spfs.sh+007-80-12.cnf+80ee89,0,0.0,1436,nosym
minisat_spfs.sh+007-80-8.cnf+8cc8dcca,0,0.0,1436,nosym
minisat_spfs.sh+008-80-12.cnf+9565a14a,0,0.0,1440,nosym
minisat_spfs.sh+008-80-4.cnf+80d9efe5,0,0.0,1436,nosym
minisat_spfs.sh+008-80-8.cnf+81124de9,0,0.0,1440,nosym
minisat_spfs.sh+009-23-64.cnf+f0f7aabf,0,3596.75,615156
minisat_spfs.sh+009-80-4.cnf+75236104,0,0.0,1440,nosym
minisat_spfs.sh+009-80-8.cnf+755bbf08,0,0.0,1440,nosym
minisat_spfs.sh+010-22-144.cnf+3aba9973,0,3505.46,410408,2016,31227,20613971,0,115937776,2350451424,0,SATISFIABLE,
minisat_spfs.sh+010-22-160.cnf+3debecad,0,1131.44,280180,2016,11261,6945915,0,39679452,761897137,0,SATISFIABLE,
minisat_spfs.sh+010-23-80.cnf+bfd05a8f,0,2204.71,476184,2016,16383,11470795,0,76168097,1344223993,0,SATISFIABLE,
minisat_spfs.sh+010-80-12.cnf+f5f1b0a1,0,0.0,1436,nosym
minisat_spfs.sh+10pipe_q0_k.cnf+23b321c6,0,3598.23,1778804
minisat_spfs.sh+11pipe_11_ooo.cnf+a9fbbf8a,0,3597.96,1443700
minisat_spfs.sh+11pipe_k.cnf+52d07c0b,0,3597.59,990944
minisat_spfs.sh+11pipe_q0_k.cnf+590eb65,0,3597.75,1329144
minisat_spfs.sh+12pipe_q0_k.cnf+e76eb504,0,3597.61,982248
minisat_spfs.sh+13pipe_q0_k.cnf+c94c7ea3,0,3598.59,750424
minisat_spfs.sh+14pipe_q0_k.cnf+ab2a4842,0,3597.75,829244
minisat_spfs.sh+15pipe_q0_k.cnf+8d0811e1,0,3597.11,994772
minisat_spfs.sh+289-unsat-6x30.cnf+ae63f44c,0,12.91,15336,441,62,15481,149,47868,408279,3169,SATISFIABLE,
minisat_spfs.sh+5-SATISFIABLE.cnf+a2367e9c,0,3598.24,1001564
minisat_spfs.sh+6s10.cnf+584e26ad,0,3598.21,249044
minisat_spfs.sh+6s11-opt.cnf+4dc47614,0,3598.14,291728
minisat_spfs.sh+6s12.cnf+586a55af,0,3597.4,246796
minisat_spfs.sh+6s123.cnf+b50e961e,0,3597.96,3314664
minisat_spfs.sh+6s126-opt.cnf+9576a307,0,0.0,1436,nosym
minisat_spfs.sh+6s13-opt.cnf+764d5416,0,3596.85,306496
minisat_spfs.sh+6s130-opt.cnf+10257a20,0,3595.8,375188
minisat_spfs.sh+6s131-opt.cnf+a469e921,0,3596.53,582320
minisat_spfs.sh+6s133.cnf+b6c36ebd,0,3597.87,347492
minisat_spfs.sh+6s137.cnf+b6fbccc1,0,3600.55,10131964
minisat_spfs.sh+6s151.cnf+ba10f0f9,0,3598.08,223636
minisat_spfs.sh+6s153.cnf+ba2d1ffb,0,1045.84,519548,518,17601,12056581,208744,20450169,1939657450,1165242,UNSATISFIABLE,
minisat_spfs.sh+6s16-opt.cnf+331aa119,0,3598.35,275600
minisat_spfs.sh+6s16.cnf+58a2b3b3,0,3598.22,220996
minisat_spfs.sh+6s165-nonopt.cnf+784bd811,0,104.05,17756,20,5578,3142612,15699,4205299,361914073,193494,UNSATISFIABLE,
minisat_spfs.sh+6s167-opt.cnf+fae0d684,0,0.0,1440,nosym
minisat_spfs.sh+6s168-opt.cnf+8f254585,0,0.0,1436,nosym
minisat_spfs.sh+6s169-opt.cnf+2369b486,0,750.78,53852,2,24428,15945083,0,20677804,2714944485,0,UNSATISFIABLE,
minisat_spfs.sh+6s17-opt.cnf+c75f101a,0,3597.77,324152
minisat_spfs.sh+6s184.cnf+bf59c159,0,3598.31,274268
minisat_spfs.sh+6s9.cnf+a0311065,0,3597.98,249244
minisat_spfs.sh+7pipe_k.cnf+a433bc1a,0,3597.1,2376312
minisat_spfs.sh+8pipe_k.cnf+39186edb,0,3598.61,3623008
minisat_spfs.sh+9dlx_vliw_at_b_iq3.cnf+49765c46,0,3597.79,1526840
minisat_spfs.sh+9dlx_vliw_at_b_iq4.cnf+498473c7,0,3596.85,2464604
minisat_spfs.sh+9dlx_vliw_at_b_iq6.used-as.sat04-347.cnf+6cfd442,0,3597.58,3091364
minisat_spfs.sh+9dlx_vliw_at_b_iq7.cnf+49aeba4a,0,3597.58,3093620
minisat_spfs.sh+9dlx_vliw_at_b_iq8.used-as.sat04-718.cnf+69bb816c,0,3596.77,2525476
minisat_spfs.sh+9dlx_vliw_at_b_iq9.cnf+49cae94c,0,3598.56,2058600
minisat_spfs.sh+9vliw_m_9stages_iq3_C1_bug1.cnf+e3d0de,0,66.5,1084732,2,61,14438,14,2455928,133934227,32,SATISFIABLE,
minisat_spfs.sh+9vliw_m_9stages_iq3_C1_bug10.cnf+1b9a3a4c,0,66.93,1085160,2,63,17608,25,2297731,175329031,36,SATISFIABLE,
minisat_spfs.sh+9vliw_m_9stages_iq3_C1_bug3.cnf+ffffe0,0,47.95,1083332,2,27,5034,3,1601926,53291247,4,SATISFIABLE,
minisat_spfs.sh+9vliw_m_9stages_iq3_C1_bug4.cnf+10e1761,0,107.51,1083476,2,124,33021,29,3524963,268546714,53,SATISFIABLE,
minisat_spfs.sh+9vliw_m_9stages_iq3_C1_bug7.cnf+1385de4,0,70.5,1083820,2,56,12774,9,2459432,132549688,38,SATISFIABLE,
minisat_spfs.sh+9vliw_m_9stages_iq3_C1_bug8.cnf+1467565,0,80.01,1087672,2,60,13498,10,2511122,146028182,20,SATISFIABLE,
minisat_spfs.sh+9vliw_m_9stages_iq3_C1_bug9.cnf+1548ce6,0,43.67,1084216,2,15,2840,2,1753567,32325225,6,SATISFIABLE,
minisat_spfs.sh+ACG-15-10p0.cnf+3e4dce49,0,0.0,1440,nosym
minisat_spfs.sh+ACG-15-10p1.cnf+3e5be5ca,0,0.0,1440,nosym
minisat_spfs.sh+ACG-20-10p1.cnf+dd162f0,0,0.0,1440,nosym
minisat_spfs.sh+ACG-20-5p0.cnf+c1dbc3df,0,0.0,1436,nosym
minisat_spfs.sh+ACG-20-5p1.cnf+c1e9db60,0,0.0,1440,nosym
minisat_spfs.sh+AProVE07-01.cnf+ac3e4595,0,0.0,1440,nosym
minisat_spfs.sh+AProVE07-03.cnf+ac5a7497,0,0.0,1436,nosym
minisat_spfs.sh+AProVE07-08.cnf+aca0ea1c,0,0.0,1436,nosym
minisat_spfs.sh+AProVE07-27.cnf+affc83d9,0,2482.43,67120,2,32765,22045329,0,27910227,9053208659,0,UNSATISFIABLE,
minisat_spfs.sh+AProVE09-06.cnf+7c4714d8,0,1154.53,213172,2,1660,781353,46,1326589,2092991795,9174,SATISFIABLE,
minisat_spfs.sh+Chvatal-k5.cnf+2899807b,0,0.0,1440,nosym
minisat_spfs.sh+Composite-024BitPrimes-1.used-as.sat04-861.cnf+6179b44a,0,22.21,7052,1,1023,481619,0,538372,105052179,0,SATISFIABLE,
minisat_spfs.sh+Composite-024BitPrimes-1.used-as.sat04-861.cnf+cbaa59a2,0,22.72,7052,1,1023,481619,0,538372,105052179,0,SATISFIABLE,
minisat_spfs.sh+E02F20.cnf+f755a5ee,0,0.0,1440,nosym
minisat_spfs.sh+E02F22.cnf+f771d4f0,0,0.0,1440,nosym
minisat_spfs.sh+EDP3-10000.cnf+d0361a59,0,913.56,161304,1,510,203962,0,1672753,272641780,0,SATISFIABLE,
minisat_spfs.sh+EDP3-11000.cnf+38174738,0,1949.59,368088,1,1022,461317,0,3271372,655158817,0,SATISFIABLE,
minisat_spfs.sh+EDP3-12000.cnf+9ff87417,0,3598.59,675464
minisat_spfs.sh+EDP3-13000.cnf+7d9a0f6,0,3598.18,653408
minisat_spfs.sh+EDP3-14000.cnf+6fbacdd5,0,3598.48,571596
minisat_spfs.sh+EDP3-15000.cnf+d79bfab4,0,3597.58,529988
minisat_spfs.sh+EDP3-16000.cnf+3f7d2793,0,3597.85,518960
minisat_spfs.sh+EDP3-17000.cnf+a75e5472,0,3598.25,514012
minisat_spfs.sh+EDP3-18000.cnf+f3f8151,0,3598.27,519940
minisat_spfs.sh+EDP3-19000.cnf+7720ae30,0,3598.44,553132
minisat_spfs.sh+EDP3-20000.cnf+647a895a,0,3598.75,617264
minisat_spfs.sh+EDP3-30000.cnf+f8bef85b,0,3599.0,684564
minisat_spfs.sh+EDP3-40000.cnf+8d03675c,0,3598.55,746464
minisat_spfs.sh+EDP3-50000.cnf+2147d65d,0,3597.89,877676
minisat_spfs.sh+EDP3-60000.cnf+b58c455e,0,3598.42,778120
minisat_spfs.sh+EDP3-70000.cnf+49d0b45f,0,3597.77,878360
minisat_spfs.sh+EDP3-8000.cnf+d59d754a,0,74.44,54284,1,45,10418,0,164999,12321680,0,SATISFIABLE,
minisat_spfs.sh+EDP3-80000.cnf+de152360,0,3598.26,750668
minisat_spfs.sh+EDP3-9000.cnf+3d7ea229,0,889.74,135856,1,509,191098,0,1610758,239998849,0,SATISFIABLE,
minisat_spfs.sh+EDP3-90000.cnf+72599261,0,3598.47,842916
minisat_spfs.sh+FlowerSnark-k6.cnf+672186a7,0,0.0,1440,nosym
minisat_spfs.sh+GreenTao_2-3-6_2071.cnf+644a04bd,0,0.0,1440,nosym
minisat_spfs.sh+GreenTao_2-4-4_511.cnf+4136d209,0,3599.08,43796
minisat_spfs.sh+Hidoku_enu_6.cnf+799781ed,0,0.0,1440,nosym
minisat_spfs.sh+Hidoku_enu_7.cnf+79a5996e,0,0.0,1440,nosym
minisat_spfs.sh+IBM_FV_2004_rule_batch_1_31_1_SAT_dat.k40.debugged.cnf+b80ca4d,0,3598.11,546560
minisat_spfs.sh+LABS_n038_goal002.cnf+5d68c627,0,0.0,1436,nosym
minisat_spfs.sh+LABS_n044_goal003.cnf+85488d43,0,3598.57,142520
minisat_spfs.sh+LABS_n045_goal003.cnf+73cb93c4,0,3597.35,138000
minisat_spfs.sh+LABS_n051_goal004.cnf+9bab5ae0,0,3598.88,164008
minisat_spfs.sh+LABS_n052_goal004.cnf+8a2e6161,0,3597.68,134300
minisat_spfs.sh+LABS_n066_goal005.cnf+26265c85,0,3598.53,233568
minisat_spfs.sh+LABS_n078_goal006.cnf+e5184aa7,0,3597.57,356636
minisat_spfs.sh+LABS_n081_goal007.cnf+416efe40,0,1760.79,316772,6,1534,735508,0,944566,7091308660,0,SATISFIABLE,
minisat_spfs.sh+LABS_n082_goal007.cnf+2ff204c1,0,3597.95,487604
minisat_spfs.sh+LABS_n088_goal008.cnf+c7124348,0,3599.11,565300
minisat_spfs.sh+MD5-27-4.cnf+27ffe0ec,0,0.0,1440,nosym
minisat_spfs.sh+MD5-28-1.cnf+5cbbd5aa,0,0.0,1436,nosym
minisat_spfs.sh+MD5-28-2.cnf+5cc9ed2b,0,0.0,1436,nosym
minisat_spfs.sh+MD5-28-3.cnf+5cd804ac,0,0.0,1440,nosym
minisat_spfs.sh+MD5-28-4.cnf+5ce61c2d,0,0.0,1436,nosym
minisat_spfs.sh+MD5-28-5.cnf+5cf433ae,0,0.0,1440,nosym
minisat_spfs.sh+MD5-29-2.cnf+91b0286c,0,0.0,1440,nosym
minisat_spfs.sh+MD5-29-3.cnf+91be3fed,0,0.0,1440,nosym
minisat_spfs.sh+MD5-29-4.cnf+91cc576e,0,0.0,1440,nosym
minisat_spfs.sh+MD5-29-5.cnf+91da6eef,0,0.0,1440,nosym
minisat_spfs.sh+MD5-30-1.cnf+1d6b2881,0,0.0,1440,nosym
minisat_spfs.sh+MD5-30-2.cnf+1d794002,0,0.0,1440,nosym
minisat_spfs.sh+MD5-30-4.cnf+1d956f04,0,0.0,1436,nosym
minisat_spfs.sh+MD5-30-5.cnf+1da38685,0,0.0,1440,nosym
minisat_spfs.sh+MD5-31-4.cnf+527baa45,0,0.0,1440,nosym
minisat_spfs.sh+MD5-31-5.cnf+5289c1c6,0,0.0,1440,nosym
minisat_spfs.sh+MD5-32-1.cnf+87379f03,0,0.0,1440,nosym
minisat_spfs.sh+MD5-32-2.cnf+8745b684,0,0.0,1436,nosym
minisat_spfs.sh+MD5-32-3.cnf+8753ce05,0,0.0,1436,nosym
minisat_spfs.sh+MD5-32-4.cnf+8761e586,0,0.0,1440,nosym
minisat_spfs.sh+MD5-32-5.cnf+876ffd07,0,0.0,1440,nosym
minisat_spfs.sh+Q32inK09.cnf+fd1ae6cb,0,1.55,4716,7,127,40981,139,45418,306699,1419,UNSATISFIABLE,
minisat_spfs.sh+Q32inK10.cnf+fe50ebe1,0,5.04,14700,9,172,55322,83,61158,407227,854,UNSATISFIABLE,
minisat_spfs.sh+Q32inK11.cnf+fe5f0362,0,34.51,37424,9,348,127577,85,140113,938390,732,UNSATISFIABLE,
minisat_spfs.sh+Q3inK10.cnf+8aa9a0b1,0,4.55,13756,11,1,0,0,31,45,0,SATISFIABLE,
minisat_spfs.sh+Q3inK11.cnf+77192bcb,0,89.29,53248,12,1,3,0,36,64,0,SATISFIABLE,
minisat_spfs.sh+Robertson-k8.cnf+4ca815d,0,0.0,1440,nosym
minisat_spfs.sh+SAT_dat.k100-24_1_rule_1.cnf+4f5be353,0,5.65,16331520
minisat_spfs.sh+SAT_dat.k100-24_1_rule_2.cnf+4f69fad4,0,5.53,16339816
minisat_spfs.sh+SAT_dat.k100-24_1_rule_3.cnf+4f781255,0,5.59,16346760
minisat_spfs.sh+SAT_dat.k30-30_rule.cnf+694d6992,0,3599.41,8857008
minisat_spfs.sh+SAT_dat.k35-31_2_rule_2.cnf+fb8e9a16,0,3.33,15987620
minisat_spfs.sh+SAT_dat.k70-24_1_rule_1.cnf+be830249,0,4.89,16391904
minisat_spfs.sh+SAT_dat.k70-24_1_rule_3.cnf+be9f314b,0,4.96,16388564
minisat_spfs.sh+SAT_dat.k75-24_1_rule_3.cnf+51f08750,0,5.0,16342888
minisat_spfs.sh+SAT_dat.k80-24_1_rule_1.cnf+8314e468,0,5.15,16361956
minisat_spfs.sh+SAT_dat.k80-24_1_rule_2.cnf+8322fbe9,0,5.2,16359744
minisat_spfs.sh+SAT_dat.k85-24_1_rule_1.cnf+16663a6d,0,5.34,16374008
minisat_spfs.sh+SAT_dat.k85-24_1_rule_2.cnf+167451ee,0,5.53,16373772
minisat_spfs.sh+SAT_dat.k85-24_1_rule_3.cnf+1682696f,0,5.28,16368032
minisat_spfs.sh+SAT_dat.k90.debugged.cnf+fc1baf60,0,5.5,16365908
minisat_spfs.sh+SAT_dat.k95-24_1_rule_1.cnf+daf81c8c,0,5.43,16379804
minisat_spfs.sh+SAT_dat.k95-24_1_rule_2.cnf+db06340d,0,5.49,16371552
minisat_spfs.sh+SAT_dat.k95-24_1_rule_3.cnf+db144b8e,0,5.5,16373192
minisat_spfs.sh+SAT_instance_N=111.cnf+d9e38964,0,0.0,1436,nosym
minisat_spfs.sh+SAT_instance_N=31.cnf+8e917ba5,0,0.0,1436,nosym
minisat_spfs.sh+SAT_instance_N=33.cnf+8eadaaa7,0,0.0,1440,nosym
minisat_spfs.sh+SAT_instance_N=43.cnf+90628346,0,0.0,1440,nosym
minisat_spfs.sh+SAT_instance_N=49.cnf+90b7104c,0,0.0,1440,nosym
minisat_spfs.sh+SAT_instance_N=55.cnf+92338ae7,0,0.0,1440,nosym
minisat_spfs.sh+SAT_instance_N=63.cnf+93cc3484,0,0.0,1436,nosym
minisat_spfs.sh+SAT_instance_N=69.cnf+9420c18a,0,0.0,1436,nosym
minisat_spfs.sh+SAT_instance_N=72.cnf+9572f5a2,0,0.0,1440,nosym
minisat_spfs.sh+SAT_instance_N=75.cnf+959d3c25,0,0.0,1440,nosym
minisat_spfs.sh+SAT_instance_N=77.cnf+95b96b27,0,0.0,1436,nosym
minisat_spfs.sh+SAT_instance_N=85.cnf+975214c4,0,0.0,1440,nosym
minisat_spfs.sh+SAT_instance_N=93.cnf+98eabe61,0,0.0,1440,nosym
minisat_spfs.sh+SAT_instance_N=99.cnf+993f4b67,0,0.0,1436,nosym
minisat_spfs.sh+UCG-15-10p0.cnf+43721b5d,0,0.0,1440,nosym
minisat_spfs.sh+UCG-15-10p1.cnf+438032de,0,0.0,1436,nosym
minisat_spfs.sh+UCG-20-10p0.cnf+12e79883,0,0.0,1436,nosym
minisat_spfs.sh+UCG-20-10p1.cnf+12f5b004,0,0.0,1440,nosym
minisat_spfs.sh+UCG-20-5p0.cnf+672f844b,0,0.0,1440,nosym
minisat_spfs.sh+UCG-20-5p1.cnf+673d9bcc,0,0.0,1440,nosym
minisat_spfs.sh+UR-15-10p0.cnf+a37976c9,0,0.0,1440,nosym
minisat_spfs.sh+UR-15-10p1.cnf+a3878e4a,0,0.0,1436,nosym
minisat_spfs.sh+UR-20-10p0.cnf+72eef3ef,0,0.0,1440,nosym
minisat_spfs.sh+UR-20-10p1.cnf+72fd0b70,0,0.0,1436,nosym
minisat_spfs.sh+UR-20-5p0.cnf+ac590b5f,0,0.0,1436,nosym
minisat_spfs.sh+UTI-20-10p0.cnf+efa80914,0,0.0,1436,nosym
minisat_spfs.sh+UTI-20-10p1.cnf+efb62095,0,0.0,1440,nosym
minisat_spfs.sh+UTI-20-5p1.cnf+4d54551b,0,0.0,1436,nosym
minisat_spfs.sh+Urq3_5.cnf+38dedb47,0,1.9,1460,29,766,327169,4978,500807,1804031,4978,UNSATISFIABLE,
minisat_spfs.sh+Urq4_5.cnf+6dc51688,0,25.14,2132,43,4095,2255098,43769,3599700,14093370,43769,UNSATISFIABLE,
minisat_spfs.sh+Urq5_5.cnf+a2ab51c9,0,3599.26,14436
minisat_spfs.sh+Urq6_5.cnf+d7918d0a,0,3598.9,23908
minisat_spfs.sh+Urq7_5.cnf+c77c84b,0,3599.86,28500
minisat_spfs.sh+Urq8_5.cnf+415e038c,0,3599.64,42604
minisat_spfs.sh+VanDerWaerden_pd_2-3-20_388.cnf+555527a2,0,0.0,1436,nosym
minisat_spfs.sh+aaai10-planning-ipc5-TPP-21-step11.cnf+602d3528,0,3598.1,1405956
minisat_spfs.sh+aaai10-planning-ipc5-TPP-30-step11.cnf+46fe964a,0,29.62,282060,12,63,19069,0,740476,196501198,0,SATISFIABLE,
minisat_spfs.sh+aaai10-planning-ipc5-pathways-13-step17.cnf+29301b2c,0,0.0,1436,nosym
minisat_spfs.sh+aaai10-planning-ipc5-pathways-17-step20.cnf+4948e4c0,0,0.0,1440,nosym
minisat_spfs.sh+aaai10-planning-ipc5-pathways-17-step21.cnf+4956fc41,0,0.0,1436,nosym
minisat_spfs.sh+aes_24_4_keyfind_4.cnf+e5fa7c46,0,0.0,1440,nosym
minisat_spfs.sh+aes_24_4_keyfind_5.cnf+e60893c7,0,0.0,1440,nosym
minisat_spfs.sh+aes_32_2_keyfind_1.cnf+5557875e,0,0.0,1440,nosym
minisat_spfs.sh+aes_32_2_keyfind_3.cnf+5573b660,0,0.0,1440,nosym
minisat_spfs.sh+aes_32_3_keyfind_1.cnf+af32f19f,0,0.0,1440,nosym
minisat_spfs.sh+aes_64_1_keyfind_1.cnf+e9048c6,0,0.0,1436,nosym
minisat_spfs.sh+aes_64_1_keyfind_1.cnf+ea857f7c,0,0.0,1440,nosym
minisat_spfs.sh+anna.col.11.cnf+1e91387,0,0.67,5444,147,63,18478,436,24171,825868,3373,UNSATISFIABLE,
minisat_spfs.sh+atco_enc1_opt1_03_56.cnf+a29215d5,0,467.33,226408,46,4604,2647468,0,4980179,1336257246,0,SATISFIABLE,
minisat_spfs.sh+atco_enc1_opt1_04_32.cnf+6d13372,0,3598.52,492756
minisat_spfs.sh+atco_enc1_opt1_05_21.cnf+6cef7031,0,40.99,97648,17,445,166194,0,1121746,152989197,0,SATISFIABLE,
minisat_spfs.sh+atco_enc1_opt1_10_15.cnf+f851843c,0,406.95,181768,36,2431,1275726,191,1888950,937240224,4303,SATISFIABLE,
minisat_spfs.sh+atco_enc1_opt1_10_21.cnf+f9cdfed7,0,172.9,139980,36,2046,1018798,30,1464460,360104536,2183,SATISFIABLE,
minisat_spfs.sh+atco_enc1_opt1_15_240.cnf+2a6a8055,0,98.58,164040,35,509,189276,6,1965950,229578656,3105,SATISFIABLE,
minisat_spfs.sh+atco_enc1_opt1_18_18.cnf+378531b7,0,220.38,141320,3,1022,456350,105,1031789,461075223,3502,SATISFIABLE,
minisat_spfs.sh+atco_enc1_opt2_05_4.cnf+2132f61b,0,1061.06,276276,153,4093,2126564,0,3222488,947521854,0,UNSATISFIABLE,
minisat_spfs.sh+atco_enc1_opt2_10_12.cnf+8d0bf07a,0,256.4,111340,44,3069,1568596,987,2079488,427511663,13784,UNSATISFIABLE,
minisat_spfs.sh+atco_enc1_opt2_10_14.cnf+8d281f7c,0,306.22,141912,44,4094,2245443,861,2897502,542162477,14249,UNSATISFIABLE,
minisat_spfs.sh+atco_enc1_opt2_10_15.cnf+8d3636fd,0,344.25,148364,44,4095,2347847,788,3001653,520313763,12064,UNSATISFIABLE,
minisat_spfs.sh+atco_enc1_opt2_10_16.cnf+8d444e7e,0,1207.78,214768,44,12286,7637303,1594,9903440,1511789594,24921,SATISFIABLE,
minisat_spfs.sh+atco_enc1_opt2_20_12.cnf+21505f7b,0,2103.08,828232,16,4095,2416567,0,3115096,1394766617,160,UNSATISFIABLE,
minisat_spfs.sh+atco_enc2_opt1_05_21.cnf+4e814e10,0,35.28,92912,17,445,164906,0,1060985,121369117,0,SATISFIABLE,
minisat_spfs.sh+atco_enc2_opt1_10_21.cnf+db5fdcb6,0,387.74,236828,36,4095,2401952,129,3359179,700903383,3871,SATISFIABLE,
minisat_spfs.sh+atco_enc2_opt1_15_100.cnf+3f5ac099,0,19.7,103236,35,158,52016,4,1064264,48153869,1017,SATISFIABLE,
minisat_spfs.sh+atco_enc2_opt1_20_11.cnf+6def7318,0,501.24,930192,11,1789,842423,0,1260661,847614447,20,UNSATISFIABLE,
minisat_spfs.sh+atco_enc2_opt2_05_4.cnf+7b0e605c,0,636.49,219456,170,2301,1213639,0,1849800,407760186,0,UNSATISFIABLE,
minisat_spfs.sh+atco_enc2_opt2_05_9.cnf+7b54d5e1,0,695.09,323404,170,3068,1564021,0,3074043,507366407,0,SATISFIABLE,
minisat_spfs.sh+atco_enc2_opt2_10_21.cnf+70448f77,0,3597.71,279720
minisat_spfs.sh+atco_enc2_opt2_20_11.cnf+2d425d9,0,509.0,605192,23,1820,853551,0,1171791,542370539,204,UNSATISFIABLE,
minisat_spfs.sh+atco_enc3_opt1_03_53.cnf+658b8b10,0,1581.22,522456,1,1023,493221,0,1222361,8407746326,0,SATISFIABLE,
minisat_spfs.sh+atco_enc3_opt1_04_50.cnf+cd42716c,0,545.66,657088,1,380,136655,0,1073864,3136567628,0,SATISFIABLE,
minisat_spfs.sh+atco_enc3_opt1_13_48.cnf+f86196f7,0,2743.01,752272,2,255,96349,7,1813498,2852158632,3843,SATISFIABLE,
minisat_spfs.sh+atco_enc3_opt2_05_21.cnf+c4f7deb0,0,1018.2,645272,1,766,332953,0,1130861,6124317295,0,SATISFIABLE,
minisat_spfs.sh+atco_enc3_opt2_10_12.cnf+502fac38,0,929.32,514296,1,684,286884,0,425115,5455019560,0,UNSATISFIABLE,
minisat_spfs.sh+atco_enc3_opt2_10_14.cnf+504bdb3a,0,1225.07,490612,1,781,336262,0,489426,6954885405,0,UNSATISFIABLE,
minisat_spfs.sh+atco_enc3_opt2_18_44.cnf+9473cc0f,0,717.28,529804,1,510,194320,0,866346,4418569167,0,SATISFIABLE,
minisat_spfs.sh+beempgsol2b1.cnf+338fdf64,0,3598.25,213016
minisat_spfs.sh+beempgsol5b1.cnf+d2429127,0,3596.47,214240
minisat_spfs.sh+bjrb07amba10andenv.cnf+d1d4750,0,2495.5,226152,7,3708,1912388,43801,3548727,4960120312,359111,UNSATISFIABLE,
minisat_spfs.sh+blocks-blocks-36-0.120-NOTKNOWN.cnf+cbf89a3f,0,0.0,1440,nosym
minisat_spfs.sh+blocks-blocks-36-0.130-NOTKNOWN.cnf+25d40480,0,0.0,1440,nosym
minisat_spfs.sh+blocks-blocks-37-1.130-NOTKNOWN.cnf+d207bcfe,0,0.0,1436,nosym
minisat_spfs.sh+bob12m02-opt.cnf+aca84b10,0,3597.33,432336
minisat_spfs.sh+bob12m02.cnf+3b89f12a,0,3597.59,365132
minisat_spfs.sh+bob12m04.cnf+3ba6202c,0,3.71,16406120
minisat_spfs.sh+bob12m09-opt.cnf+ba875417,0,321.01,96328,4,3386,1756755,0,2992753,1038305757,0,UNSATISFIABLE,
minisat_spfs.sh+bob12s02.cnf+78ef54b0,0,3596.69,396976
minisat_spfs.sh+bob12s09-opt.cnf+37e3849d,0,1303.78,155784,4,9059,5692311,0,8291467,4033644006,0,UNSATISFIABLE,
minisat_spfs.sh+bvadd_17322.cnf+c16b9682,0,0.0,1440,nosym
minisat_spfs.sh+bvadd_27079.cnf+bfe83362,0,0.0,1440,nosym
minisat_spfs.sh+bvadd_27966.cnf+9a212989,0,0.0,1440,nosym
minisat_spfs.sh+bvadd_29740.cnf+fc58ce81,0,0.0,1436,nosym
minisat_spfs.sh+bvashr_0710.cnf+48c614dc,0,0.0,1440,nosym
minisat_spfs.sh+bvslt_13916.cnf+aede980b,0,0.0,1440,nosym
minisat_spfs.sh+bvslt_19860.cnf+f1731819,0,0.0,1440,nosym
minisat_spfs.sh+bvsub_06991.cnf+2cc83ddf,0,0.0,1440,nosym
minisat_spfs.sh+bvult_16967.cnf+cc1e7e46,0,0.0,1440,nosym
minisat_spfs.sh+c10bi_i.cnf+3f5f313c,0,175.02,209476,3,1530,695212,443,3195612,367777145,27265,UNSATISFIABLE,
minisat_spfs.sh+ccp-s10-facto1.cnf+d97a9b9,0,15.94,13672,47,965,399042,20981,584211,8126156,135997,UNSATISFIABLE,
minisat_spfs.sh+ccp-s10-facto2.cnf+da5c13a,0,3597.4,120004
minisat_spfs.sh+ccp-s10-facto3.cnf+db3d8bb,0,3598.02,82780
minisat_spfs.sh+ccp-s10-facto4.cnf+dc1f03c,0,3598.16,66112
minisat_spfs.sh+ccp-s5-facto2.cnf+3738c1c4,0,0.02,1460,17,10,1431,64,3015,27687,708,UNSATISFIABLE,
minisat_spfs.sh+ccp-s5-facto3.cnf+3746d945,0,0.25,1612,22,30,5680,256,26730,152521,1610,UNSATISFIABLE,
minisat_spfs.sh+ccp-s5-facto4.cnf+3754f0c6,0,3.21,3188,27,109,29883,320,199613,1016137,5291,UNSATISFIABLE,
minisat_spfs.sh+ccp-s6-facto2.cnf+3eea6723,0,4.04,3008,23,397,150554,2195,317708,3789499,11958,UNSATISFIABLE,
minisat_spfs.sh+ccp-s6-facto3.cnf+3ef87ea4,0,7.44,4232,29,253,81495,998,393333,2577370,6068,UNSATISFIABLE,
minisat_spfs.sh+ccp-s6-facto4.cnf+3f069625,0,54.41,8060,35,491,177676,1668,1704530,8205807,8715,UNSATISFIABLE,
minisat_spfs.sh+ccp-s7-facto2.cnf+469c0c82,0,347.66,25180,29,13308,8226363,67256,17807470,237289946,282483,UNSATISFIABLE,
minisat_spfs.sh+ccp-s7-facto3.cnf+46aa2403,0,1287.58,56348,37,12088,7315380,50067,40023426,278463745,242611,UNSATISFIABLE,
minisat_spfs.sh+ccp-s7-facto4.cnf+46b83b84,0,3598.8,76312
minisat_spfs.sh+ccp-s8-facto1.cnf+4e3f9a60,0,0.56,2084,30,103,28629,1482,43647,450415,13141,UNSATISFIABLE,
minisat_spfs.sh+ccp-s8-facto2.cnf+4e4db1e1,0,3598.69,85564
minisat_spfs.sh+ccp-s8-facto3.cnf+4e5bc962,0,3598.21,88500
minisat_spfs.sh+ccp-s8-facto4.cnf+4e69e0e3,0,3598.47,98300
minisat_spfs.sh+ccp-s9-facto1.cnf+55f13fbf,0,1.44,4204,38,186,58076,2700,85576,1064257,19487,UNSATISFIABLE,
minisat_spfs.sh+ccp-s9-facto2.cnf+55ff5740,0,3597.81,94900
minisat_spfs.sh+ccp-s9-facto3.cnf+560d6ec1,0,3597.81,126280
minisat_spfs.sh+ccp-s9-facto4.cnf+561b8642,0,3599.11,58624
minisat_spfs.sh+chnl-005x006.shuffled.cnf+ce1ad727,0,0.0,1460,65,1,13,7,23,178,29,UNSATISFIABLE,
minisat_spfs.sh+chnl-010x011.shuffled.cnf+b5724873,0,0.02,1924,235,3,375,107,670,7092,663,UNSATISFIABLE,
minisat_spfs.sh+chnl-015x017.shuffled.cnf+d77e6cc8,0,0.31,7340,538,8,1283,379,3009,50386,3300,UNSATISFIABLE,
minisat_spfs.sh+chnl-020x021.shuffled.cnf+dcf81475,0,2.66,20400,876,22,4176,2270,15202,183103,24032,UNSATISFIABLE,
minisat_spfs.sh+chnl-025x050.shuffled.cnf+df85f434,0,41.88,219496,3146,30,6213,3458,33748,779190,88715,UNSATISFIABLE,
minisat_spfs.sh+chnl-030x031.shuffled.cnf+47de077,0,357.38,171744,1915,254,86170,48930,351777,4772514,497657,UNSATISFIABLE,
minisat_spfs.sh+chnl-040x041.shuffled.cnf+2c03ac79,0,3598.12,597584
minisat_spfs.sh+chnl-045x050.shuffled.cnf+7adab7b6,0,3597.84,936708
minisat_spfs.sh+chnl-050x060.shuffled.cnf+cb87191d,0,3595.2,1676604
minisat_spfs.sh+chnl-050x070.shuffled.cnf+2562835e,0,3596.36,2182436
minisat_spfs.sh+chnl10_11.cnf+ea0eaaac,0,0.0,1460,236,1,35,24,75,1298,141,UNSATISFIABLE,
minisat_spfs.sh+chnl10_12.cnf+ea1cc22d,0,0.0,1564,258,1,38,23,80,1436,178,UNSATISFIABLE,
minisat_spfs.sh+chnl10_13.cnf+ea2ad9ae,0,0.0,1716,282,1,38,23,80,1558,175,UNSATISFIABLE,
minisat_spfs.sh+chnl11_12.cnf+51fdef0c,0,0.0,1752,282,1,61,38,99,1902,200,UNSATISFIABLE,
minisat_spfs.sh+chnl11_13.cnf+520c068d,0,0.0,1980,306,1,58,38,99,2073,200,UNSATISFIABLE,
minisat_spfs.sh+chnl11_20.cnf+539698a9,0,0.01,3836,530,1,59,44,97,3234,239,UNSATISFIABLE,
minisat_spfs.sh+color-11-3.sat05-445.reshuffled-07.cnf+69a12338,0,3596.76,86412
minisat_spfs.sh+color-18-4.sat05-443.reshuffled-07.cnf+89f9bdfe,0,3596.68,379764
minisat_spfs.sh+complete-300-0.1-18-98765432130018.cnf+19e365b4,0,0.0,1440,nosym
minisat_spfs.sh+complete-300-0.1-4-9876543213004.cnf+f896fe86,0,0.0,1436,nosym
minisat_spfs.sh+complete-300-0.1-7-9876543213007.cnf+61c06a4c,0,0.0,1440,nosym
minisat_spfs.sh+complete-300-0.1-8-9876543213008.cnf+2f78e38e,0,0.0,1440,nosym
minisat_spfs.sh+complete-400-0.1-12-98765432140012.cnf+695825f6,0,0.0,1436,nosym
minisat_spfs.sh+complete-400-0.1-16-98765432140016.cnf+817dd76,0,0.0,1440,nosym
minisat_spfs.sh+complete-400-0.1-3-9876543214003.cnf+cc10c2e4,0,0.0,1440,nosym
minisat_spfs.sh+complete-400-0.1-7-9876543214007.cnf+2f2a7ec,0,0.0,1440,nosym
minisat_spfs.sh+complete-500-0.1-1-9876543215001.cnf+d1d20e00,0,0.0,1440,nosym
minisat_spfs.sh+complete-500-0.1-15-98765432150015.cnf+ddfc4318,0,0.0,1436,nosym
minisat_spfs.sh+complete-500-0.1-17-98765432150017.cnf+ad5c1ed8,0,0.0,1440,nosym
minisat_spfs.sh+complete-500-0.1-7-9876543215007.cnf+a424e58c,0,0.0,1436,nosym
minisat_spfs.sh+complete-500-0.1-8-9876543215008.cnf+71dd5ece,0,0.0,1436,nosym
minisat_spfs.sh+connm-ue-csp-sat-n1200-d0.02-s1099787414.sat05-542.reshuffled-07.cnf+d5f5f725,0,0.0,1444,nosym
minisat_spfs.sh+contest02-ezfact64_10.sat05-449.reshuffled-07.cnf+a181be60,0,0.0,1440,nosym
minisat_spfs.sh+countbitssrl032.cnf+f12e2460,0,0.0,1440,nosym
minisat_spfs.sh+counting-clqcolor-unsat-set-b-clqcolor-08-06-07.sat05-1257.reshuffled-07.cnf+bb29e789,0,0.02,1460,43,7,1097,209,1741,26890,1653,UNSATISFIABLE,
minisat_spfs.sh+crafted_n10_d6_c2_num13.cnf+dfb77a5a,0,887.68,284560,30,187,58450,669,537321,96566574,76928,UNSATISFIABLE,
minisat_spfs.sh+crafted_n10_d6_c2_num16.cnf+dfe1c0dd,0,773.83,274268,30,147,48675,1573,554488,90873171,71668,UNSATISFIABLE,
minisat_spfs.sh+crafted_n10_d6_c2_num17.cnf+dfefd85e,0,821.85,237312,32,112,30885,1108,581031,57160338,85259,UNSATISFIABLE,
minisat_spfs.sh+crafted_n10_d6_c2_num2.cnf+7441174,0,1552.34,375192,31,255,97461,202,701593,168936798,69506,UNSATISFIABLE,
minisat_spfs.sh+crafted_n10_d6_c2_num4.cnf+7604076,0,2191.18,445076,29,509,190439,1453,878596,391705124,75624,UNSATISFIABLE,
minisat_spfs.sh+crafted_n10_d6_c2_num5.cnf+76e57f7,0,1128.48,368420,29,255,98030,3307,672882,184217629,129702,UNSATISFIABLE,
minisat_spfs.sh+crafted_n10_d6_c2_num6.cnf+77c6f78,0,729.94,262964,32,133,45683,1089,499129,85541337,86207,UNSATISFIABLE,
minisat_spfs.sh+crafted_n10_d6_c2_num9.cnf+7a6b5fb,0,1133.48,373936,19,316,116929,756,897760,242596533,47369,UNSATISFIABLE,
minisat_spfs.sh+crafted_n10_d6_c3_num1.cnf+fb7f6b12,0,3598.46,1116504
minisat_spfs.sh+crafted_n10_d6_c3_num18.cnf+74e2a2a0,0,3598.74,1519344
minisat_spfs.sh+crafted_n10_d6_c3_num5.cnf+fbb7c916,0,1842.8,874628,15,509,190609,5755,1951528,440039483,84617,UNSATISFIABLE,
minisat_spfs.sh+crafted_n10_d6_c4_num3.cnf+efe50b33,0,3598.53,1585656
minisat_spfs.sh+crafted_n10_d6_c4_num8.cnf+f02b80b8,0,3009.26,1957476,10,893,372881,9062,2961010,1051430451,87952,UNSATISFIABLE,
minisat_spfs.sh+crafted_n10_d6_c4_num9.cnf+f0399839,0,3598.37,1821412
minisat_spfs.sh+crafted_n11_d6_c3_num17.cnf+c57e6920,0,3598.86,1353796
minisat_spfs.sh+crafted_n11_d6_c4_num1.cnf+d15aba10,0,3597.73,1925516
minisat_spfs.sh+crafted_n11_d6_c4_num18.cnf+5a713362,0,3598.52,2036472
minisat_spfs.sh+crafted_n11_d6_c4_num19.cnf+5a7f4ae3,0,3597.59,2181316
minisat_spfs.sh+crafted_n11_d6_c4_num21.cnf+5bc3677a,0,3596.98,2001684
minisat_spfs.sh+crafted_n12_d5_c4_num6.cnf+c4b006f3,0,829.42,700456,13,444,162785,4055,2243273,188304873,93812,UNSATISFIABLE,
minisat_spfs.sh+crafted_n12_d6_c3_num10.cnf+15c5a29a,0,3597.22,1717908
minisat_spfs.sh+crafted_n12_d6_c3_num16.cnf+161a2fa0,0,3598.59,1455484
minisat_spfs.sh+crafted_n12_d6_c4_num11.cnf+aab86cdc,0,3597.44,3120800
minisat_spfs.sh+crafted_n12_d6_c4_num18.cnf+ab1b1163,0,3597.84,3238360
minisat_spfs.sh+crafted_n12_d6_c4_num20.cnf+ac5f2dfa,0,3598.23,2495908
minisat_spfs.sh+crafted_n12_d6_c4_num22.cnf+ac7b5cfc,0,3597.91,3140948
minisat_spfs.sh+crafted_n12_d6_c4_num23.cnf+ac89747d,0,3597.67,3092856
minisat_spfs.sh+crafted_n12_d6_c4_num4.cnf+b316de72,0,3598.52,2897272
minisat_spfs.sh+crafted_n12_d6_c4_num6.cnf+b3330d74,0,3597.49,2934004
minisat_spfs.sh+crafted_n12_d6_c4_num9.cnf+b35d53f7,0,3596.66,3847824
minisat_spfs.sh+crn_20_361_s.cnf+c68c7a34,0,0.0,1436,nosym
minisat_spfs.sh+ctl_3082_415_unsat_pre.cnf+e9d0ef81,0,0.0,1440,nosym
minisat_spfs.sh+ctl_3791_556_unsat_pre.cnf+6932c61a,0,3598.17,358156
minisat_spfs.sh+ctl_4291_567_5_unsat_pre.cnf+bd07d14a,0,3597.65,284048
minisat_spfs.sh+dated-10-11-u.cnf+192b99a8,0,0.0,1440,nosym
minisat_spfs.sh+dated-10-13-u.cnf+82f8102a,0,0.0,1436,nosym
minisat_spfs.sh+dated-10-17-u.cnf+5690fd2e,0,0.0,1436,nosym
minisat_spfs.sh+dated-5-13-u.cnf+c8e893aa,0,0.0,1436,nosym
minisat_spfs.sh+david.col.11.cnf+72352577,0,0.52,3968,93,66,19641,682,26424,1056871,4735,UNSATISFIABLE,
minisat_spfs.sh+dimacs.cnf+6bf2445a,0,0.0,1440,nosym
minisat_spfs.sh+edges-024-4-10183999-1-00.cnf+40820239,0,0.0,1440,nosym
minisat_spfs.sh+edges-024-4-1208111-1-00.cnf+79f694bf,0,0.0,1436,nosym
minisat_spfs.sh+edges-024-4-5613555-1-00.cnf+e4798355,0,0.0,1440,nosym
minisat_spfs.sh+edges-024-4-5667555-1-00.cnf+7da8d74,0,0.0,1440,nosym
minisat_spfs.sh+edges-024-4-7787777-1-00.cnf+a54d92f,0,0.0,1440,nosym
minisat_spfs.sh+edges-024-4-7880777-1-00.cnf+de9b15e9,0,0.0,1440,nosym
minisat_spfs.sh+edges-025-4-10062999-1-00.cnf+4100f3ba,0,0.0,1440,nosym
minisat_spfs.sh+edges-025-4-10106999-1-00.cnf+9b5be45,0,0.0,1436,nosym
minisat_spfs.sh+edges-025-4-10169999-1-00.cnf+20718b82,0,0.0,1436,nosym
minisat_spfs.sh+edges-025-4-1237111-1-00.cnf+18aec17a,0,0.0,1440,nosym
minisat_spfs.sh+edges-025-4-3369333-1-00.cnf+da0ce3d6,0,0.0,1440,nosym
minisat_spfs.sh+edges-025-4-5714555-1-00.cnf+1479ca76,0,0.0,1440,nosym
minisat_spfs.sh+edges-025-4-7780777-1-00.cnf+6c618207,0,0.0,1440,nosym
minisat_spfs.sh+edges-025-4-7932777-1-00.cnf+93c97370,0,0.0,1440,nosym
minisat_spfs.sh+edges-025-4-7957777-1-00.cnf+142733,0,0.0,1440,nosym
minisat_spfs.sh+edges-070-3-10037999-34.cnf+d700a97c,0,0.0,1436,nosym
minisat_spfs.sh+edges-070-3-10062999-36.cnf+5ba4ad6,0,0.0,1436,nosym
minisat_spfs.sh+edges-070-3-10122999-15.cnf+d1fef31c,0,0.0,1436,nosym
minisat_spfs.sh+edges-070-3-1226111-26.cnf+52728f0d,0,0.0,1440,nosym
minisat_spfs.sh+edges-070-3-1250111-33.cnf+edb5e0c0,0,0.0,1440,nosym
minisat_spfs.sh+edges-070-3-3470333-15.cnf+7b6b6380,0,0.0,1440,nosym
minisat_spfs.sh+edges-070-3-7857777-1.cnf+f3a729aa,0,0.0,1436,nosym
minisat_spfs.sh+edges-072-3-1124111-35.cnf+c4f0a866,0,0.0,1440,nosym
minisat_spfs.sh+edges-072-3-1131111-37.cnf+e106484,0,0.0,1440,nosym
minisat_spfs.sh+edges-072-3-1161111-15.cnf+219f7461,0,0.0,1440,nosym
minisat_spfs.sh+edges-072-3-5729555-15.cnf+8a43f66b,0,0.0,1440,nosym
minisat_spfs.sh+edges-072-3-5749555-14.cnf+999929a8,0,0.0,1436,nosym
minisat_spfs.sh+edges-072-3-7902777-18.cnf+ea69c927,0,0.0,1436,nosym
minisat_spfs.sh+edges-072-3-7923777-13.cnf+8e6b5121,0,0.0,1440,nosym
minisat_spfs.sh+edges-072-3-7925777-19.cnf+b88943a9,0,0.0,1440,nosym
minisat_spfs.sh+em_14_7_3_cmp.cnf+24dd1734,0,3598.62,348860
minisat_spfs.sh+em_7_3_6_cmp.cnf+2d6619c5,0,26.5,21656,22,766,321854,1617,1462760,42073308,24195,SATISFIABLE,
minisat_spfs.sh+em_7_4_8_cmp.cnf+ead3aa88,0,3597.96,97608
minisat_spfs.sh+em_7_4_8_fbc.cnf+7609dbe9,0,3598.7,140196
minisat_spfs.sh+em_7_4_9_all.cnf+135e6c64,0,6.56,21060,2,220,70528,11,198286,8108656,1618,SATISFIABLE,
minisat_spfs.sh+em_7_4_9_fbc.cnf+a4e4aea,0,0.65,5532,2,46,10565,25,40867,1462323,468,SATISFIABLE,
minisat_spfs.sh+esawn_uw3.debugged.cnf+da4aa776,0,0.0,1440,nosym
minisat_spfs.sh+ezfact64_3.sat05-450.reshuffled-07.cnf+3a0dfb4d,0,0.0,1440,nosym
minisat_spfs.sh+ezfact64_4.sat05-451.reshuffled-07.cnf+3108418f,0,0.0,1440,nosym
minisat_spfs.sh+ezfact64_5.sat05-452.reshuffled-07.cnf+280287d1,0,0.0,1440,nosym
minisat_spfs.sh+fpga10_11_uns_rcr.cnf+b27edee9,0,0.01,1904,234,3,376,113,659,8365,735,UNSATISFIABLE,
minisat_spfs.sh+fpga10_12_uns_rcr.cnf+a101e56a,0,0.02,2176,258,3,381,125,682,8128,953,UNSATISFIABLE,
minisat_spfs.sh+fpga10_13_uns_rcr.cnf+8f84ebeb,0,0.02,2404,282,3,385,126,758,9928,687,UNSATISFIABLE,
minisat_spfs.sh+fpga10_15_uns_rcr.cnf+6c8af8ed,0,0.03,2980,336,3,379,129,755,11904,876,UNSATISFIABLE,
minisat_spfs.sh+fpga10_20_uns_rcr.cnf+a5d9a207,0,0.06,5064,506,4,503,179,1094,18450,1758,UNSATISFIABLE,
minisat_spfs.sh+fpga10_8_sat.cnf+cfc8906d,0,0.0,1456,54,2,105,46,248,1765,303,SATISFIABLE,
minisat_spfs.sh+fpga10_9_sat.cnf+640cff6e,0,0.0,1464,68,2,165,82,340,2830,475,SATISFIABLE,
minisat_spfs.sh+fpga11_12_uns_rcr.cnf+8293c349,0,0.03,2516,282,5,542,189,1094,12086,1193,UNSATISFIABLE,
minisat_spfs.sh+fpga11_13_uns_rcr.cnf+7116c9ca,0,0.04,2764,306,4,510,191,963,12866,1346,UNSATISFIABLE,
minisat_spfs.sh+fpga11_14_uns_rcr.cnf+5f99d04b,0,0.06,3240,332,6,791,215,1515,21177,1786,UNSATISFIABLE,
minisat_spfs.sh+fpga11_15_uns_rcr.cnf+4e1cd6cc,0,0.05,3476,360,5,562,218,1188,14915,1392,UNSATISFIABLE,
minisat_spfs.sh+fpga11_20_uns_rcr.cnf+876b7fe6,0,0.15,7044,530,7,1052,349,2170,45079,3759,UNSATISFIABLE,
minisat_spfs.sh+fpga12_11_sat.cnf+644d80f1,0,0.02,1460,98,4,482,226,934,10592,1241,SATISFIABLE,
minisat_spfs.sh+fpga12_12_sat.cnf+f891eff2,0,0.01,1460,113,3,232,120,466,5479,797,SATISFIABLE,
minisat_spfs.sh+fpga12_8_sat.cnf+f991f5ef,0,0.0,1460,57,3,246,83,528,4389,482,SATISFIABLE,
minisat_spfs.sh+fpga12_9_sat.cnf+8dd664f0,0,0.0,1460,70,2,198,71,403,3746,470,SATISFIABLE,
minisat_spfs.sh+fpga13_10_sat.cnf+d7bab74f,0,0.0,1460,85,2,158,72,364,3141,379,SATISFIABLE,
minisat_spfs.sh+fpga13_12_sat.cnf+439551,0,0.01,1460,116,2,190,101,441,3874,626,SATISFIABLE,
minisat_spfs.sh+fpga13_9_sat.cnf+22bb17b1,0,0.01,1460,71,4,422,142,814,7100,896,SATISFIABLE,
minisat_spfs.sh+fpsol2.i.1.col.65.cnf+a832f71c,0,0.0,1468,nosym
minisat_spfs.sh+fpsol2.i.2.col.30.cnf+aa7f9d19,0,3596.53,6580008
minisat_spfs.sh+fpsol2.i.3.col.30.cnf+b2314278,0,3597.64,4238224
minisat_spfs.sh+frb45-21-1.used-as.sat04-883.cnf+e95ab982,0,0.0,1436,nosym
minisat_spfs.sh+frb80-14-2.used-as.sat04-880.cnf+af440d4d,0,0.0,1440,nosym
minisat_spfs.sh+fsf-300-354-2-2-3-2.58.opt.cnf+dea47170,0,0.0,1440,nosym
minisat_spfs.sh+fsf-300-354-2-2-3-2.89.opt.cnf+4fc533ce,0,0.0,1440,nosym
minisat_spfs.sh+fsf-300-354-2-2-3-2.94.opt.cnf+5eb879e8,0,0.0,1440,nosym
minisat_spfs.sh+fsf-300-354-2-2-3-2.95.opt.cnf+f2fce8e9,0,0.0,1436,nosym
minisat_spfs.sh+games120.col.9.cnf+7b753e9a,0,0.03,2128,32,3,325,46,783,7600,529,UNSATISFIABLE,
minisat_spfs.sh+grid-strips-grid-y-3.035-NOTKNOWN.cnf+66e3a93f,0,0.0,1440,nosym
minisat_spfs.sh+grid-strips-grid-y-3.055-NOTKNOWN.cnf+1a9a7dc1,0,0.0,1440,nosym
minisat_spfs.sh+grid-strips-grid-y-3.065-SAT.cnf+d28a4ece,0,0.0,1440,nosym
minisat_spfs.sh+grieu-vmpc-31.cnf+a20ca8eb,0,0.0,1440,nosym
minisat_spfs.sh+gripper02t6.cnf+acd0c568,0,0.0,1460,13,1,65,3,119,1706,58,UNSATISFIABLE,
minisat_spfs.sh+gripper02t7.cnf+3a99f7a2,0,0.0,1460,13,2,105,8,248,3936,86,SATISFIABLE,
minisat_spfs.sh+gripper04t14.cnf+b4be53a9,0,0.23,5444,57,13,1842,121,5019,270505,3461,UNSATISFIABLE,
minisat_spfs.sh+gripper04t15.cnf+de74a791,0,0.07,5484,57,3,218,9,1156,32215,511,SATISFIABLE,
minisat_spfs.sh+gripper06t22.cnf+86195704,0,7.75,36136,133,63,16723,1580,48272,3629819,55067,UNSATISFIABLE,
minisat_spfs.sh+gripper06t23.cnf+afcfaaec,0,2.52,22528,133,22,4197,244,17315,879815,13905,SATISFIABLE,
minisat_spfs.sh+gripper10t38.cnf+ad201e70,0,597.15,280200,381,382,147612,24869,519053,63082565,934128,UNSATISFIABLE,
minisat_spfs.sh+gripper10t39.cnf+d6d67258,0,344.84,246812,381,221,71275,9071,305460,31248165,368738,SATISFIABLE,
minisat_spfs.sh+gss-18-s100.cnf+59947847,0,0.0,1440,nosym
minisat_spfs.sh+gss-19-s100.cnf+4ddde966,0,0.0,1440,nosym
minisat_spfs.sh+gss-20-s100.cnf+4c2da210,0,0.0,1440,nosym
minisat_spfs.sh+gss-22-s100.cnf+34c0844e,0,0.0,1440,nosym
minisat_spfs.sh+gss-23-s100.cnf+2909f56d,0,0.0,1436,nosym
minisat_spfs.sh+gss-24-s100.cnf+1d53668c,0,0.0,1436,nosym
minisat_spfs.sh+gss-25-s100.cnf+119cd7ab,0,0.0,1440,nosym
minisat_spfs.sh+gus-md5-04.cnf+b6e200f,0,1.45,44712,1,3,250,2,2530,2111979,209,UNSATISFIABLE,
minisat_spfs.sh+gus-md5-05.cnf+b7c3790,0,5.13,44232,1,7,1021,3,2904,9174627,362,UNSATISFIABLE,
minisat_spfs.sh+gus-md5-06.cnf+b8a4f11,0,14.7,43968,1,17,3321,2,8495,29782343,432,UNSATISFIABLE,
minisat_spfs.sh+gus-md5-07.cnf+b986692,0,39.31,44904,1,31,7612,13,12137,78242698,520,UNSATISFIABLE,
minisat_spfs.sh+gus-md5-09.cnf+bb49594,0,298.77,88764,1,190,62952,38,78352,612569051,845,UNSATISFIABLE,
minisat_spfs.sh+gus-md5-10.cnf+cea9aaa,0,789.86,172012,1,510,200725,50,279393,1666662469,1551,UNSATISFIABLE,
minisat_spfs.sh+gus-md5-11.cnf+cf8b22b,0,2098.23,182652,1,1152,557725,150,703161,4198010728,3095,UNSATISFIABLE,
minisat_spfs.sh+gus-md5-12.cnf+d06c9ac,0,3598.31,214664
minisat_spfs.sh+gus-md5-14.cnf+d22f8ae,0,3597.75,279972
minisat_spfs.sh+gus-md5-15.cnf+d31102f,0,3598.48,258820
minisat_spfs.sh+gus-md5-16.cnf+d3f27b0,0,3598.54,294172
minisat_spfs.sh+hid-uns-enc-6-1-0-0-0-0-19851.cnf+88dabd1c,0,0.0,1436,nosym
minisat_spfs.sh+hid-uns-enc-6-1-0-0-0-0-26462.cnf+13a5a89c,0,0.0,1440,nosym
minisat_spfs.sh+hid-uns-enc-6-1-0-0-0-0-26808.cnf+dd560eec,0,0.0,1440,nosym
minisat_spfs.sh+hid-uns-enc-6-1-0-0-0-0-2907.cnf+3575d698,0,0.0,1440,nosym
minisat_spfs.sh+hid-uns-enc-6-1-0-0-0-0-31380.cnf+6eeb7e3d,0,0.0,1440,nosym
minisat_spfs.sh+hid-uns-enc-6-1-0-0-0-0-3191.cnf+52c3a00,0,0.0,1436,nosym
minisat_spfs.sh+hid-uns-enc-6-1-0-0-0-0-3251.cnf+333f12c5,0,0.0,1436,nosym
minisat_spfs.sh+hid-uns-enc-7-1-0-0-0-0-11545.cnf+b63b1f47,0,0.0,1436,nosym
minisat_spfs.sh+hid-uns-enc-7-1-0-0-0-0-3557.cnf+b9e827ed,0,0.0,1440,nosym
minisat_spfs.sh+hid-uns-enc-9-1-0-0-0-0-24642.cnf+d010f4a5,0,0.0,1436,nosym
minisat_spfs.sh+hitag2-10-60-0-0x0ffdbe60727f161-57.cnf+da7bc605,0,3598.7,86396
minisat_spfs.sh+hitag2-10-60-0-0x8edc44db7837bbf-65.cnf+9ad084fc,0,3598.76,83292
minisat_spfs.sh+hitag2-10-60-0-0xe14721bd199894a-99.cnf+ff520765,0,3598.8,84636
minisat_spfs.sh+hitag2-10-60-0-0xe6754daf48162bf-46.cnf+bbc868d,0,3598.75,90604
minisat_spfs.sh+hitag2-10-60-0-0xfee9637399d85a2-78.cnf+262be26f,0,3598.61,87708
minisat_spfs.sh+hitag2-7-60-0-0xe8fa35372ed37e2-80.cnf+27d85db6,0,3597.09,78752
minisat_spfs.sh+hitag2-8-60-0-0x1eb82244d7f1c3c-47.cnf+b9643de5,0,3598.78,86388
minisat_spfs.sh+hitag2-8-60-0-0xdcdbc8bf368ee73-37.cnf+34fa7b6,0,3596.83,79208
minisat_spfs.sh+hitag2-8-60-0-0xfba1a41b5dfd7f7-52.cnf+f16f50ff,0,3598.58,87804
minisat_spfs.sh+hole002.cnf+d184cb74,0,0.0,1460,4,0,0,0,0,1,0,UNSATISFIABLE,
minisat_spfs.sh+hole003.cnf+d192e2f5,0,0.0,1460,11,0,0,0,0,1,0,UNSATISFIABLE,
minisat_spfs.sh+hole004.cnf+d1a0fa76,0,0.0,1460,19,1,7,1,8,66,12,UNSATISFIABLE,
minisat_spfs.sh+hole005.cnf+d1af11f7,0,0.0,1460,29,1,11,3,14,177,31,UNSATISFIABLE,
minisat_spfs.sh+hole006.cnf+d1bd2978,0,0.0,1460,41,1,18,8,26,339,66,UNSATISFIABLE,
minisat_spfs.sh+hole007.cnf+d1cb40f9,0,0.0,1460,55,1,22,9,36,479,77,UNSATISFIABLE,
minisat_spfs.sh+hole008.cnf+d1d9587a,0,0.0,1460,71,1,30,15,58,757,110,UNSATISFIABLE,
minisat_spfs.sh+hole009.cnf+d1e76ffb,0,0.0,1460,89,1,44,22,87,1196,188,UNSATISFIABLE,
minisat_spfs.sh+hole010.cnf+d31d7511,0,0.0,1460,109,1,53,27,117,1618,231,UNSATISFIABLE,
minisat_spfs.sh+hole010_shuffled.cnf+213f2051,0,0.02,1464,109,6,692,266,1184,12965,1473,UNSATISFIABLE,
minisat_spfs.sh+hole011.cnf+d32b8c92,0,0.0,1460,131,1,77,48,160,2417,258,UNSATISFIABLE,
minisat_spfs.sh+hole011_shuffled.cnf+31ce9f0,0,0.03,1460,131,5,592,198,1057,14888,1456,UNSATISFIABLE,
minisat_spfs.sh+hole012.cnf+d339a413,0,0.0,1460,155,1,86,15,99,2719,288,UNSATISFIABLE,
minisat_spfs.sh+hole012_shuffled.cnf+e4fab38f,0,0.05,3096,154,7,814,309,1692,22894,2537,UNSATISFIABLE,
minisat_spfs.sh+hole013.cnf+d347bb94,0,0.01,1460,181,2,168,78,222,4770,665,UNSATISFIABLE,
minisat_spfs.sh+hole013_shuffled.cnf+c6d87d2e,0,0.1,1744,181,7,1098,455,2262,34341,3703,UNSATISFIABLE,
minisat_spfs.sh+hole014.cnf+d355d315,0,0.0,1536,208,1,77,12,103,3252,383,UNSATISFIABLE,
minisat_spfs.sh+hole014_shuffled.cnf+a8b646cd,0,0.07,2020,209,5,550,224,1282,18280,2644,UNSATISFIABLE,
minisat_spfs.sh+hole015.cnf+d363ea96,0,0.01,1744,239,1,90,23,122,2958,345,UNSATISFIABLE,
minisat_spfs.sh+hole015_shuffled.cnf+8a94106c,0,0.3,2576,238,13,2009,771,4466,67046,4967,UNSATISFIABLE,
minisat_spfs.sh+hole016_shuffled.cnf+6c71da0b,0,0.21,3064,271,7,1143,344,2497,44782,3040,UNSATISFIABLE,
minisat_spfs.sh+hole017_shuffled.cnf+4e4fa3aa,0,0.24,3576,305,7,1078,416,2883,39345,4456,UNSATISFIABLE,
minisat_spfs.sh+hole018_shuffled.cnf+302d6d49,0,0.35,4444,341,7,1216,528,3154,55614,7126,UNSATISFIABLE,
minisat_spfs.sh+hole019_shuffled.cnf+120b36e8,0,0.56,5108,379,10,1509,595,4884,66228,6668,UNSATISFIABLE,
minisat_spfs.sh+hole020.cnf+d4d24db0,0,0.33,5624,419,6,805,369,2546,36031,6093,UNSATISFIABLE,
minisat_spfs.sh+hole020_shuffled.cnf+7b1a8a92,0,3.33,7876,419,31,7663,3114,20857,336931,25863,UNSATISFIABLE,
minisat_spfs.sh+hole030.cnf+d687264f,0,0.09,14688,929,1,31,27,436,2756,462,UNSATISFIABLE,
minisat_spfs.sh+hole030_shuffled.cnf+d4f5f4d3,0,112.91,75304,929,126,36500,19495,164041,2064890,251317,UNSATISFIABLE,
minisat_spfs.sh+homer.col.13.cnf+a377761a,0,0.06,249152,3354,0,0,0,0,20,0,UNSATISFIABLE,
minisat_spfs.sh+huck.col.11.cnf+b148acd2,0,0.09,3632,195,15,3018,869,4418,77769,3601,UNSATISFIABLE,
minisat_spfs.sh+hwmcc10-timeframe-expansion-k45-pdtpmsgoodbakery-tseitin.cnf+65475959,0,647.39,219032,45,3961,2009548,0,4096024,1916852760,0,UNSATISFIABLE,
minisat_spfs.sh+hwmcc10-timeframe-expansion-k45-pdtvisns3p02-tseitin.cnf+204cbd2a,0,3598.0,363512
minisat_spfs.sh+hwmcc10-timeframe-expansion-k50-pdtpmsns2-tseitin.cnf+889d15d7,0,3443.37,483200,2,12286,7634275,0,17133875,6291566619,0,UNSATISFIABLE,
minisat_spfs.sh+hwmcc10-timeframe-expansion-k50-pdtvisns3p00-tseitin.cnf+7359214e,0,3598.42,467656
minisat_spfs.sh+inithx.i.1.col.54.cnf+366406c8,0,0.0,1472,nosym
minisat_spfs.sh+inithx.i.2.col.31.cnf+3a81b466,0,1.92,8238692
minisat_spfs.sh+inithx.i.3.col.31.cnf+423359c5,0,3596.46,8021608
minisat_spfs.sh+instance_n8_i8_pp_ci_ce.cnf+5b6b4488,0,16.86,54312,7,413,154797,0,475468,58390342,0,SATISFIABLE,
minisat_spfs.sh+instance_n8_i9_pp.cnf+21ec74cb,0,99.48,141288,7,1020,421744,0,1151490,161907841,0,SATISFIABLE,
minisat_spfs.sh+itox_vc1130.cnf+e48a55fe,0,3.46,16421252
minisat_spfs.sh+jean.col.10.cnf+8123b2fe,0,0.17,3480,242,45,10152,247,13350,247638,1944,UNSATISFIABLE,
minisat_spfs.sh+jkkk-one-one-10-34-sat.cnf+5c993821,0,0.0,1440,nosym
minisat_spfs.sh+jkkk-random-132906006148277-10-10-34-SUM-sat.cnf+b0c6b6b2,0,0.0,1440,nosym
minisat_spfs.sh+jkkk-random-132906006427000-10-10-35-OR-sat.cnf+155c2c1,0,0.0,1440,nosym
minisat_spfs.sh+jkkk-random-132906006427000-10-10-36-SUM-sat.cnf+4d699da,0,0.0,1440,nosym
minisat_spfs.sh+jkkk-random-132906006493326-10-10-35-OR-sat.cnf+e5d7a453,0,0.0,1444,nosym
minisat_spfs.sh+k2fix_gr_rcs_w9.shuffled.cnf+91c6ce48,0,42.75,94596,337,127,44454,106,99939,19963549,13268,UNSATISFIABLE,
minisat_spfs.sh+korf-17.cnf+32421784,0,0.0,1440,nosym
minisat_spfs.sh+korf-18.cnf+32502f05,0,0.0,1440,nosym
minisat_spfs.sh+le450_15a.col.15.cnf+1213983b,0,1.43,23332,91,6,802,210,4276,120440,1931,UNSATISFIABLE,
minisat_spfs.sh+le450_15b.col.15.cnf+19c53d9a,0,2.24,23380,91,15,3015,609,8351,420222,5025,UNSATISFIABLE,
minisat_spfs.sh+le450_15c.col.15.cnf+2176e2f9,0,7.84,33628,91,53,12453,2608,30461,2924635,13488,UNSATISFIABLE,
minisat_spfs.sh+le450_15d.col.15.cnf+29288858,0,2.51,33848,91,15,2964,609,9520,622790,4814,UNSATISFIABLE,
minisat_spfs.sh+le450_25a.col.25.cnf+f5a63a79,0,3598.27,665268
minisat_spfs.sh+le450_25b.col.25.cnf+fd57dfd8,0,2973.53,667156,276,3070,1621265,311105,5097523,198702536,1465102,UNSATISFIABLE,
minisat_spfs.sh+le450_25c.col.25.cnf+5098537,0,3598.45,1062584
minisat_spfs.sh+le450_25d.col.25.cnf+cbb2a96,0,1551.33,871228,276,1023,493404,95491,1922205,109045221,459514,UNSATISFIABLE,
minisat_spfs.sh+le450_5a.col.5.cnf+d779fdfd,0,0.02,3544,6,1,20,1,32,1295,78,UNSATISFIABLE,
minisat_spfs.sh+le450_5b.col.5.cnf+6c5eb0be,0,0.02,3548,6,1,57,1,90,5521,115,UNSATISFIABLE,
minisat_spfs.sh+le450_5c.col.5.cnf+143637f,0,0.05,6076,6,1,32,3,52,2857,77,UNSATISFIABLE,
minisat_spfs.sh+le450_5d.col.5.cnf+96281640,0,0.05,7024,6,1,22,1,31,1954,90,UNSATISFIABLE,
minisat_spfs.sh+log-pairs-05t5.cnf+3e79a177,0,0.36,19204,119,1,26,0,1435,10508,136,SATISFIABLE,
minisat_spfs.sh+log-pairs-07t5.cnf+a84617f9,0,3.14,76392,230,2,118,0,5511,42251,154,SATISFIABLE,
minisat_spfs.sh+log-pairs-09t5.cnf+12128e7b,0,14.03,224204,377,2,112,0,15975,150487,462,SATISFIABLE,
minisat_spfs.sh+log-pairs-11t5.cnf+d2c1e152,0,30.95,543816,551,2,152,0,8495,259268,1714,SATISFIABLE,
minisat_spfs.sh+log-rotate-06t6.cnf+654f0af0,0,0.37,21856,142,7,875,8,1777,92088,873,UNSATISFIABLE,
minisat_spfs.sh+log-rotate-06t6.cnf+945f02a9,0,0.38,21984,142,7,875,8,1777,92088,873,UNSATISFIABLE,
minisat_spfs.sh+log-rotate-07t6.cnf+c9453dea,0,1.26,40576,196,30,6016,5,9850,791019,1168,UNSATISFIABLE,
minisat_spfs.sh+log-rotate-08t6.cnf+cf1b8172,0,2.03,61316,238,21,3940,5,8696,661690,1298,UNSATISFIABLE,
minisat_spfs.sh+log-rotate-08t6.cnf+fe2b792b,0,2.07,60308,238,21,3940,5,8696,661690,1298,UNSATISFIABLE,
minisat_spfs.sh+log-rotate-09t6.cnf+3311b46c,0,3.73,105444,325,3,269,39,2497,82622,317,UNSATISFIABLE,
minisat_spfs.sh+log-rotate-09t6.cnf+401bcb3,0,3.73,105172,325,3,269,39,2497,82622,317,UNSATISFIABLE,
minisat_spfs.sh+log-rotate-11t6.cnf+c4b10f8a,0,631.74,387048,474,1020,421624,70,661415,387182958,29496,UNSATISFIABLE,
minisat_spfs.sh+logistics.a.cnf+6c5fe72f,0,0.0,1460,2,1,70,0,575,3371,7,SATISFIABLE,
minisat_spfs.sh+logistics.b.cnf+6c6dfeb0,0,0.0,1912,49,1,44,0,321,2365,12,SATISFIABLE,
minisat_spfs.sh+logistics.c.cnf+6c7c1631,0,0.01,3612,3,4,405,0,2296,22348,27,SATISFIABLE,
minisat_spfs.sh+logistics.d.cnf+6c8a2db2,0,0.03,5472,1,1,47,1,899,28195,290,SATISFIABLE,
minisat_spfs.sh+manol-pipe-c10nid_i.cnf+b6f4a663,0,296.44,334904,2,1955,900338,335,4640744,514401139,18051,UNSATISFIABLE,
minisat_spfs.sh+manol-pipe-c10nidw.cnf+ac4850d8,0,533.43,393108,2,2173,1164546,456,6386630,770796612,33645,UNSATISFIABLE,
minisat_spfs.sh+manol-pipe-c10nidw_s.cnf+fd9540c,0,78.45,279204,2,1403,651501,95,1250739,123507096,14283,UNSATISFIABLE,
minisat_spfs.sh+manol-pipe-c8nidw.cnf+3c5eb4b5,0,144.03,219560,1,1243,582960,111,3076653,297156441,10881,UNSATISFIABLE,
minisat_spfs.sh+manol-pipe-g10bid_i.cnf+e28607d3,0,346.6,349240,3,2009,916081,488,5133995,512817350,29647,UNSATISFIABLE,
minisat_spfs.sh+maxxor032.cnf+f32d7741,0,0.0,1440,nosym
minisat_spfs.sh+miles1000.col.42.cnf+3568b84c,0,3597.62,886188
minisat_spfs.sh+miles1500.col.73.cnf+a3ea49c5,0,3598.06,856812
minisat_spfs.sh+miles250.col.8.cnf+c0277c9a,0,0.02,3216,211,9,1340,42,2088,33436,630,UNSATISFIABLE,
minisat_spfs.sh+miles500.col.20.cnf+37992eae,0,3598.13,238956
minisat_spfs.sh+miles750.col.31.cnf+a5a6d291,0,3597.17,549552
minisat_spfs.sh+minandmaxor128.cnf+64143326,0,0.0,1440,nosym
minisat_spfs.sh+minxor128.cnf+93519657,0,0.0,1436,nosym
minisat_spfs.sh+minxorminand064.cnf+1af3eb69,0,0.0,1440,nosym
minisat_spfs.sh+mod2-rand3bip-sat-230-2.sat05-2189.reshuffled-07.cnf+36ee3f33,0,0.0,1444,nosym
minisat_spfs.sh+mod2-rand3bip-sat-230-2.sat05-2189.reshuffled-07.cnf+be1faf7e,0,0.0,1440,nosym
minisat_spfs.sh+mod2-rand3bip-sat-270-1.sat05-2248.reshuffled-07.cnf+ce07bddc,0,0.0,1440,nosym
minisat_spfs.sh+mod2-rand3bip-sat-270-1.shuffled-as.sat05-2248.cnf+50a8400e,0,0.0,1440,nosym
minisat_spfs.sh+mod2-rand3bip-sat-270-2.sat05-2249.reshuffled-07.cnf+9c5ecb3c,0,0.0,1444,nosym
minisat_spfs.sh+mod2-rand3bip-sat-280-1.sat05-2263.reshuffled-07.cnf+16cf3dd6,0,0.0,1444,nosym
minisat_spfs.sh+mod2c-rand3bip-sat-240-3.shuffled-as.sat05-2520.cnf+5bc74dd2,0,2818.44,19420,99,147453,121958467,41239,136410301,6983242407,173644,SATISFIABLE,
minisat_spfs.sh+mod2c-rand3bip-sat-240-3.shuffled-as.sat05-2520.cnf+a1bd737d,0,2813.19,19420,99,147453,121958467,41239,136410301,6983242407,173644,SATISFIABLE,
minisat_spfs.sh+mod2c-rand3bip-sat-250-1.shuffled-as.sat05-2533.cnf+d6e34c22,0,1673.99,17676,99,95482,72350104,18037,80324856,4417513175,66345,SATISFIABLE,
minisat_spfs.sh+mod2c-rand3bip-sat-250-3.shuffled-as.sat05-2535.cnf+b8a189e2,0,3598.73,17836
minisat_spfs.sh+mrpp_4x4#4_24.cnf+3764e721,0,0.0,1440,nosym
minisat_spfs.sh+mrpp_4x4#6_12.cnf+556393e,0,0.0,1436,nosym
minisat_spfs.sh+mrpp_4x4#6_20.cnf+6eee2db,0,0.0,1440,nosym
minisat_spfs.sh+mrpp_4x4#6_6.cnf+9d58b873,0,0.0,1440,nosym
minisat_spfs.sh+mrpp_4x4#8_12.cnf+d51892fc,0,0.0,1440,nosym
minisat_spfs.sh+mrpp_4x4#8_16.cnf+d550f100,0,0.0,1436,nosym
minisat_spfs.sh+mrpp_4x4#8_24.cnf+d6e99a9d,0,0.0,1436,nosym
minisat_spfs.sh+mrpp_4x4#8_7.cnf+7334676,0,0.0,1440,nosym
minisat_spfs.sh+mrpp_6x6#10_10.cnf+3440b589,0,0.0,1440,nosym
minisat_spfs.sh+mrpp_6x6#10_12.cnf+345ce48b,0,0.0,1440,nosym
minisat_spfs.sh+mrpp_6x6#10_20.cnf+35f58e28,0,0.0,1436,nosym
minisat_spfs.sh+mrpp_6x6#12_20.cnf+5b7e7e6,0,0.0,1440,nosym
minisat_spfs.sh+mrpp_6x6#12_9.cnf+f84fac8b,0,0.0,1436,nosym
minisat_spfs.sh+mrpp_6x6#14_12.cnf+d3e19807,0,0.0,1440,nosym
minisat_spfs.sh+mrpp_6x6#16_16.cnf+a3dc4fc9,0,0.0,1436,nosym
minisat_spfs.sh+mrpp_6x6#18_12.cnf+73664b83,0,0.0,1440,nosym
minisat_spfs.sh+mrpp_8x8#10_9.cnf+86796305,0,0.0,1440,nosym
minisat_spfs.sh+mrpp_8x8#16_10.cnf+aa573547,0,0.0,1440,nosym
minisat_spfs.sh+mrpp_8x8#16_11.cnf+aa654cc8,0,0.0,1436,nosym
minisat_spfs.sh+mrpp_8x8#16_12.cnf+aa736449,0,0.0,1436,nosym
minisat_spfs.sh+mrpp_8x8#16_16.cnf+aaabc24d,0,0.0,1440,nosym
minisat_spfs.sh+mrpp_8x8#18_14.cnf+7a51ed09,0,0.0,1436,nosym
minisat_spfs.sh+mrpp_8x8#20_24.cnf+d141cdb1,0,0.0,1440,nosym
minisat_spfs.sh+mrpp_8x8#22_11.cnf+9f25084d,0,0.0,1440,nosym
minisat_spfs.sh+mrpp_8x8#22_20.cnf+a0cbc96b,0,0.0,1440,nosym
minisat_spfs.sh+mrpp_8x8#22_24.cnf+a104276f,0,0.0,1440,nosym
minisat_spfs.sh+mrpp_8x8#24_11.cnf+6ee7620b,0,0.0,1440,nosym
minisat_spfs.sh+mrpp_8x8#24_12.cnf+6ef5798c,0,0.0,1436,nosym
minisat_spfs.sh+mrpp_8x8#24_14.cnf+6f11a88e,0,0.0,1440,nosym
minisat_spfs.sh+mrpp_8x8#24_20.cnf+708e2329,0,0.0,1440,nosym
minisat_spfs.sh+mulsol.i.1.col.49.cnf+3024502,0,1.87,8239356
minisat_spfs.sh+mulsol.i.2.col.31.cnf+88e55ba,0,3598.04,1215224
minisat_spfs.sh+mulsol.i.3.col.31.cnf+103ffb19,0,3597.59,1012264
minisat_spfs.sh+mulsol.i.4.col.31.cnf+17f1a078,0,3597.34,1200436
minisat_spfs.sh+mulsol.i.5.col.31.cnf+1fa345d7,0,3597.05,1027444
minisat_spfs.sh+myciel3.col.4.cnf+54c0011d,0,0.0,1496,4,1,11,1,11,131,18,UNSATISFIABLE,
minisat_spfs.sh+myciel4.col.5.cnf+e9b2cb5f,0,0.0,1496,5,3,323,5,454,6871,238,UNSATISFIABLE,
minisat_spfs.sh+myciel5.col.6.cnf+7ea595a1,0,0.15,1492,14,30,6356,71,9133,233559,2024,UNSATISFIABLE,
minisat_spfs.sh+myciel6.col.7.cnf+13985fe3,0,3397.44,45888,7,65535,52291322,7187,75396579,2879864668,514834,UNSATISFIABLE,
minisat_spfs.sh+myciel7.col.8.cnf+a88b2a25,0,3598.11,119440
minisat_spfs.sh+ndist.b.20499.cnf+79edf897,0,0.0,1436,nosym
minisat_spfs.sh+ndist.b.20998.cnf+825f095b,0,0.0,1440,nosym
minisat_spfs.sh+ndist.b.22495.cnf+4977f451,0,0.0,1436,nosym
minisat_spfs.sh+ndist.b.22994.cnf+51e90515,0,0.0,1436,nosym
minisat_spfs.sh+ndist.b.23992.cnf+b9ae02f2,0,0.0,1440,nosym
minisat_spfs.sh+ndist.b.24491.cnf+1901f00b,0,0.0,1440,nosym
minisat_spfs.sh+ndist.b.25489.cnf+7f9f0053,0,0.0,1440,nosym
minisat_spfs.sh+ndist.b.26487.cnf+e763fe30,0,0.0,1440,nosym
minisat_spfs.sh+ndist.b.27485.cnf+4f28fc0d,0,0.0,1440,nosym
minisat_spfs.sh+ndist.b.29481.cnf+1eb2f7c7,0,0.0,1436,nosym
minisat_spfs.sh+openstacks-p30_3.085-SAT.cnf+9512db2,0,2.31,181912,4,16,3246,0,52794,4590711,1,SATISFIABLE,
minisat_spfs.sh+openstacks-sequencedstrips-nonadl-nonnegated-os-sequencedstrips-p30_1.025-NOTKNOWN.cnf+9a7b3a34,0,3594.97,3609120
minisat_spfs.sh+openstacks-sequencedstrips-nonadl-nonnegated-os-sequencedstrips-p30_3.025-NOTKNOWN.cnf+239efe72,0,3595.41,5089024
minisat_spfs.sh+openstacks-sequencedstrips-nonadl-nonnegated-os-sequencedstrips-p30_3.085-SAT.cnf+4f819918,0,2.25,181480,4,16,3246,0,52794,4590711,1,SATISFIABLE,
minisat_spfs.sh+partial-10-11-s.cnf+d9f85e31,0,0.0,1436,nosym
minisat_spfs.sh+partial-10-17-s.cnf+175dc1b7,0,0.0,1436,nosym
minisat_spfs.sh+partial-5-15-s.cnf+284dca3f,0,0.0,1436,nosym
minisat_spfs.sh+partial-5-17-s.cnf+921a40c1,0,0.0,1440,nosym
minisat_spfs.sh+pb_300_10_lb_07.cnf+476e18d2,0,0.0,1440,nosym
minisat_spfs.sh+pb_300_10_lb_08.cnf+477c3053,0,0.0,1436,nosym
minisat_spfs.sh+post-c32s-ss-8.cnf+5078298b,0,0.0,1440,nosym
minisat_spfs.sh+post-cbmc-aes-d-r2-noholes.cnf+ceea1488,0,3.37,16417284
minisat_spfs.sh+post-cbmc-aes-d-r2.cnf+227fcb43,0,3.97,16417316
minisat_spfs.sh+post-cbmc-aes-ee-r2-noholes.cnf+4bab89d2,0,3.66,16049052
minisat_spfs.sh+post-cbmc-zfcp-2.8-u2.cnf+34f1bd00,0,0.0,1440,nosym
minisat_spfs.sh+prime2209-98.cnf+13458b7,0,3.73,6230484,4753,3,264,1,487,78655,11046,SATISFIABLE,
minisat_spfs.sh+q_query_3_L100_coli.sat.cnf+d98b14f3,0,138.85,313456,853,1181,565175,0,901636,330745764,86,UNSATISFIABLE,
minisat_spfs.sh+q_query_3_L150_coli.sat.cnf+9ad42838,0,51.12,358388,846,753,306916,0,567132,146165349,105,UNSATISFIABLE,
minisat_spfs.sh+q_query_3_L200_coli.sat.cnf+bb1cf2d2,0,396.4,628384,853,2236,1187858,0,1938734,794749845,106,UNSATISFIABLE,
minisat_spfs.sh+q_query_3_L80_coli.sat.cnf+8deb303e,0,46.19,241844,845,638,273863,0,457681,130145459,108,UNSATISFIABLE,
minisat_spfs.sh+q_query_3_L90_coli.sat.cnf+e7c69a7f,0,50.49,252616,852,700,291201,0,494656,137158597,91,UNSATISFIABLE,
minisat_spfs.sh+q_query_3_l45_lambda.cnf+58e07a5b,0,126.9,61008,137,2110,1144067,0,1668897,266737302,0,UNSATISFIABLE,
minisat_spfs.sh+q_query_3_l46_lambda.cnf+60921fba,0,91.07,62972,136,1789,846073,0,1226569,196002665,0,UNSATISFIABLE,
minisat_spfs.sh+q_query_3_l48_lambda.cnf+6ff56a78,0,79.38,64952,138,1712,800290,0,1179184,179433791,0,UNSATISFIABLE,
minisat_spfs.sh+queen10_10.col.10.cnf+27c215b1,0,0.05,3152,38,5,598,131,1402,43412,1251,UNSATISFIABLE,
minisat_spfs.sh+queen11_11.col.11.cnf+895d3cd2,0,0.14,4940,54,7,1045,191,2155,97035,1868,UNSATISFIABLE,
minisat_spfs.sh+queen12_12.col.12.cnf+eaf863f3,0,0.18,7552,57,7,1103,215,2538,112660,2443,UNSATISFIABLE,
minisat_spfs.sh+queen13_13.col.13.cnf+4c938b14,0,0.23,10388,77,6,731,165,2248,55913,2101,UNSATISFIABLE,
minisat_spfs.sh+queen14_14.col.14.cnf+ae2eb235,0,0.34,13168,80,8,1219,261,2755,119677,2784,UNSATISFIABLE,
minisat_spfs.sh+queen15_15.col.15.cnf+fc9d956,0,1.09,17780,101,14,2152,420,5673,264638,4911,UNSATISFIABLE,
minisat_spfs.sh+queen16_16.col.16.cnf+71650077,0,1.76,21332,107,15,2975,669,10531,388106,6898,UNSATISFIABLE,
minisat_spfs.sh+queen5_5.col.5.cnf+fd0ed849,0,0.0,1496,5,1,14,1,17,288,4,UNSATISFIABLE,
minisat_spfs.sh+queen6_6.col.7.cnf+8092c08d,0,0.0,1496,17,2,201,15,322,10576,254,UNSATISFIABLE,
minisat_spfs.sh+queen7_7.col.7.cnf+3fa79cf,0,0.0,1496,7,3,397,4,488,12955,47,UNSATISFIABLE,
minisat_spfs.sh+queen8_12.col.12.cnf+9595d5fa,0,0.17,3988,57,11,1689,330,3683,120866,2579,UNSATISFIABLE,
minisat_spfs.sh+queen8_8.col.9.cnf+877e6213,0,114.46,18692,30,2047,1081620,22760,1568254,84476300,168405,UNSATISFIABLE,
minisat_spfs.sh+queen9_9.col.10.cnf+443a79bd,0,3599.72,109672
minisat_spfs.sh+ramsey_3_3_6.cnf+b676202d,0,0.0,1440,nosym
minisat_spfs.sh+ramsey_3_4_9.cnf+eb86a1f1,0,0.0,1440,nosym
minisat_spfs.sh+ramsey_4_4_17.cnf+6c56dc47,0,0.0,1440,nosym
minisat_spfs.sh+ramsey_4_4_18.cnf+6c64f3c8,0,0.0,1436,nosym
minisat_spfs.sh+ramsey_4_5_24.cnf+d5c29b42,0,0.0,1436,nosym
minisat_spfs.sh+ramsey_4_5_25.cnf+d5d0b2c3,0,0.0,1436,nosym
minisat_spfs.sh+ramsey_5_5_42.cnf+cd598e9d,0,0.0,1440,nosym
minisat_spfs.sh+ramsey_5_5_43.cnf+cd67a61e,0,0.0,1440,nosym
minisat_spfs.sh+rbcl_xits_08_UNSAT.cnf+50994f0,0,1434.35,160384,1,20177,13427343,1928,17376961,1319706417,213762,UNSATISFIABLE,
minisat_spfs.sh+rbcl_xits_14_SAT.cnf+ccf3e844,0,0.49,14588,1,26,4844,3,10218,443610,128,SATISFIABLE,
minisat_spfs.sh+rbsat-v1150c84314gyes10.cnf+20264517,0,0.0,1436,nosym
minisat_spfs.sh+rbsat-v1150c84314gyes4.cnf+32c00736,0,0.0,1440,nosym
minisat_spfs.sh+rbsat-v1150c84314gyes5.cnf+32ce1eb7,0,0.0,1440,nosym
minisat_spfs.sh+rbsat-v1150c84314gyes7.cnf+32ea4db9,0,0.0,1436,nosym
minisat_spfs.sh+rbsat-v945c61409g10.cnf+be4291d3,0,0.0,1436,nosym
minisat_spfs.sh+rbsat-v945c61409gyes5.cnf+d5fd60a2,0,0.0,1436,nosym
minisat_spfs.sh+reg_s_2_unknown.cnf+72b049cf,0,3313.35,965716,15,5856,3277440,190,4303144,4922369042,415,UNSATISFIABLE,
minisat_spfs.sh+rnd-v25-e13-k3.cnf+43465dba,0,0.0,1440,nosym
minisat_spfs.sh+rnd-v25-e178-k13.cnf+276d8559,0,0.0,1440,nosym
minisat_spfs.sh+rnd-v25-e212-k9.cnf+88fb98fb,0,0.0,1436,nosym
minisat_spfs.sh+rnd-v25-e81-k9.cnf+81b79a09,0,0.0,1440,nosym
minisat_spfs.sh+rook-40-0-0.cnf+2337e49d,0,0.0,1436,nosym
minisat_spfs.sh+rook-40-0-1.cnf+2345fc1e,0,0.0,1436,nosym
minisat_spfs.sh+rook-42-0-0.cnf+4bc0c29f,0,0.0,1440,nosym
minisat_spfs.sh+rook-42-0-1.cnf+4bceda20,0,0.0,1440,nosym
minisat_spfs.sh+rook-42-1-1.cnf+80b51561,0,0.0,1440,nosym
minisat_spfs.sh+rook-44-0-1.cnf+7457b822,0,0.0,1440,nosym
minisat_spfs.sh+rook-44-1-1.cnf+a93df363,0,0.0,1440,nosym
minisat_spfs.sh+rook-46-1-1.cnf+d1c6d165,0,0.0,1440,nosym
minisat_spfs.sh+rook-47-0-1.cnf+31250525,0,0.0,1436,nosym
minisat_spfs.sh+rook-47-1-1.cnf+660b4066,0,0.0,1436,nosym
minisat_spfs.sh+rook-48-0-1.cnf+c5697426,0,0.0,1436,nosym
minisat_spfs.sh+rook-49-1-1.cnf+8e941e68,0,0.0,1440,nosym
minisat_spfs.sh+rook-50-0-0.cnf+178155bc,0,0.0,1440,nosym
minisat_spfs.sh+rook-51-0-0.cnf+abc5c4bd,0,0.0,1440,nosym
minisat_spfs.sh+rook-52-0-1.cnf+40184b3f,0,0.0,1436,nosym
minisat_spfs.sh+rook-54-0-0.cnf+689311c0,0,0.0,1440,nosym
minisat_spfs.sh+rook-54-1-1.cnf+9d876482,0,0.0,1440,nosym
minisat_spfs.sh+rook-55-0-1.cnf+fce59842,0,0.0,1440,nosym
minisat_spfs.sh+rook-56-0-0.cnf+911befc2,0,0.0,1440,nosym
minisat_spfs.sh+rook-56-1-1.cnf+c6104284,0,0.0,1440,nosym
minisat_spfs.sh+rook-57-1-1.cnf+5a54b185,0,0.0,1440,nosym
minisat_spfs.sh+rook-58-1-1.cnf+ee992086,0,0.0,1436,nosym
minisat_spfs.sh+rook-59-1-1.cnf+82dd8f87,0,0.0,1440,nosym
minisat_spfs.sh+rook-60-0-1.cnf+bd8de5c,0,0.0,1440,nosym
minisat_spfs.sh+rook-61-1-1.cnf+d503889e,0,0.0,1440,nosym
minisat_spfs.sh+rook-63-1-1.cnf+fd8c66a0,0,0.0,1440,nosym
minisat_spfs.sh+rook-65-1-1.cnf+261544a2,0,0.0,1440,nosym
minisat_spfs.sh+rook-68-1-1.cnf+e2e291a5,0,0.0,1440,nosym
minisat_spfs.sh+rook-72-1-1.cnf+5d9168be,0,0.0,1436,nosym
minisat_spfs.sh+rook-76-1-1.cnf+aea324c2,0,0.0,1440,nosym
minisat_spfs.sh+rpoc_xits_15_SAT.cnf+1677b3e,0,0.63,15100,2,27,4989,17,10170,292884,169,SATISFIABLE,
minisat_spfs.sh+rpoc_xits_15_SAT.cnf+1b480f08,0,0.58,16148,2,27,4989,17,10170,292884,169,SATISFIABLE,
minisat_spfs.sh+sat-grid-pbl-0200.sat05-1339.reshuffled-07.cnf+1394b0be,0,2.28,9838400,20098,1,0,0,1,2,0,SATISFIABLE,
minisat_spfs.sh+school1.col.14.cnf+31748711,0,3601.42,402976
minisat_spfs.sh+school1_nsh.col.14.cnf+f5cf978d,0,3601.54,346504
minisat_spfs.sh+sgen1-sat-230-100.cnf+6edc7bfa,0,0.0,1440,nosym
minisat_spfs.sh+sgen1-sat-240-100.cnf+6325ed19,0,0.0,1440,nosym
minisat_spfs.sh+sgen1-sat-250-100.cnf+576f5e38,0,0.0,1440,nosym
minisat_spfs.sh+sgen1-sat-270-100.cnf+40024076,0,0.0,1440,nosym
minisat_spfs.sh+sgen3-n200-s39840374-sat.cnf+a5c5844f,0,0.0,1440,nosym
minisat_spfs.sh+sgen3-n220-s24359701-sat.cnf+855e8cce,0,0.0,1440,nosym
minisat_spfs.sh+sgen3-n240-s78945233-sat.cnf+7ec00942,0,0.0,1440,nosym
minisat_spfs.sh+sgen4-sat-160-8.cnf+159af020,0,0.0,1440,nosym
minisat_spfs.sh+sgen4-sat-200-8.cnf+3a9851e7,0,0.0,1440,nosym
minisat_spfs.sh+sgen4-sat-220-8.cnf+a5aaba5,0,0.0,1440,nosym
minisat_spfs.sh+sgen6-1080-5-1.cnf+4e35d68a,0,0.0,1440,nosym
minisat_spfs.sh+sgen6-1200-5-1.cnf+d5b3b314,0,0.0,1440,nosym
minisat_spfs.sh+sgen6-1320-5-1.cnf+532b4813,0,0.0,1440,nosym
minisat_spfs.sh+sgen6-1440-5-1.cnf+d0a2dd12,0,0.0,1436,nosym
minisat_spfs.sh+sgen6-840-5-1.cnf+21c75cb3,0,0.0,1440,nosym
minisat_spfs.sh+sgen6-960-5-1.cnf+9f3ef1b2,0,0.0,1440,nosym
minisat_spfs.sh+shift1add.10000.cnf+9bda92bc,0,3.26,90896,2,59,13092,0,2151647,12865090,0,UNSATISFIABLE,
minisat_spfs.sh+shift1add.13988.cnf+bdadafa2,0,3.76,121964,2,63,18907,0,2711911,9717608,0,UNSATISFIABLE,
minisat_spfs.sh+shift1add.15982.cnf+8d1b7c5a,0,13.58,145732,2,79,22506,0,16198507,55688444,0,UNSATISFIABLE,
minisat_spfs.sh+shift1add.18973.cnf+c31841d9,0,7.18,166892,2,94,27130,0,5607713,23452998,0,UNSATISFIABLE,
minisat_spfs.sh+shift1add.21964.cnf+7e8db5a3,0,9.7,192600,2,122,32437,0,9236105,36555679,0,UNSATISFIABLE,
minisat_spfs.sh+shift1add.24955.cnf+b48a7b22,0,40.81,216156,2,124,33460,0,53669123,193253533,0,UNSATISFIABLE,
minisat_spfs.sh+shift1add.25952.cnf+1c41617e,0,51.39,235556,2,124,33466,0,55317042,213115734,0,UNSATISFIABLE,
minisat_spfs.sh+shift1add.29940.cnf+b9f50d59,0,82.62,264140,2,127,39723,0,75917967,288874049,0,UNSATISFIABLE,
minisat_spfs.sh+slp-synthesis-aes-top28.cnf+d0c94bd7,0,0.0,1440,nosym
minisat_spfs.sh+slp-synthesis-aes-top29.cnf+d0d76358,0,0.0,1440,nosym
minisat_spfs.sh+smtlib-qfbv-aigs-ext_con_032_008_0256-tseitin.cnf+ff02a19e,0,0.3,44392,69,3,325,74,41169,72008,327,UNSATISFIABLE,
minisat_spfs.sh+smtlib-qfbv-aigs-lfsr_004_127_112-tseitin.cnf+18e8a2c1,0,3.0,152740,1,94,26446,1,176708,6901413,148,UNSATISFIABLE,
minisat_spfs.sh+stable-300-0.1-20-98765432130020.cnf+800b3856,0,0.0,1440,nosym
minisat_spfs.sh+stable-400-0.1-11-98765432140011.cnf+1701ab98,0,0.0,1440,nosym
minisat_spfs.sh+stable-400-0.1-12-98765432140012.cnf+feb19978,0,0.0,1440,nosym
minisat_spfs.sh+stable-400-0.1-2-9876543214002.cnf+b31cb5a4,0,0.0,1436,nosym
minisat_spfs.sh+stable-400-0.1-4-9876543214004.cnf+4e8da828,0,0.0,1440,nosym
minisat_spfs.sh+stable-400-0.1-5-9876543214005.cnf+1c46216a,0,0.0,1440,nosym
minisat_spfs.sh+stable-400-0.1-7-9876543214007.cnf+b7b713ee,0,0.0,1436,nosym
minisat_spfs.sh+total-10-13-u.cnf+d0311ff8,0,0.0,1440,nosym
minisat_spfs.sh+toughsat_factoring_155s.cnf+d1dc2a29,0,0.0,1436,nosym
minisat_spfs.sh+toughsat_factoring_426s.cnf+6c81d7a2,0,0.0,1440,nosym
minisat_spfs.sh+toughsat_factoring_958s.cnf+16041afe,0,0.0,1436,nosym
minisat_spfs.sh+toughsat_factoring_inf.cnf+811b2dd4,0,0.0,1436,nosym
minisat_spfs.sh+tph17.cnf+98ca1c39,0,551.55,228768,747,1275,593518,196143,1149608,33452599,1984764,UNSATISFIABLE,
minisat_spfs.sh+transport-transport-city-sequential-25nodes-1000size-3degree-100mindistance-3trucks-10packages-2008seed.020-NOTKNOWN.cnf+aba3aeeb,0,0.0,1444,nosym
minisat_spfs.sh+transport-transport-city-sequential-25nodes-1000size-3degree-100mindistance-3trucks-10packages-2008seed.030-NOTKNOWN.cnf+57f192c,0,0.0,1440,nosym
minisat_spfs.sh+transport-transport-city-sequential-25nodes-1000size-3degree-100mindistance-3trucks-10packages-2008seed.040-NOTKNOWN.cnf+5f5a836d,0,0.0,1440,nosym
minisat_spfs.sh+transport-transport-city-sequential-25nodes-1000size-3degree-100mindistance-3trucks-10packages-2008seed.050-NOTKNOWN.cnf+b935edae,0,0.0,1440,nosym
minisat_spfs.sh+transport-transport-city-sequential-35nodes-1000size-4degree-100mindistance-4trucks-14packages-2008seed.040-NOTKNOWN.cnf+e16ac5f0,0,0.0,1444,nosym
minisat_spfs.sh+unsat-set-a-clqcolor-10-06-07.sat05-1250.reshuffled-07.cnf+459b37f4,0,0.09,2824,45,15,3092,447,5928,78809,2964,UNSATISFIABLE,
minisat_spfs.sh+unsat-set-a-clqcolor-12-07-08.sat05-1251.reshuffled-07.cnf+7a487213,0,5.74,4444,60,268,104586,16719,219352,3191045,81763,UNSATISFIABLE,
minisat_spfs.sh+unsat-set-a-clqcolor-16-10-11.sat05-1253.reshuffled-07.cnf+c303ce11,0,3598.63,113196
minisat_spfs.sh+unsat-set-a-clqcolor-30-19-20.sat05-1256.reshuffled-07.cnf+1aa900c7,0,3597.7,136404
minisat_spfs.sh+unsat-set-a-fclqcolor-10-06-07.sat05-1274.reshuffled-07.cnf+519c2bb2,0,0.03,1460,45,7,1025,215,1775,21817,1196,UNSATISFIABLE,
minisat_spfs.sh+unsat-set-a-fclqcolor-20-13-14.sat05-1278.reshuffled-07.cnf+7268dbb7,0,3600.58,250932
minisat_spfs.sh+unsat-set-b-clqcolor-16-11-14.sat05-1261.reshuffled-07.cnf+c8f941ab,0,29.36,32300,161,444,163465,49100,371784,5700168,240326,UNSATISFIABLE,
minisat_spfs.sh+unsat-set-b-clqcolor-30-20-26.sat05-1264.reshuffled-07.cnf+7556e353,0,3600.82,509316
minisat_spfs.sh+unsat-set-b-fclqcolor-10-07-09.sat05-1282.reshuffled-07.cnf+1ca3ebcf,0,0.17,3084,66,22,4058,1596,8633,85198,5540,UNSATISFIABLE,
minisat_spfs.sh+unsat-set-b-fclqcolor-25-18-23.sat05-1287.reshuffled-07.cnf+5a98ccd8,0,796.51,419596,430,1724,809767,394974,2447572,34187582,1184761,UNSATISFIABLE,
minisat_spfs.sh+vdw_2_3_8.cnf+aa4c9fe2,0,0.0,2308,2,1,0,0,1,0,0,SATISFIABLE,
minisat_spfs.sh+vdw_2_3_9.cnf+aa5ab763,0,0.0,1460,2,0,0,0,0,1,0,UNSATISFIABLE,
minisat_spfs.sh+vdw_2_4_34.cnf+fedc9b90,0,0.0,1464,2,1,75,0,84,703,2,SATISFIABLE,
minisat_spfs.sh+vdw_2_4_35.cnf+feeab311,0,0.0,1460,2,3,291,1,312,2667,10,UNSATISFIABLE,
minisat_spfs.sh+vdw_2_5_177.cnf+cb3ecbd,0,0.87,4280,2,164,53698,0,61306,831969,4,SATISFIABLE,
minisat_spfs.sh+vdw_2_5_178.cnf+cc2043e,0,53.83,13212,2,4148,2473056,9,2764701,37114109,355,UNSATISFIABLE,
minisat_spfs.sh+vdw_2_6_1131.cnf+39ec5ceb,0,3598.15,453408
minisat_spfs.sh+vdw_2_6_1132.cnf+39fa746c,0,3598.38,394308
minisat_spfs.sh+vdw_3_3_26.cnf+89ac3633,0,0.0,1456,2,3,397,0,511,5692,4,SATISFIABLE,
minisat_spfs.sh+vdw_3_3_27.cnf+89ba4db4,0,0.01,1464,3,14,2163,3,2587,32443,124,UNSATISFIABLE,
minisat_spfs.sh+vdw_3_4_292.cnf+455da777,0,3598.44,234612
minisat_spfs.sh+vdw_3_4_293.cnf+456bbef8,0,3597.44,238888
minisat_spfs.sh+vdw_4_3_75.cnf+866fcaec,0,2364.07,47220,8,81917,62972743,1502,76514216,2507940035,151308,SATISFIABLE,
minisat_spfs.sh+vdw_4_3_76.cnf+867de26d,0,3601.88,52128
minisat_spfs.sh+vdw_5_3_171.cnf+a28499f8,0,3601.56,216676
minisat_spfs.sh+velev-vliw-uns-2.0-uq5.cnf+ad9aacb4,0,3598.56,2341804
minisat_spfs.sh+velev-vliw-uns-4.0-9-i1.cnf+7fdfa39,0,3596.67,2677760
minisat_spfs.sh+velev-vliw-uns-4.0-9.cnf+358bc956,0,3112.53,2480200,2,11961,7261475,940,56140915,4572770222,1901,UNSATISFIABLE,
minisat_spfs.sh+vmpc_29.cnf+a61f1945,0,0.0,1440,nosym
minisat_spfs.sh+vmpc_32.renamed-as.sat05-1919.cnf+a8627276,0,0.0,1440,nosym
minisat_spfs.sh+vmpc_33.cnf+a77f64de,0,0.0,1440,nosym
minisat_spfs.sh+x1_40.shuffled.cnf+ad60b99f,0,4.52,1460,41,1020,421222,10685,723166,3799027,10685,UNSATISFIABLE,
minisat_spfs.sh+x1_80.shuffled.cnf+14ce62a3,0,3598.74,9528
minisat_spfs.sh+zeroin.i.1.col.49.cnf+cb88a061,0,1.81,8238996
minisat_spfs.sh+zeroin.i.2.col.30.cnf+d1069998,0,3600.61,1924396
minisat_spfs.sh+zeroin.i.3.col.30.cnf+d8b83ef7,0,3600.85,1831168
minisat_spfs.sh+zfcp-2.8-u2-nh.cnf+d90f7ab6,0,0.0,1440,nosym
