( 1 56 ) ( -1 -56 ) ( 2 50 ) ( -2 -50 ) ( 3 53 ) ( -3 -53 ) ( 4 52 ) ( -4 -52 ) ( 5 51 ) ( -5 -51 ) ( 6 54 ) ( -6 -54 ) ( 7 55 ) ( -7 -55 ) ( 8 49 ) ( -8 -49 ) ( 9 32 ) ( -9 -32 ) ( 10 26 ) ( -10 -26 ) ( 11 29 ) ( -11 -29 ) ( 12 28 ) ( -12 -28 ) ( 13 27 ) ( -13 -27 ) ( 14 30 ) ( -14 -30 ) ( 15 31 ) ( -15 -31 ) ( 16 25 ) ( -16 -25 ) ( 17 24 ) ( -17 -24 ) ( 19 21 ) ( -19 -21 ) ( 33 48 ) ( -33 -48 ) ( 34 42 ) ( -34 -42 ) ( 35 45 ) ( -35 -45 ) ( 36 44 ) ( -36 -44 ) ( 37 43 ) ( -37 -43 ) ( 38 46 ) ( -38 -46 ) ( 39 47 ) ( -39 -47 ) ( 40 41 ) ( -40 -41 ) ( 57 72 ) ( -57 -72 ) ( 58 66 ) ( -58 -66 ) ( 59 69 ) ( -59 -69 ) ( 60 68 ) ( -60 -68 ) ( 61 67 ) ( -61 -67 ) ( 62 70 ) ( -62 -70 ) ( 63 71 ) ( -63 -71 ) ( 64 65 ) ( -64 -65 ) 
( 1 10 ) ( -1 -10 ) ( 2 9 ) ( -2 -9 ) ( 3 11 ) ( -3 -11 ) ( 4 13 ) ( -4 -13 ) ( 5 12 ) ( -5 -12 ) ( 6 14 ) ( -6 -14 ) ( 7 15 ) ( -7 -15 ) ( 8 16 ) ( -8 -16 ) ( 17 66 ) ( -17 -66 ) ( 18 65 ) ( -18 -65 ) ( 19 67 ) ( -19 -67 ) ( 20 69 ) ( -20 -69 ) ( 21 68 ) ( -21 -68 ) ( 22 70 ) ( -22 -70 ) ( 23 71 ) ( -23 -71 ) ( 24 72 ) ( -24 -72 ) ( 25 58 ) ( -25 -58 ) ( 26 57 ) ( -26 -57 ) ( 27 59 ) ( -27 -59 ) ( 28 61 ) ( -28 -61 ) ( 29 60 ) ( -29 -60 ) ( 30 62 ) ( -30 -62 ) ( 31 63 ) ( -31 -63 ) ( 32 64 ) ( -32 -64 ) ( 33 42 ) ( -33 -42 ) ( 34 41 ) ( -34 -41 ) ( 35 43 ) ( -35 -43 ) ( 36 45 ) ( -36 -45 ) ( 37 44 ) ( -37 -44 ) ( 38 46 ) ( -38 -46 ) ( 39 47 ) ( -39 -47 ) ( 40 48 ) ( -40 -48 ) ( 49 50 ) ( -49 -50 ) ( 52 53 ) ( -52 -53 ) 
( 2 3 ) ( -2 -3 ) ( 5 6 ) ( -5 -6 ) ( 9 65 ) ( -9 -65 ) ( 10 67 ) ( -10 -67 ) ( 11 66 ) ( -11 -66 ) ( 12 68 ) ( -12 -68 ) ( 13 70 ) ( -13 -70 ) ( 14 69 ) ( -14 -69 ) ( 15 71 ) ( -15 -71 ) ( 16 72 ) ( -16 -72 ) ( 18 19 ) ( -18 -19 ) ( 21 22 ) ( -21 -22 ) ( 26 27 ) ( -26 -27 ) ( 29 30 ) ( -29 -30 ) ( 34 35 ) ( -34 -35 ) ( 37 38 ) ( -37 -38 ) ( 42 43 ) ( -42 -43 ) ( 45 46 ) ( -45 -46 ) ( 50 51 ) ( -50 -51 ) ( 53 54 ) ( -53 -54 ) ( 58 59 ) ( -58 -59 ) ( 61 62 ) ( -61 -62 ) 
( 3 7 ) ( -3 -7 ) ( 9 17 ) ( -9 -17 ) ( 10 18 ) ( -10 -18 ) ( 11 23 ) ( -11 -23 ) ( 12 20 ) ( -12 -20 ) ( 13 21 ) ( -13 -21 ) ( 14 22 ) ( -14 -22 ) ( 15 19 ) ( -15 -19 ) ( 16 24 ) ( -16 -24 ) ( 25 33 ) ( -25 -33 ) ( 26 34 ) ( -26 -34 ) ( 27 39 ) ( -27 -39 ) ( 28 36 ) ( -28 -36 ) ( 29 37 ) ( -29 -37 ) ( 30 38 ) ( -30 -38 ) ( 31 35 ) ( -31 -35 ) ( 32 40 ) ( -32 -40 ) ( 41 57 ) ( -41 -57 ) ( 42 58 ) ( -42 -58 ) ( 43 63 ) ( -43 -63 ) ( 44 60 ) ( -44 -60 ) ( 45 61 ) ( -45 -61 ) ( 46 62 ) ( -46 -62 ) ( 47 59 ) ( -47 -59 ) ( 48 64 ) ( -48 -64 ) ( 51 55 ) ( -51 -55 ) ( 67 71 ) ( -67 -71 ) 
( 3 4 ) ( -3 -4 ) ( 9 33 ) ( -9 -33 ) ( 10 34 ) ( -10 -34 ) ( 11 36 ) ( -11 -36 ) ( 12 35 ) ( -12 -35 ) ( 13 37 ) ( -13 -37 ) ( 14 38 ) ( -14 -38 ) ( 15 39 ) ( -15 -39 ) ( 16 40 ) ( -16 -40 ) ( 19 20 ) ( -19 -20 ) ( 25 57 ) ( -25 -57 ) ( 26 58 ) ( -26 -58 ) ( 27 60 ) ( -27 -60 ) ( 28 59 ) ( -28 -59 ) ( 29 61 ) ( -29 -61 ) ( 30 62 ) ( -30 -62 ) ( 31 63 ) ( -31 -63 ) ( 32 64 ) ( -32 -64 ) ( 43 44 ) ( -43 -44 ) ( 51 52 ) ( -51 -52 ) ( 67 68 ) ( -67 -68 ) 
( 4 5 ) ( -4 -5 ) ( 9 57 ) ( -9 -57 ) ( 10 58 ) ( -10 -58 ) ( 11 59 ) ( -11 -59 ) ( 12 61 ) ( -12 -61 ) ( 13 60 ) ( -13 -60 ) ( 14 62 ) ( -14 -62 ) ( 15 63 ) ( -15 -63 ) ( 16 64 ) ( -16 -64 ) ( 20 21 ) ( -20 -21 ) ( 28 29 ) ( -28 -29 ) ( 36 37 ) ( -36 -37 ) ( 44 45 ) ( -44 -45 ) ( 52 53 ) ( -52 -53 ) ( 68 69 ) ( -68 -69 ) 
( 4 6 ) ( -4 -6 ) ( 9 41 ) ( -9 -41 ) ( 10 42 ) ( -10 -42 ) ( 11 43 ) ( -11 -43 ) ( 12 46 ) ( -12 -46 ) ( 13 45 ) ( -13 -45 ) ( 14 44 ) ( -14 -44 ) ( 15 47 ) ( -15 -47 ) ( 16 48 ) ( -16 -48 ) ( 20 22 ) ( -20 -22 ) ( 28 30 ) ( -28 -30 ) ( 36 38 ) ( -36 -38 ) ( 52 54 ) ( -52 -54 ) ( 60 62 ) ( -60 -62 ) ( 68 70 ) ( -68 -70 ) 
rows 9 columns 16
9 -9 10 -10 11 -11 12 -12 13 -13 14 -14 15 -15 16 -16 
41 -41 42 -42 43 -43 44 -44 45 -45 46 -46 47 -47 48 -48 
25 -25 26 -26 27 -27 28 -28 29 -29 30 -30 31 -31 32 -32 
33 -33 34 -34 35 -35 36 -36 37 -37 38 -38 39 -39 40 -40 
49 -49 50 -50 51 -51 52 -52 53 -53 54 -54 55 -55 56 -56 
17 -17 18 -18 19 -19 20 -20 21 -21 22 -22 23 -23 24 -24 
65 -65 66 -66 67 -67 68 -68 69 -69 70 -70 71 -71 72 -72 
57 -57 58 -58 59 -59 60 -60 61 -61 62 -62 63 -63 64 -64 
1 -1 2 -2 3 -3 4 -4 5 -5 6 -6 7 -7 8 -8 
rows 8 columns 18
9 -9 41 -41 25 -25 33 -33 49 -49 17 -17 65 -65 57 -57 1 -1 
10 -10 42 -42 26 -26 34 -34 50 -50 18 -18 66 -66 58 -58 2 -2 
11 -11 43 -43 27 -27 35 -35 51 -51 19 -19 67 -67 59 -59 3 -3 
12 -12 44 -44 28 -28 36 -36 52 -52 20 -20 68 -68 60 -60 4 -4 
13 -13 45 -45 29 -29 37 -37 53 -53 21 -21 69 -69 61 -61 5 -5 
14 -14 46 -46 30 -30 38 -38 54 -54 22 -22 70 -70 62 -62 6 -6 
15 -15 47 -47 31 -31 39 -39 55 -55 23 -23 71 -71 63 -63 7 -7 
16 -16 48 -48 32 -32 40 -40 56 -56 24 -24 72 -72 64 -64 8 -8 
